<?xml version='1.0' encoding='UTF-8' standalone='yes' ?>
<gpx version="1.1" creator="OsmAndRouterV2" xmlns="http://www.topografix.com/GPX/1/1" xmlns:osmand="https://osmand.net" xmlns:xsi="http://www.w3.org/2001/XMLSchema-instance" xsi:schemaLocation="http://www.topografix.com/GPX/1/1 http://www.topografix.com/GPX/1/1/gpx.xsd">
  <metadata>
    <name>Fri 17 Mar 2023</name>
    <time>2023-03-17T15:40:39Z</time>
  </metadata>
  <trk>
    <name>Fri 17 Mar 2023</name>
    <trkseg>
      <trkpt lat="38.7047997" lon="-9.1677383" />
      <trkpt lat="38.7046943" lon="-9.1678139" />
      <trkpt lat="38.7046987" lon="-9.1678893" />
      <trkpt lat="38.7046663" lon="-9.1679495" />
      <trkpt lat="38.7045265" lon="-9.1679795" />
      <trkpt lat="38.7045052" lon="-9.1679046" />
      <trkpt lat="38.7043257" lon="-9.1679292" />
      <trkpt lat="38.7043051" lon="-9.1678898" />
      <trkpt lat="38.7042673" lon="-9.1679247" />
      <trkpt lat="38.7042297" lon="-9.1678791" />
      <trkpt lat="38.7041699" lon="-9.1678769" />
      <trkpt lat="38.7041695" lon="-9.1679381" />
      <trkpt lat="38.7038041" lon="-9.1679458" />
      <trkpt lat="38.703804" lon="-9.1680293" />
      <trkpt lat="38.7033545" lon="-9.168039" />
      <trkpt lat="38.7033541" lon="-9.1679567" />
      <trkpt lat="38.7033722" lon="-9.1679619" />
      <trkpt lat="38.7033714" lon="-9.168063" />
      <trkpt lat="38.7033557" lon="-9.1680679" />
      <trkpt lat="38.7030732" lon="-9.1683627" />
      <trkpt lat="38.702548" lon="-9.1713011" />
      <trkpt lat="38.7028998" lon="-9.171405" />
      <trkpt lat="38.7029351" lon="-9.1710349" />
    </trkseg>
  </trk>
</gpx>