<?xml version='1.0' encoding='UTF-8' standalone='yes' ?>
<gpx version="1.1" creator="OsmAndRouterV2" xmlns="http://www.topografix.com/GPX/1/1" xmlns:osmand="https://osmand.net" xmlns:xsi="http://www.w3.org/2001/XMLSchema-instance" xsi:schemaLocation="http://www.topografix.com/GPX/1/1 http://www.topografix.com/GPX/1/1/gpx.xsd">
  <metadata>
    <name>Sat 09 Sep 2023</name>
    <time>2023-09-09T22:24:04Z</time>
  </metadata>
  <trk>
    <name>Sat 09 Sep 2023</name>
    <trkseg>
      <trkpt lat="39.2424236" lon="-8.6756733" />
      <trkpt lat="39.2434743" lon="-8.6755876" />
      <trkpt lat="39.243651" lon="-8.6756517" />
      <trkpt lat="39.2439618" lon="-8.6763013" />
      <trkpt lat="39.2443357" lon="-8.6769859" />
      <trkpt lat="39.2446114" lon="-8.6776207" />
      <trkpt lat="39.2450687" lon="-8.6782782" />
      <trkpt lat="39.2455443" lon="-8.6792643" />
      <trkpt lat="39.2463005" lon="-8.6806208" />
      <trkpt lat="39.2465077" lon="-8.681268" />
      <trkpt lat="39.2466501" lon="-8.6819974" />
      <trkpt lat="39.2471245" lon="-8.6829419" />
      <trkpt lat="39.2472616" lon="-8.6835422" />
      <trkpt lat="39.2474511" lon="-8.6850677" />
      <trkpt lat="39.2472919" lon="-8.6863798" />
      <trkpt lat="39.2470769" lon="-8.6867478" />
      <trkpt lat="39.2468592" lon="-8.6868837" />
      <trkpt lat="39.2467483" lon="-8.6871181" />
      <trkpt lat="39.2464583" lon="-8.6873228" />
      <trkpt lat="39.2455874" lon="-8.688107" />
      <trkpt lat="39.245382" lon="-8.6883943" />
      <trkpt lat="39.2450826" lon="-8.6883727" />
      <trkpt lat="39.2444872" lon="-8.6886817" />
      <trkpt lat="39.2443091" lon="-8.6888983" />
      <trkpt lat="39.2442198" lon="-8.68937" />
      <trkpt lat="39.2443842" lon="-8.689629" />
      <trkpt lat="39.2443975" lon="-8.6899405" />
      <trkpt lat="39.2442625" lon="-8.6901646" />
      <trkpt lat="39.2439965" lon="-8.6902322" />
      <trkpt lat="39.2437973" lon="-8.6900172" />
      <trkpt lat="39.2436535" lon="-8.6897255" />
      <trkpt lat="39.2432134" lon="-8.6894464" />
      <trkpt lat="39.2427561" lon="-8.6889231" />
      <trkpt lat="39.2422682" lon="-8.6882782" />
      <trkpt lat="39.2415967" lon="-8.6878502" />
      <trkpt lat="39.2412487" lon="-8.6878252" />
      <trkpt lat="39.2407432" lon="-8.687939" />
      <trkpt lat="39.2399926" lon="-8.6877962" />
      <trkpt lat="39.2394728" lon="-8.6878356" />
      <trkpt lat="39.2392228" lon="-8.6877266" />
      <trkpt lat="39.2385407" lon="-8.6867599" />
      <trkpt lat="39.238417" lon="-8.6866752" />
      <trkpt lat="39.2375991" lon="-8.6878165" />
      <trkpt lat="39.2375876" lon="-8.688023" />
      <trkpt lat="39.2374938" lon="-8.6881808" />
      <trkpt lat="39.2372468" lon="-8.6881343" />
      <trkpt lat="39.2371572" lon="-8.6879695" />
      <trkpt lat="39.2372387" lon="-8.6876639" />
      <trkpt lat="39.2372867" lon="-8.6871743" />
      <trkpt lat="39.2376625" lon="-8.6866155" />
      <trkpt lat="39.2378749" lon="-8.6863056" />
      <trkpt lat="39.2379079" lon="-8.6861294" />
      <trkpt lat="39.2378651" lon="-8.6860164" />
      <trkpt lat="39.2376393" lon="-8.68574" />
      <trkpt lat="39.237615" lon="-8.6855842" />
    </trkseg>
  </trk>
</gpx>