<?xml version='1.0' encoding='UTF-8' standalone='yes' ?>
<gpx version="1.1" creator="OsmAnd~ 4.5.10" xmlns="http://www.topografix.com/GPX/1/1" xmlns:osmand="https://osmand.net" xmlns:xsi="http://www.w3.org/2001/XMLSchema-instance" xsi:schemaLocation="http://www.topografix.com/GPX/1/1 http://www.topografix.com/GPX/1/1/gpx.xsd">
  <metadata>
    <name>favorites-Porto - commerces</name>
    <time>2023-11-05T21:22:14Z</time>
  </metadata>
  <wpt lat="41.1491833" lon="-8.6078033">
    <time>2022-06-07T22:18:46Z</time>
    <name>Casa Chinesa</name>
    <desc>Une vitrine alléchante !</desc>
    <type>Porto - commerces</type>
    <extensions>
      <osmand:icon>shop_food</osmand:icon>
      <osmand:background>square</osmand:background>
      <osmand:color>#10c0f0</osmand:color>
      <osmand:address>Rua de Sá da Bandeira 341,343, Porto</osmand:address>
    </extensions>
  </wpt>
  <wpt lat="41.149724" lon="-8.6046638">
    <ele>106</ele>
    <time>2022-06-08T09:03:53Z</time>
    <name>Centre commercial</name>
    <desc>Décathlon, marché de Bolhão délocalisé.</desc>
    <type>Porto - commerces</type>
    <extensions>
      <osmand:icon>shop_supermarket</osmand:icon>
      <osmand:background>square</osmand:background>
      <osmand:color>#10c0f0</osmand:color>
      <osmand:address>Rua de Fernandes Tomás (São Nicolau), Porto</osmand:address>
    </extensions>
  </wpt>
  <wpt lat="41.1446724" lon="-8.6114254">
    <ele>65</ele>
    <time>2023-03-24T18:08:29Z</time>
    <name>Cultura Portuguesa Arts &amp; Crafts - Produits en liège</name>
    <type>Porto - commerces</type>
    <extensions>
      <osmand:amenity_subtype>interior_decoration</osmand:amenity_subtype>
      <osmand:amenity_name>Cultura Portuguesa Arts &amp; Crafts</osmand:amenity_name>
      <osmand:amenity_type>shop</osmand:amenity_type>
      <osmand:address>Rua Mouzinho da Silveira (São Nicolau) 318, Porto</osmand:address>
      <osmand:icon>interior_decoration</osmand:icon>
      <osmand:background>square</osmand:background>
      <osmand:color>#10c0f0</osmand:color>
      <osmand:amenity_origin>Amenity:Cultura Portuguesa Arts &amp; Crafts: shop:interior_decoration</osmand:amenity_origin>
    </extensions>
  </wpt>
  <wpt lat="41.1469396" lon="-8.6070525">
    <ele>91.8</ele>
    <time>2022-06-08T09:05:52Z</time>
    <name>Fnac</name>
    <type>Porto - commerces</type>
    <extensions>
      <osmand:icon>shop_books</osmand:icon>
      <osmand:background>square</osmand:background>
      <osmand:color>#ff5020</osmand:color>
      <osmand:address>Rua de Santa Catarina (São Nicolau) 73, Porto</osmand:address>
    </extensions>
  </wpt>
  <wpt lat="41.1476984" lon="-8.6136293">
    <ele>92.2</ele>
    <time>2022-06-07T22:41:50Z</time>
    <name>Livraria Bertrand</name>
    <desc>Librairie généraliste.</desc>
    <type>Porto - commerces</type>
    <extensions>
      <osmand:icon>shop_books</osmand:icon>
      <osmand:background>square</osmand:background>
      <osmand:color>#10c0f0</osmand:color>
      <osmand:address>Rua da Fábrica (São Nicolau), Porto</osmand:address>
    </extensions>
  </wpt>
  <wpt lat="41.1479504" lon="-8.6127729">
    <ele>85.8</ele>
    <time>2022-06-07T22:38:54Z</time>
    <name>Livraria Porto Editora</name>
    <desc>La librairie-papeterie des éditions Porto Editora, qui éditent notamment des livres scolaires et dictionnaires.</desc>
    <type>Porto - commerces</type>
    <extensions>
      <osmand:address>Praça D. Filipa de Lencastre 42</osmand:address>
      <osmand:icon>shop_books</osmand:icon>
      <osmand:background>square</osmand:background>
      <osmand:color>#10c0f0</osmand:color>
    </extensions>
  </wpt>
  <wpt lat="41.143805" lon="-8.6111972">
    <ele>68.5</ele>
    <time>2022-06-08T10:14:18Z</time>
    <name>Mercado de São Sebastião</name>
    <desc>Ce marché est la plupart du temps fermé. C'est un lieu de deal qui peut lui donner un côté mal famé, ainsi qu'aux rues adjacentes, surtout la nuit. Cependant les dealers ne sont pas agressifs dans mon expérience.</desc>
    <type>Porto - commerces</type>
    <extensions>
      <osmand:icon>amenity_marketplace</osmand:icon>
      <osmand:background>square</osmand:background>
      <osmand:color>#10c0f0</osmand:color>
    </extensions>
  </wpt>
  <wpt lat="41.1451464" lon="-8.6122527">
    <ele>70.8</ele>
    <time>2022-06-07T22:13:21Z</time>
    <name>Minipreço</name>
    <type>Porto - commerces</type>
    <extensions>
      <osmand:icon>shop_supermarket</osmand:icon>
      <osmand:background>square</osmand:background>
      <osmand:color>#10c0f0</osmand:color>
    </extensions>
  </wpt>
  <wpt lat="41.1493476" lon="-8.6077406">
    <time>2022-06-07T22:18:21Z</time>
    <name>Minipreço (1)</name>
    <type>Porto - commerces</type>
    <extensions>
      <osmand:icon>shop_supermarket</osmand:icon>
      <osmand:background>square</osmand:background>
      <osmand:color>#10c0f0</osmand:color>
    </extensions>
  </wpt>
  <wpt lat="41.1502076" lon="-8.6080276">
    <ele>96.2</ele>
    <time>2022-06-08T09:15:35Z</time>
    <name>Nortel - équipements pour professionnels de la restauration</name>
    <type>Porto - commerces</type>
    <extensions>
      <osmand:icon>shop_food</osmand:icon>
      <osmand:background>square</osmand:background>
      <osmand:color>#10c0f0</osmand:color>
    </extensions>
  </wpt>
  <wpt lat="41.1433288" lon="-8.6098102">
    <ele>77</ele>
    <time>2022-06-08T09:20:56Z</time>
    <name>O Forte dos Queijos</name>
    <desc>Une toute petite épicerie tenue par un couple d'anciens. Fromages et chouriços artisanaux.</desc>
    <type>Porto - commerces</type>
    <extensions>
      <osmand:icon>shop_food</osmand:icon>
      <osmand:background>square</osmand:background>
      <osmand:color>#10c0f0</osmand:color>
    </extensions>
  </wpt>
  <wpt lat="41.1496576" lon="-8.6076124">
    <ele>94.8</ele>
    <time>2022-06-07T22:17:48Z</time>
    <name>Pingo Doce</name>
    <type>Porto - commerces</type>
    <extensions>
      <osmand:icon>shop_supermarket</osmand:icon>
      <osmand:background>square</osmand:background>
      <osmand:color>#10c0f0</osmand:color>
    </extensions>
  </wpt>
  <wpt lat="41.1467416" lon="-8.6046431">
    <ele>105.2</ele>
    <time>2022-06-07T22:19:43Z</time>
    <name>Pingo Doce (1)</name>
    <type>Porto - commerces</type>
    <extensions>
      <osmand:icon>shop_supermarket</osmand:icon>
      <osmand:background>square</osmand:background>
      <osmand:color>#10c0f0</osmand:color>
    </extensions>
  </wpt>
  <wpt lat="41.1440464" lon="-8.60755">
    <ele>91.2</ele>
    <time>2022-06-08T09:54:55Z</time>
    <name>Rue à boulangeries</name>
    <type>Porto - commerces</type>
    <extensions>
      <osmand:icon>shop_food</osmand:icon>
      <osmand:background>square</osmand:background>
      <osmand:color>#10c0f0</osmand:color>
    </extensions>
  </wpt>
  <wpt lat="41.1488143" lon="-8.6061334">
    <ele>88.5</ele>
    <time>2022-06-08T09:08:30Z</time>
    <name>Rue commerçante</name>
    <desc>La rua Santa Catarina est la grande artère commerçante de Porto. On y trouve notamment la Fnac et des magasins de prêt-à-porter.</desc>
    <type>Porto - commerces</type>
    <extensions>
      <osmand:icon>shop_food</osmand:icon>
      <osmand:background>square</osmand:background>
      <osmand:color>#10c0f0</osmand:color>
    </extensions>
  </wpt>
  <wpt lat="41.1470949" lon="-8.6088354">
    <ele>78</ele>
    <time>2022-06-08T10:52:27Z</time>
    <name>Rue des magasins de musique</name>
    <type>Porto - commerces</type>
    <extensions>
      <osmand:icon>shop_food</osmand:icon>
      <osmand:background>square</osmand:background>
      <osmand:color>#10c0f0</osmand:color>
    </extensions>
  </wpt>
  <extensions>
    <osmand:points_groups>
      <group name="Porto - commerces" color="#10c0f0" icon="shop_food" background="square" />
    </osmand:points_groups>
  </extensions>
</gpx>