<?xml version='1.0' encoding='UTF-8' standalone='yes' ?>
<gpx version="1.1" creator="OsmAnd~ 4.5.10" xmlns="http://www.topografix.com/GPX/1/1" xmlns:osmand="https://osmand.net" xmlns:xsi="http://www.w3.org/2001/XMLSchema-instance" xsi:schemaLocation="http://www.topografix.com/GPX/1/1 http://www.topografix.com/GPX/1/1/gpx.xsd">
  <metadata>
    <name>favorites-Algarve</name>
    <time>2023-11-05T21:02:20Z</time>
  </metadata>
  <wpt lat="37.0900261" lon="-8.2455426">
    <ele>48</ele>
    <time>2022-11-24T11:05:27Z</time>
    <name>Albufeira</name>
    <desc>Vieilles maisons mauresques typiques, Station balnéaire</desc>
    <type>Algarve</type>
    <extensions>
      <osmand:address>Rua Pedro Álvares Cabral, Albufeira</osmand:address>
      <osmand:icon>hamlet</osmand:icon>
      <osmand:background>octagon</osmand:background>
      <osmand:color>#ff5020</osmand:color>
    </extensions>
  </wpt>
  <wpt lat="37.0871405" lon="-8.0313923">
    <ele>57.8</ele>
    <time>2022-11-24T11:10:41Z</time>
    <name>Almancil</name>
    <desc>Vieilles maisons mauresques typiques et jolie église couverte d'azulejos</desc>
    <type>Algarve</type>
    <extensions>
      <osmand:address>Avenida José dos Santos Farias, Almancil</osmand:address>
      <osmand:icon>hamlet</osmand:icon>
      <osmand:background>octagon</osmand:background>
      <osmand:color>#ff5020</osmand:color>
    </extensions>
  </wpt>
  <wpt lat="37.2864867" lon="-8.5532309">
    <ele>274</ele>
    <time>2022-11-24T11:33:38Z</time>
    <name>Caldas de Monchique</name>
    <desc>Charmante ville terminale avec rivière en escalier</desc>
    <type>Algarve</type>
    <extensions>
      <osmand:address>EN 266;ER 266</osmand:address>
      <osmand:icon>tourism_museum</osmand:icon>
      <osmand:background>octagon</osmand:background>
      <osmand:color>#ff5020</osmand:color>
    </extensions>
  </wpt>
  <wpt lat="36.9960333" lon="-8.9492341">
    <ele>37.8</ele>
    <time>2022-11-21T22:26:27Z</time>
    <name>Champs de lave de Sagres</name>
    <desc>La pointe du raz portugaise, réserve biogénétique (migrations automnales).</desc>
    <type>Algarve</type>
    <extensions>
      <osmand:icon>tourism_viewpoint</osmand:icon>
      <osmand:background>octagon</osmand:background>
      <osmand:color>#ff5020</osmand:color>
    </extensions>
  </wpt>
  <wpt lat="52.5349426" lon="13.4141866">
    <ele>51</ele>
    <time>2023-01-07T18:40:13Z</time>
    <name>Cimetière juif</name>
    <type>Algarve</type>
    <extensions>
      <osmand:address>Proche Schönhauser Allee, Prenzlauer Berg</osmand:address>
      <osmand:icon>grave</osmand:icon>
      <osmand:background>circle</osmand:background>
      <osmand:color>#ff5020</osmand:color>
    </extensions>
  </wpt>
  <wpt lat="37.0910586" lon="-8.412973">
    <ele>39.5</ele>
    <time>2023-01-07T17:33:02Z</time>
    <name>Début de la randonnée des 7 vallées suspendues</name>
    <type>Algarve</type>
    <extensions>
      <osmand:address>Estrada da Marinha (Caramujeira), Lagoa</osmand:address>
      <osmand:icon>special_trekking</osmand:icon>
      <osmand:background>octagon</osmand:background>
      <osmand:color>#ff5020</osmand:color>
    </extensions>
  </wpt>
  <wpt lat="37.1334676" lon="-6.483104">
    <time>2023-01-06T10:24:06Z</time>
    <name>El Rocio</name>
    <type>Algarve</type>
    <extensions>
      <osmand:address>Village de "cowboys"</osmand:address>
      <osmand:icon>special_horse</osmand:icon>
      <osmand:background>octagon</osmand:background>
      <osmand:color>#ff5020</osmand:color>
    </extensions>
  </wpt>
  <wpt lat="37.0914216" lon="-8.4539456">
    <ele>24</ele>
    <time>2023-01-07T17:41:15Z</time>
    <name>Fin de la randonnée des 7 vallées suspendues</name>
    <type>Algarve</type>
    <extensions>
      <osmand:address>LITORAL SUL sete vales suspensos</osmand:address>
      <osmand:icon>special_trekking</osmand:icon>
      <osmand:background>octagon</osmand:background>
      <osmand:color>#ff5020</osmand:color>
    </extensions>
  </wpt>
  <wpt lat="37.0604614" lon="-7.743894">
    <ele>2.8</ele>
    <time>2022-12-29T20:53:29Z</time>
    <name>Flamands roses</name>
    <type>Algarve</type>
    <extensions>
      <osmand:icon>special_photo_camera</osmand:icon>
      <osmand:background>octagon</osmand:background>
      <osmand:color>#10c0f0</osmand:color>
    </extensions>
  </wpt>
  <wpt lat="37.0885732" lon="-8.4404206">
    <ele>40.5</ele>
    <time>2023-01-07T17:37:52Z</time>
    <name>Forêt de pins</name>
    <desc>Abrite de petits mammifères</desc>
    <type>Algarve</type>
    <extensions>
      <osmand:icon>park</osmand:icon>
      <osmand:background>octagon</osmand:background>
      <osmand:color>#ff5020</osmand:color>
    </extensions>
  </wpt>
  <wpt lat="36.9990316" lon="-8.9486907">
    <ele>36.8</ele>
    <time>2022-11-21T22:26:11Z</time>
    <name>Forteresse de Sagres</name>
    <desc>Forteresse qui barre le cap, trous servant à l'exécution des prisonniers. Attention à ne pas tomber !</desc>
    <type>Algarve</type>
    <extensions>
      <osmand:address>Proche Rua da Fortaleza, Sagres</osmand:address>
      <osmand:icon>historic_castle</osmand:icon>
      <osmand:background>octagon</osmand:background>
      <osmand:color>#ff5020</osmand:color>
    </extensions>
  </wpt>
  <wpt lat="37.0535927" lon="-7.7496487">
    <ele>15</ele>
    <time>2023-01-06T09:23:52Z</time>
    <name>Fuseta A -Centre-ville</name>
    <type>Algarve</type>
    <extensions>
      <osmand:address>Rua de São Gonçalo de Lagos, Fuzeta</osmand:address>
      <osmand:icon>route_railway_ref</osmand:icon>
      <osmand:background>circle</osmand:background>
      <osmand:color>#1010a0</osmand:color>
    </extensions>
  </wpt>
  <wpt lat="37.0602009" lon="-7.7516789">
    <ele>5.8</ele>
    <time>2023-01-06T09:22:15Z</time>
    <name>Fuseta-Moncarapacho</name>
    <type>Algarve</type>
    <extensions>
      <osmand:address>Rua da Liberdade, Fuzeta</osmand:address>
      <osmand:icon>route_railway_ref</osmand:icon>
      <osmand:background>circle</osmand:background>
      <osmand:color>#1010a0</osmand:color>
    </extensions>
  </wpt>
  <wpt lat="37.0869183" lon="-8.4231582">
    <ele>34</ele>
    <time>2023-01-07T17:33:54Z</time>
    <name>Grotte de Benagil</name>
    <type>Algarve</type>
    <extensions>
      <osmand:address>Proche Estrada de Benagil (Benagil), Lagoa</osmand:address>
      <osmand:icon>natural_cave_entrance</osmand:icon>
      <osmand:background>octagon</osmand:background>
      <osmand:color>#ff5020</osmand:color>
    </extensions>
  </wpt>
  <wpt lat="37.0820991" lon="-8.0089184">
    <ele>46.8</ele>
    <time>2023-01-05T12:42:41Z</time>
    <name>Igreja de Almancil</name>
    <desc>Église aux murs intérieurs couverts d'azulejos</desc>
    <type>Algarve</type>
    <extensions>
      <osmand:address>Rua da Igreja (Troto), Almancil</osmand:address>
      <osmand:icon>building_type_church</osmand:icon>
      <osmand:background>octagon</osmand:background>
      <osmand:color>#ff5020</osmand:color>
    </extensions>
  </wpt>
  <wpt lat="37.0231825" lon="-8.9961162">
    <ele>52.8</ele>
    <time>2022-11-24T11:24:07Z</time>
    <name>Joli phare</name>
    <type>Algarve</type>
    <extensions>
      <osmand:address>EN 268</osmand:address>
      <osmand:icon>man_made_lighthouse</osmand:icon>
      <osmand:background>octagon</osmand:background>
      <osmand:color>#ff5020</osmand:color>
    </extensions>
  </wpt>
  <wpt lat="37.09195" lon="-8.668452">
    <time>2022-11-21T22:30:41Z</time>
    <name>Lagos</name>
    <desc>Excursions en bateau, arènes, falaises et grottes</desc>
    <type>Algarve</type>
    <extensions>
      <osmand:address>Proche Alameda Doutor Juíz Armando Soares Ribeiro, Lagos</osmand:address>
      <osmand:icon>tourism_viewpoint</osmand:icon>
      <osmand:background>octagon</osmand:background>
      <osmand:color>#ff5020</osmand:color>
    </extensions>
  </wpt>
  <wpt lat="37.0601833" lon="-7.7426739">
    <ele>4.8</ele>
    <time>2023-01-06T09:21:44Z</time>
    <name>Marais salants</name>
    <type>Algarve</type>
    <extensions>
      <osmand:icon>special_photo_camera</osmand:icon>
      <osmand:background>octagon</osmand:background>
      <osmand:color>#10c0f0</osmand:color>
    </extensions>
  </wpt>
  <wpt lat="37.0834159" lon="-7.787635">
    <ele>51.2</ele>
    <time>2023-01-06T10:31:05Z</time>
    <name>Marché intéressant</name>
    <desc>Super marché les 1er dimanche du mois</desc>
    <type>Algarve</type>
    <extensions>
      <osmand:address>Rua dos Varejões, Moncarapacho</osmand:address>
      <osmand:icon>shop_food</osmand:icon>
      <osmand:background>square</osmand:background>
      <osmand:color>#ff5020</osmand:color>
    </extensions>
  </wpt>
  <wpt lat="37.1349341" lon="-8.0085936">
    <time>2022-11-21T21:47:20Z</time>
    <name>Mine de sel</name>
    <desc>A faire - jours ouvrés, 9h30-11h et 14h30-16h, ligne bleue ou bleue claire</desc>
    <type>Algarve</type>
    <extensions>
      <osmand:address>Rua Betunes, Loulé</osmand:address>
      <osmand:icon>tunnel</osmand:icon>
      <osmand:background>octagon</osmand:background>
      <osmand:color>#ff5020</osmand:color>
    </extensions>
  </wpt>
  <wpt lat="37.3180717" lon="-8.5559568">
    <time>2022-11-24T11:31:30Z</time>
    <name>Monchique</name>
    <desc>Forteresse médiévale, montagnes et vignobles en terrasse. A faire : un petit bout du GR Via Algravia.</desc>
    <type>Algarve</type>
    <extensions>
      <osmand:address>Largo de 5 de Outubro, Monchique</osmand:address>
      <osmand:icon>village</osmand:icon>
      <osmand:background>octagon</osmand:background>
      <osmand:color>#ff5020</osmand:color>
    </extensions>
  </wpt>
  <wpt lat="37.0870807" lon="-8.25202">
    <ele>33</ele>
    <time>2023-01-06T19:29:11Z</time>
    <name>Musée archéologique d'Albufeira</name>
    <desc>Incontournable : un superbe vase néolithique de 5000 ans avant JC.</desc>
    <type>Algarve</type>
    <extensions>
      <osmand:address>Rua Henrique Calado, Albufeira</osmand:address>
      <osmand:icon>tourism_museum</osmand:icon>
      <osmand:background>octagon</osmand:background>
      <osmand:color>#ff5020</osmand:color>
    </extensions>
  </wpt>
  <wpt lat="37.1306054" lon="-8.5345697">
    <ele>8</ele>
    <time>2023-01-04T10:25:14Z</time>
    <name>Museu de Portimão</name>
    <desc>Musée de la conserverie, entre autres.</desc>
    <type>Algarve</type>
    <extensions>
      <osmand:address>Rua Dom Carlos I, Portimão</osmand:address>
      <osmand:icon>tourism_museum</osmand:icon>
      <osmand:background>octagon</osmand:background>
      <osmand:color>#ff5020</osmand:color>
    </extensions>
  </wpt>
  <wpt lat="37.0866317" lon="-8.4426755">
    <ele>40</ele>
    <time>2023-01-07T17:37:21Z</time>
    <name>Phare d'Alfanzina</name>
    <type>Algarve</type>
    <extensions>
      <osmand:icon>man_made_lighthouse</osmand:icon>
      <osmand:background>octagon</osmand:background>
      <osmand:color>#ff5020</osmand:color>
    </extensions>
  </wpt>
  <wpt lat="37.3424428" lon="-8.8524074">
    <ele>42.2</ele>
    <time>2023-10-26T19:46:50Z</time>
    <name>Praia de Monte Clérigo</name>
    <type>Algarve</type>
    <extensions>
      <osmand:address>Proche EM 1003-1</osmand:address>
      <osmand:icon>beach</osmand:icon>
      <osmand:background>circle</osmand:background>
      <osmand:color>#ff5020</osmand:color>
    </extensions>
  </wpt>
  <wpt lat="37.0866818" lon="-8.4316115">
    <ele>21</ele>
    <time>2023-01-07T17:36:02Z</time>
    <name>Praia do Carvalho</name>
    <desc>Uniquement accessible par des grottes</desc>
    <type>Algarve</type>
    <extensions>
      <osmand:address>Estrada do Carvalho (Benagil), Lagoa</osmand:address>
      <osmand:icon>natural_cave_entrance</osmand:icon>
      <osmand:background>octagon</osmand:background>
      <osmand:color>#ff5020</osmand:color>
    </extensions>
  </wpt>
  <wpt lat="37.1531425" lon="-7.8874388">
    <ele>254.8</ele>
    <time>2023-01-06T19:30:46Z</time>
    <name>São Brás de Alportel - capitale du liège</name>
    <desc>Un musée du liège et de nombreux circuits à travers les chênaies. Voir le circuit Rota da Cortiça et le Museu Etnográfico do Trajo Algarvio.</desc>
    <type>Algarve</type>
    <extensions>
      <osmand:address>Rua Doutor Silva Nobre, São Brás de Alportel</osmand:address>
      <osmand:icon>hamlet</osmand:icon>
      <osmand:background>octagon</osmand:background>
      <osmand:color>#ff5020</osmand:color>
    </extensions>
  </wpt>
  <extensions>
    <osmand:points_groups>
      <group name="Algarve" color="#10c0f0" icon="special_star" background="circle" />
    </osmand:points_groups>
  </extensions>
</gpx>