<?xml version='1.0' encoding='UTF-8' standalone='yes' ?>
<gpx version="1.1" creator="OsmAnd~ 4.6.14" xmlns="http://www.topografix.com/GPX/1/1" xmlns:osmand="https://osmand.net" xmlns:xsi="http://www.w3.org/2001/XMLSchema-instance" xsi:schemaLocation="http://www.topografix.com/GPX/1/1 http://www.topografix.com/GPX/1/1/gpx.xsd">
  <metadata>
    <name>favorites-Lisbonne - Balades</name>
  </metadata>
  <wpt lat="38.706293" lon="-9.1450453">
    <time>2023-09-06T08:49:38Z</time>
    <name>Arrêt 732</name>
    <type>Lisbonne - Balades</type>
    <extensions>
      <osmand:address>Cais do Sodré</osmand:address>
      <osmand:icon>route_bus_ref</osmand:icon>
      <osmand:background>circle</osmand:background>
      <osmand:color>#1010a0</osmand:color>
    </extensions>
  </wpt>
  <wpt lat="38.7063419" lon="-9.1794262">
    <ele>31.2</ele>
    <time>2023-09-06T08:41:02Z</time>
    <name>Calçada da Tapada - arrêt observatoire (retour - vers M. Moniz)</name>
    <type>Lisbonne - Balades</type>
    <extensions>
      <osmand:address>Calçada da Tapada</osmand:address>
      <osmand:icon>route_bus_ref</osmand:icon>
      <osmand:background>circle</osmand:background>
      <osmand:color>#1010a0</osmand:color>
    </extensions>
  </wpt>
  <wpt lat="38.70982" lon="-9.1453402">
    <ele>51</ele>
    <time>2023-09-02T18:37:58Z</time>
    <name>Coin sympa</name>
    <type>Lisbonne - Balades</type>
    <extensions>
      <osmand:address>Rua das Chagas (Encarnação), Misericórdia</osmand:address>
      <osmand:icon>rest_area</osmand:icon>
      <osmand:background>circle</osmand:background>
      <osmand:color>#10c0f0</osmand:color>
    </extensions>
  </wpt>
  <wpt lat="38.71271" lon="-9.1359048">
    <ele>39.5</ele>
    <time>2023-03-16T19:25:32Z</time>
    <name>Escadinhas de São Cristóvão</name>
    <type>Lisbonne - Balades</type>
    <extensions>
      <osmand:address>Rua do Regedor, Santa Maria Maior</osmand:address>
      <osmand:icon>special_trekking</osmand:icon>
      <osmand:background>circle</osmand:background>
      <osmand:color>#10c0f0</osmand:color>
    </extensions>
  </wpt>
  <wpt lat="38.7090526" lon="-9.1523784">
    <ele>17.2</ele>
    <time>2023-09-12T08:20:20Z</time>
    <name>Green Street Lisbon</name>
    <type>Lisbonne - Balades</type>
    <extensions>
      <osmand:address>Rua da Silva</osmand:address>
      <osmand:icon>special_trekking</osmand:icon>
      <osmand:background>octagon</osmand:background>
      <osmand:color>#10c0f0</osmand:color>
    </extensions>
  </wpt>
  <wpt lat="38.7205828" lon="-9.1352502">
    <ele>28</ele>
    <time>2023-09-15T09:48:33Z</time>
    <name>Joli bâtiment art déco (1908)</name>
    <type>Lisbonne - Balades</type>
    <extensions>
      <osmand:address>Largo do Intendente Pina Manique</osmand:address>
      <osmand:icon>special_building</osmand:icon>
      <osmand:background>octagon</osmand:background>
      <osmand:color>#10c0f0</osmand:color>
    </extensions>
  </wpt>
  <wpt lat="38.7207051" lon="-9.1349407">
    <ele>29.2</ele>
    <time>2023-09-15T09:42:43Z</time>
    <name>Jolie place</name>
    <type>Lisbonne - Balades</type>
    <extensions>
      <osmand:address>Largo do Intendente Pina Manique</osmand:address>
      <osmand:icon>special_trekking</osmand:icon>
      <osmand:background>octagon</osmand:background>
      <osmand:color>#10c0f0</osmand:color>
    </extensions>
  </wpt>
  <wpt lat="38.7021942" lon="-9.1784554">
    <ele>11.5</ele>
    <time>2023-09-04T17:57:36Z</time>
    <name>LXFactory</name>
    <type>Lisbonne - Balades</type>
    <extensions>
      <osmand:amenity_subtype>commercial</osmand:amenity_subtype>
      <osmand:website>http://www.lxfactory.com/</osmand:website>
      <osmand:phone>+351 21 314 3399</osmand:phone>
      <osmand:osm_tag_alt_name>Lx Factory</osmand:osm_tag_alt_name>
      <osmand:amenity_name>LXFactory</osmand:amenity_name>
      <osmand:amenity_type>man_made</osmand:amenity_type>
      <osmand:address>Rua Rodrigues Faria</osmand:address>
      <osmand:icon>commercial</osmand:icon>
      <osmand:background>circle</osmand:background>
      <osmand:color>#ff5020</osmand:color>
      <osmand:amenity_origin>Amenity:LXFactory: man_made:commercial</osmand:amenity_origin>
    </extensions>
  </wpt>
  <wpt lat="38.7150907" lon="-9.1439154">
    <ele>59.2</ele>
    <time>2023-03-15T15:54:18Z</time>
    <name>Miradouro da Misericórdia</name>
    <type>Lisbonne - Balades</type>
    <extensions>
      <osmand:address>Rua das Taipas, Misericórdia</osmand:address>
      <osmand:icon>tourism_viewpoint</osmand:icon>
      <osmand:background>circle</osmand:background>
      <osmand:color>#10c0f0</osmand:color>
    </extensions>
  </wpt>
  <wpt lat="38.7119502" lon="-9.1300048">
    <ele>50</ele>
    <time>2022-11-13T12:38:24Z</time>
    <name>Miradouro das Portas do Sol</name>
    <desc>Point de vue sur l'Alfama et le Tage.</desc>
    <type>Lisbonne - Balades</type>
    <extensions>
      <osmand:address>Rua Norberto de Araújo (Alfama), Santa Maria Maior</osmand:address>
      <osmand:icon>tourism_viewpoint</osmand:icon>
      <osmand:background>circle</osmand:background>
      <osmand:color>#10c0f0</osmand:color>
    </extensions>
  </wpt>
  <wpt lat="38.7095435" lon="-9.1477848">
    <ele>47</ele>
    <time>2023-09-04T17:46:34Z</time>
    <name>Miradouro de Santa Catarina</name>
    <type>Lisbonne - Balades</type>
    <extensions>
      <osmand:address>Rua de Santa Catarina</osmand:address>
      <osmand:icon>tourism_viewpoint</osmand:icon>
      <osmand:background>circle</osmand:background>
      <osmand:color>#10c0f0</osmand:color>
    </extensions>
  </wpt>
  <wpt lat="38.7164236" lon="-9.1315177">
    <ele>68</ele>
    <time>2023-03-16T08:08:36Z</time>
    <name>Miradouro Sophia de Mello Breyner Andresen, Lisboa</name>
    <type>Lisbonne - Balades</type>
    <extensions>
      <osmand:address>Miradouro Sophia de Mello Breyner Andresen, Lisboa</osmand:address>
      <osmand:icon>tourism_viewpoint</osmand:icon>
      <osmand:background>octagon</osmand:background>
      <osmand:color>#10c0f0</osmand:color>
    </extensions>
  </wpt>
  <wpt lat="38.7112842" lon="-9.185112">
    <time>2023-09-06T23:35:14Z</time>
    <name>Parc avec cigales et eucalyptus</name>
    <type>Lisbonne - Balades</type>
    <extensions>
      <osmand:address>Proche Tapada da Ajuda</osmand:address>
      <osmand:icon>rest_area</osmand:icon>
      <osmand:background>circle</osmand:background>
      <osmand:color>#10c0f0</osmand:color>
    </extensions>
  </wpt>
  <wpt lat="38.7152804" lon="-9.1347728">
    <ele>41.5</ele>
    <time>2023-03-16T08:14:42Z</time>
    <name>Point de vue</name>
    <type>Lisbonne - Balades</type>
    <extensions>
      <osmand:address>Rua Marquês de Ponte de Lima (Mouraria), Santa Maria Maior</osmand:address>
      <osmand:icon>tourism_viewpoint</osmand:icon>
      <osmand:background>circle</osmand:background>
      <osmand:color>#10c0f0</osmand:color>
    </extensions>
  </wpt>
  <wpt lat="38.7191258" lon="-9.1413365">
    <ele>64.5</ele>
    <time>2023-03-18T16:57:04Z</time>
    <name>Point de vue (1)</name>
    <type>Lisbonne - Balades</type>
    <extensions>
      <osmand:address>Rua do Telhal (São José) 10, Santo António</osmand:address>
      <osmand:icon>tourism_viewpoint</osmand:icon>
      <osmand:background>circle</osmand:background>
      <osmand:color>#10c0f0</osmand:color>
    </extensions>
  </wpt>
  <wpt lat="38.7159112" lon="-9.1371842">
    <ele>39</ele>
    <time>2023-03-18T19:23:10Z</time>
    <name>Point de vue (2)</name>
    <type>Lisbonne - Balades</type>
    <extensions>
      <osmand:address>Sat 18 Mar 2023 - balade de l'après-midi</osmand:address>
      <osmand:icon>tourism_viewpoint</osmand:icon>
      <osmand:background>circle</osmand:background>
      <osmand:color>#10c0f0</osmand:color>
    </extensions>
  </wpt>
  <wpt lat="38.7160167" lon="-9.137457">
    <ele>39</ele>
    <time>2023-03-18T19:23:27Z</time>
    <name>Point de vue (3)</name>
    <type>Lisbonne - Balades</type>
    <extensions>
      <osmand:address>Sat 18 Mar 2023 - balade de l'après-midi</osmand:address>
      <osmand:icon>tourism_viewpoint</osmand:icon>
      <osmand:background>circle</osmand:background>
      <osmand:color>#10c0f0</osmand:color>
    </extensions>
  </wpt>
  <wpt lat="38.7187164" lon="-9.1413836">
    <ele>64</ele>
    <time>2023-03-18T19:23:50Z</time>
    <name>Point de vue (4)</name>
    <type>Lisbonne - Balades</type>
    <extensions>
      <osmand:address>Sat 18 Mar 2023 - balade de l'après-midi</osmand:address>
      <osmand:icon>tourism_viewpoint</osmand:icon>
      <osmand:background>circle</osmand:background>
      <osmand:color>#10c0f0</osmand:color>
    </extensions>
  </wpt>
  <wpt lat="38.7067919" lon="-9.1978092">
    <ele>84</ele>
    <time>2023-03-20T12:23:50Z</time>
    <name>Point de vue (5)</name>
    <type>Lisbonne - Balades</type>
    <extensions>
      <osmand:address>Alameda dos Pinheiros, Ajuda</osmand:address>
      <osmand:icon>tourism_viewpoint</osmand:icon>
      <osmand:background>octagon</osmand:background>
      <osmand:color>#10c0f0</osmand:color>
    </extensions>
  </wpt>
  <wpt lat="38.7129447" lon="-9.1341812">
    <ele>61.8</ele>
    <time>2023-03-22T22:14:39Z</time>
    <name>Point de vue (6)</name>
    <type>Lisbonne - Balades</type>
    <extensions>
      <osmand:address>Costa do Castelo (São Cristóvão e São Lourenço) 46, Santa Maria Maior</osmand:address>
      <osmand:icon>tourism_viewpoint</osmand:icon>
      <osmand:background>octagon</osmand:background>
      <osmand:color>#10c0f0</osmand:color>
    </extensions>
  </wpt>
  <wpt lat="38.6958149" lon="-9.1933046">
    <ele>1</ele>
    <time>2023-03-23T16:18:42Z</time>
    <name>Point de vue (7)</name>
    <type>Lisbonne - Balades</type>
    <extensions>
      <osmand:address>Avenida de Brasília (Santo Amaro), Alcântara</osmand:address>
      <osmand:icon>tourism_viewpoint</osmand:icon>
      <osmand:background>octagon</osmand:background>
      <osmand:color>#10c0f0</osmand:color>
    </extensions>
  </wpt>
  <wpt lat="38.7096533" lon="-9.1474361">
    <time>2023-09-04T17:47:22Z</time>
    <name>Point de vue (8)</name>
    <type>Lisbonne - Balades</type>
    <extensions>
      <osmand:address>Rua de Santa Catarina</osmand:address>
      <osmand:icon>tourism_viewpoint</osmand:icon>
      <osmand:background>circle</osmand:background>
      <osmand:color>#10c0f0</osmand:color>
    </extensions>
  </wpt>
  <wpt lat="38.7157632" lon="-9.1366835">
    <ele>20.8</ele>
    <time>2023-03-16T13:52:07Z</time>
    <name>Point de vue sur lechâteau</name>
    <type>Lisbonne - Balades</type>
    <extensions>
      <osmand:address>Rua da Palma (Socorro), Santa Maria Maior</osmand:address>
      <osmand:icon>tourism_viewpoint</osmand:icon>
      <osmand:background>circle</osmand:background>
      <osmand:color>#10c0f0</osmand:color>
    </extensions>
  </wpt>
  <wpt lat="38.7127464" lon="-9.1729996">
    <ele>42.5</ele>
    <time>2023-03-18T19:26:11Z</time>
    <name>Points de vue</name>
    <type>Lisbonne - Balades</type>
    <extensions>
      <osmand:address>Rua Maria Pia (Santo Condestável), Campo de Ourique</osmand:address>
      <osmand:icon>tourism_viewpoint</osmand:icon>
      <osmand:background>circle</osmand:background>
      <osmand:color>#10c0f0</osmand:color>
    </extensions>
  </wpt>
  <wpt lat="38.7134908" lon="-9.1415574">
    <time>2023-03-21T13:26:36Z</time>
    <name>Points de vue (1)</name>
    <type>Lisbonne - Balades</type>
    <extensions>
      <osmand:address>Rua do Duque (Sacramento) 67, Santa Maria Maior</osmand:address>
      <osmand:icon>tourism_viewpoint</osmand:icon>
      <osmand:background>circle</osmand:background>
      <osmand:color>#10c0f0</osmand:color>
    </extensions>
  </wpt>
  <wpt lat="38.7158225" lon="-9.1384797">
    <ele>36.2</ele>
    <time>2023-03-18T16:09:13Z</time>
    <name>Restaurant sénégalais</name>
    <type>Lisbonne - Balades</type>
    <extensions>
      <osmand:address>Calçada de Santana (Arroios) 41, Lisboa</osmand:address>
      <osmand:icon>restaurants</osmand:icon>
      <osmand:background>circle</osmand:background>
      <osmand:color>#ff5020</osmand:color>
    </extensions>
  </wpt>
  <wpt lat="38.7003167" lon="-9.2040742">
    <ele>26.8</ele>
    <time>2022-11-13T15:44:41Z</time>
    <name>Rua 1, Belém</name>
    <desc>Un quartier qui fait village.</desc>
    <type>Lisbonne - Balades</type>
    <extensions>
      <osmand:address>Rua 1, Belém</osmand:address>
      <osmand:icon>special_trekking</osmand:icon>
      <osmand:background>circle</osmand:background>
      <osmand:color>#10c0f0</osmand:color>
    </extensions>
  </wpt>
  <wpt lat="38.717156" lon="-9.134965">
    <ele>24.8</ele>
    <time>2023-03-17T15:59:47Z</time>
    <name>Rue des bazars et restaurants asiatiques et arabes</name>
    <type>Lisbonne - Balades</type>
    <extensions>
      <osmand:address>Rua do Benformoso (Socorro), Santa Maria Maior</osmand:address>
      <osmand:icon>special_trekking</osmand:icon>
      <osmand:background>circle</osmand:background>
      <osmand:color>#10c0f0</osmand:color>
    </extensions>
  </wpt>
  <wpt lat="38.7271743" lon="-9.1358204">
    <ele>48.8</ele>
    <time>2022-11-14T21:51:16Z</time>
    <name>Rue intéressante</name>
    <type>Lisbonne - Balades</type>
    <extensions>
      <osmand:address>Regueirão dos Anjos (Anjos), Arroios</osmand:address>
      <osmand:icon>special_trekking</osmand:icon>
      <osmand:background>circle</osmand:background>
      <osmand:color>#10c0f0</osmand:color>
    </extensions>
  </wpt>
  <wpt lat="38.7162707" lon="-9.1385096">
    <ele>48.8</ele>
    <time>2023-03-18T16:56:15Z</time>
    <name>Rue métissée avec restaurants asiatiques et africains</name>
    <type>Lisbonne - Balades</type>
    <extensions>
      <osmand:address>Calçada de Santana (Arroios), Lisboa</osmand:address>
      <osmand:icon>special_trekking</osmand:icon>
      <osmand:background>circle</osmand:background>
      <osmand:color>#10c0f0</osmand:color>
    </extensions>
  </wpt>
  <wpt lat="38.7227481" lon="-9.1286315">
    <ele>86</ele>
    <time>2023-09-13T12:20:32Z</time>
    <name>Slogans communistes</name>
    <type>Lisbonne - Balades</type>
    <extensions>
      <osmand:address>Avenida General Roçadas</osmand:address>
      <osmand:icon>special_trekking</osmand:icon>
      <osmand:background>octagon</osmand:background>
      <osmand:color>#10c0f0</osmand:color>
    </extensions>
  </wpt>
  <wpt lat="38.7083436" lon="-9.1298073">
    <ele>4.2</ele>
    <time>2023-09-04T17:44:48Z</time>
    <name>Vieux bateaux traditionnels du Tage</name>
    <type>Lisbonne - Balades</type>
    <extensions>
      <osmand:address>Avenida Infante Dom Henrique</osmand:address>
      <osmand:icon>sport_sailing</osmand:icon>
      <osmand:background>circle</osmand:background>
      <osmand:color>#10c0f0</osmand:color>
    </extensions>
  </wpt>
  <extensions>
    <osmand:points_groups>
      <group name="Lisbonne - Balades" color="#10c0f0" icon="special_trekking" background="octagon" />
    </osmand:points_groups>
  </extensions>
</gpx>