<?xml version='1.0' encoding='UTF-8' standalone='yes' ?>
<gpx version="1.1" creator="OsmAnd~ 4.4.7" xmlns="http://www.topografix.com/GPX/1/1" xmlns:osmand="https://osmand.net" xmlns:xsi="http://www.w3.org/2001/XMLSchema-instance" xsi:schemaLocation="http://www.topografix.com/GPX/1/1 http://www.topografix.com/GPX/1/1/gpx.xsd">
  <metadata>
    <name>favorites-Evora</name>
    <time>2023-09-11T19:34:04Z</time>
  </metadata>
  <wpt lat="38.5761626" lon="-7.9128234">
    <time>2023-09-09T19:23:07Z</time>
    <name>Aqueduto de Évora</name>
    <type>Evora</type>
    <extensions>
      <osmand:amenity_subtype>canal</osmand:amenity_subtype>
      <osmand:osm_tag_alt_name>Caminho Pedonal das Águas de Prata</osmand:osm_tag_alt_name>
      <osmand:amenity_name>Aqueduto de Évora</osmand:amenity_name>
      <osmand:collapsable_access_general>access_yes</osmand:collapsable_access_general>
      <osmand:osm_tag_osmand_change>delete</osmand:osm_tag_osmand_change>
      <osmand:amenity_type>man_made</osmand:amenity_type>
      <osmand:osm_tag_wikipedia>http://pt.wikipedia.org/wiki/Aqueduto da Água de Prata</osmand:osm_tag_wikipedia>
      <osmand:collapsable_access_bicycle>bicycle_yes</osmand:collapsable_access_bicycle>
      <osmand:address>Rua do Muro, Évora</osmand:address>
      <osmand:icon>canal</osmand:icon>
      <osmand:background>octagon</osmand:background>
      <osmand:color>#ff5020</osmand:color>
      <osmand:amenity_origin>Amenity:Aqueduto de Evora: man_made:canal</osmand:amenity_origin>
    </extensions>
  </wpt>
  <wpt lat="38.572937" lon="-7.9092016">
    <ele>305.5</ele>
    <time>2023-09-09T18:53:59Z</time>
    <name>Arche romaine de Dona Isabel</name>
    <type>Evora</type>
    <extensions>
      <osmand:amenity_subtype>city_wall</osmand:amenity_subtype>
      <osmand:amenity_name>Arco romano de Dona Isabel</osmand:amenity_name>
      <osmand:amenity_type>tourism</osmand:amenity_type>
      <osmand:address>Rua de Dona Isabel, Évora</osmand:address>
      <osmand:icon>city_wall</osmand:icon>
      <osmand:background>octagon</osmand:background>
      <osmand:color>#10c0f0</osmand:color>
      <osmand:amenity_origin>Amenity:Arco romano de Dona Isabel: tourism:city_wall</osmand:amenity_origin>
    </extensions>
  </wpt>
  <wpt lat="38.5717902" lon="-7.9066359">
    <ele>305.5</ele>
    <time>2023-09-09T18:37:18Z</time>
    <name>Cathédrale</name>
    <type>Evora</type>
    <extensions>
      <osmand:address>Largo do Marquês de Marialva</osmand:address>
      <osmand:icon>building_type_church</osmand:icon>
      <osmand:background>octagon</osmand:background>
      <osmand:color>#10c0f0</osmand:color>
    </extensions>
  </wpt>
  <wpt lat="38.5688653" lon="-7.9088612">
    <time>2023-09-09T18:37:49Z</time>
    <name>Chapelle des os</name>
    <type>Evora</type>
    <extensions>
      <osmand:address>Praça 1º Maio</osmand:address>
      <osmand:icon>building_type_church</osmand:icon>
      <osmand:background>octagon</osmand:background>
      <osmand:color>#ff5020</osmand:color>
    </extensions>
  </wpt>
  <wpt lat="38.5574913" lon="-8.061202">
    <time>2023-09-09T22:33:09Z</time>
    <name>Cromeleque dos Almendres</name>
    <type>Evora</type>
    <extensions>
      <osmand:osm_tag_historic_era_neolithic>neolithic</osmand:osm_tag_historic_era_neolithic>
      <osmand:osm_tag_historic_civilization_prehistoric>prehistoric</osmand:osm_tag_historic_civilization_prehistoric>
      <osmand:osm_tag_wikidata>Q1969432</osmand:osm_tag_wikidata>
      <osmand:osm_tag_alt_name_-_en>Cromlech of the Almendres</osmand:osm_tag_alt_name_-_en>
      <osmand:amenity_type>tourism</osmand:amenity_type>
      <osmand:osm_tag_tourism_yes>yes</osmand:osm_tag_tourism_yes>
      <osmand:amenity_subtype>archaeological_site</osmand:amenity_subtype>
      <osmand:osm_tag_protection_title>Monumento Nacional</osmand:osm_tag_protection_title>
      <osmand:osm_tag_alt_name>Recinto Megalítico dos Almendres;Cromeleque na Herdade dos Almendres</osmand:osm_tag_alt_name>
      <osmand:amenity_name>Cromeleque dos Almendres</osmand:amenity_name>
      <osmand:osm_tag_historic_period_bronze_age>bronze-age</osmand:osm_tag_historic_period_bronze_age>
      <osmand:osm_tag_wikipedia>http://pt.wikipedia.org/wiki/Cromeleque dos Almendres</osmand:osm_tag_wikipedia>
      <osmand:osm_tag_megalith_type_stone_circle>stone_circle</osmand:osm_tag_megalith_type_stone_circle>
      <osmand:amenity_opening_hours>24/7</osmand:amenity_opening_hours>
      <osmand:osm_tag_operator>Sem afectação</osmand:osm_tag_operator>
      <osmand:address>Impossible de déterminer l'adresse</osmand:address>
      <osmand:icon>historic_archaeological_site</osmand:icon>
      <osmand:background>octagon</osmand:background>
      <osmand:color>#ff5020</osmand:color>
      <osmand:amenity_origin>Amenity:Almendres Cromlech: tourism:archaeological_site</osmand:amenity_origin>
    </extensions>
  </wpt>
  <wpt lat="38.5713093" lon="-7.9090505">
    <ele>302.8</ele>
    <time>2023-09-09T19:17:45Z</time>
    <name>Domus Burgos (maison noble romaine, 2e s.)</name>
    <type>Evora</type>
    <extensions>
      <osmand:address>Alcarcova de Cima</osmand:address>
      <osmand:icon>historic_archaeological_site</osmand:icon>
      <osmand:background>octagon</osmand:background>
      <osmand:color>#ff5020</osmand:color>
    </extensions>
  </wpt>
  <wpt lat="38.572913" lon="-7.9068994">
    <ele>309</ele>
    <time>2023-09-09T19:02:43Z</time>
    <name>Eglise 15e</name>
    <type>Evora</type>
    <extensions>
      <osmand:address>Rua Francisco Soares Lusitano</osmand:address>
      <osmand:icon>building_type_church</osmand:icon>
      <osmand:background>octagon</osmand:background>
      <osmand:color>#ff5020</osmand:color>
    </extensions>
  </wpt>
  <wpt lat="38.5688154" lon="-7.9084069">
    <ele>286.8</ele>
    <time>2023-09-09T18:38:12Z</time>
    <name>Eglise gothique São Francisco</name>
    <desc>Point de vue sur la ville, collection de crèches du monde entier</desc>
    <type>Evora</type>
    <extensions>
      <osmand:address>Rua da República</osmand:address>
      <osmand:icon>building_type_church</osmand:icon>
      <osmand:background>octagon</osmand:background>
      <osmand:color>#ff5020</osmand:color>
    </extensions>
  </wpt>
  <wpt lat="38.5605147" lon="-7.9073104">
    <ele>252</ele>
    <time>2023-09-09T19:35:15Z</time>
    <name>Gare</name>
    <type>Evora</type>
    <extensions>
      <osmand:address>Rua da Estação</osmand:address>
      <osmand:icon>route_railway_ref</osmand:icon>
      <osmand:background>circle</osmand:background>
      <osmand:color>#1010a0</osmand:color>
    </extensions>
  </wpt>
  <wpt lat="38.581398" lon="-7.937072">
    <ele>358.8</ele>
    <time>2023-09-09T18:44:49Z</time>
    <name>Moinhos Alto de São.Bento</name>
    <type>Evora</type>
    <extensions>
      <osmand:address>Proche CM 1086</osmand:address>
      <osmand:icon>man_made_windmill</osmand:icon>
      <osmand:background>octagon</osmand:background>
      <osmand:color>#ff5020</osmand:color>
    </extensions>
  </wpt>
  <wpt lat="38.5696245" lon="-7.9222346">
    <time>2023-09-09T18:45:29Z</time>
    <name>Moulns</name>
    <type>Evora</type>
    <extensions>
      <osmand:address>Avenida dos Salesianos</osmand:address>
      <osmand:icon>man_made_windmill</osmand:icon>
      <osmand:background>octagon</osmand:background>
      <osmand:color>#ff5020</osmand:color>
    </extensions>
  </wpt>
  <wpt lat="38.5731488" lon="-7.906369">
    <ele>298.8</ele>
    <time>2023-09-09T19:34:31Z</time>
    <name>Muraille islamique</name>
    <type>Evora</type>
    <extensions>
      <osmand:address>Largo dos Colegiais, Évora</osmand:address>
      <osmand:icon>city_wall</osmand:icon>
      <osmand:background>octagon</osmand:background>
      <osmand:color>#10c0f0</osmand:color>
    </extensions>
  </wpt>
  <wpt lat="38.5715378" lon="-7.9060691">
    <ele>298.2</ele>
    <time>2023-09-11T12:07:51Z</time>
    <name>Musée d'art sacré - Trésor</name>
    <type>Evora</type>
    <extensions>
      <osmand:address>Rua de Cenáculo</osmand:address>
      <osmand:icon>tourism_museum</osmand:icon>
      <osmand:background>circle</osmand:background>
      <osmand:color>#10c0f0</osmand:color>
    </extensions>
  </wpt>
  <wpt lat="38.5712147" lon="-7.9106694">
    <ele>299</ele>
    <time>2023-09-09T19:37:17Z</time>
    <name>Musée de l'horlogerie</name>
    <type>Evora</type>
    <extensions>
      <osmand:address>Rua dos Caldeireiros</osmand:address>
      <osmand:icon>tourism_museum</osmand:icon>
      <osmand:background>octagon</osmand:background>
      <osmand:color>#ff5020</osmand:color>
    </extensions>
  </wpt>
  <wpt lat="38.5720134" lon="-7.9071931">
    <ele>310.5</ele>
    <time>2023-09-09T18:50:47Z</time>
    <name>Musée national d'Evora</name>
    <type>Evora</type>
    <extensions>
      <osmand:address>Largo do Marquês de Marialva</osmand:address>
      <osmand:icon>tourism_museum</osmand:icon>
      <osmand:background>octagon</osmand:background>
      <osmand:color>#ff5020</osmand:color>
    </extensions>
  </wpt>
  <wpt lat="38.5732767" lon="-7.9072875">
    <time>2023-09-09T18:36:27Z</time>
    <name>Palais ducal</name>
    <type>Evora</type>
    <extensions>
      <osmand:address>Rua Augusto Filipe Simões</osmand:address>
      <osmand:icon>tourism_museum</osmand:icon>
      <osmand:background>octagon</osmand:background>
      <osmand:color>#ff5020</osmand:color>
    </extensions>
  </wpt>
  <wpt lat="38.5731602" lon="-7.9079072">
    <ele>304.8</ele>
    <time>2023-09-09T18:46:52Z</time>
    <name>Point.de vue</name>
    <type>Evora</type>
    <extensions>
      <osmand:address>Rua Francisco Soares Lusitano</osmand:address>
      <osmand:icon>tourism_viewpoint</osmand:icon>
      <osmand:background>octagon</osmand:background>
      <osmand:color>#10c0f0</osmand:color>
    </extensions>
  </wpt>
  <wpt lat="38.5754852" lon="-7.9142976">
    <ele>289</ele>
    <time>2023-09-09T19:30:42Z</time>
    <name>Porta Velha da Lagoa - muraille 17e</name>
    <type>Evora</type>
    <extensions>
      <osmand:amenity_subtype>city_gate</osmand:amenity_subtype>
      <osmand:amenity_name>Porta Velha da Lagoa</osmand:amenity_name>
      <osmand:osm_tag_foot_yes>yes</osmand:osm_tag_foot_yes>
      <osmand:amenity_type>tourism</osmand:amenity_type>
      <osmand:address>Rua Cândido dos Reis, Évora</osmand:address>
      <osmand:icon>city_gate</osmand:icon>
      <osmand:background>octagon</osmand:background>
      <osmand:color>#ff5020</osmand:color>
      <osmand:amenity_origin>Amenity:Porta Velha da Lagoa: tourism:city_gate</osmand:amenity_origin>
    </extensions>
  </wpt>
  <wpt lat="38.5707738" lon="-7.9092534">
    <ele>299.5</ele>
    <time>2023-09-09T18:59:23Z</time>
    <name>Praça do Giraldo (16e)</name>
    <type>Evora</type>
    <extensions>
      <osmand:address>Praça do Giraldo, Évora</osmand:address>
      <osmand:icon>special_trekking</osmand:icon>
      <osmand:background>circle</osmand:background>
      <osmand:color>#10c0f0</osmand:color>
    </extensions>
  </wpt>
  <wpt lat="38.5678293" lon="-7.9086413">
    <time>2023-09-11T12:08:58Z</time>
    <name>Quiosque do Jardim</name>
    <type>Evora</type>
    <extensions>
      <osmand:address>Rua 24 de Julho, Évora</osmand:address>
      <osmand:icon>amenity_biergarten</osmand:icon>
      <osmand:background>circle</osmand:background>
      <osmand:color>#10c0f0</osmand:color>
    </extensions>
  </wpt>
  <wpt lat="38.567208" lon="-7.9079181">
    <time>2023-09-09T19:11:30Z</time>
    <name>Remparts du fort du Comte de Lippe (17e)</name>
    <type>Evora</type>
    <extensions>
      <osmand:address>Rua da República</osmand:address>
      <osmand:icon>city_wall</osmand:icon>
      <osmand:background>octagon</osmand:background>
      <osmand:color>#10c0f0</osmand:color>
    </extensions>
  </wpt>
  <wpt lat="38.571361" lon="-7.9062194">
    <ele>295</ele>
    <time>2023-09-11T12:04:23Z</time>
    <name>Restaurante da Sé</name>
    <type>Evora</type>
    <extensions>
      <osmand:address>Rua da Freiria de Baixo</osmand:address>
      <osmand:icon>restaurants</osmand:icon>
      <osmand:background>circle</osmand:background>
      <osmand:color>#10c0f0</osmand:color>
    </extensions>
  </wpt>
  <wpt lat="38.5707948" lon="-7.9057692">
    <ele>292.2</ele>
    <time>2023-09-09T19:35:53Z</time>
    <name>Taxis</name>
    <type>Evora</type>
    <extensions>
      <osmand:address>Largo da Porta de Moura</osmand:address>
      <osmand:icon>special_taxi</osmand:icon>
      <osmand:background>circle</osmand:background>
      <osmand:color>#1010a0</osmand:color>
    </extensions>
  </wpt>
  <wpt lat="38.5709109" lon="-7.9096354">
    <ele>299.8</ele>
    <time>2023-09-09T19:36:22Z</time>
    <name>Taxis (1)</name>
    <type>Evora</type>
    <extensions>
      <osmand:address>Praça de Giraldo</osmand:address>
      <osmand:icon>special_taxi</osmand:icon>
      <osmand:background>circle</osmand:background>
      <osmand:color>#1010a0</osmand:color>
    </extensions>
  </wpt>
  <wpt lat="38.5726357" lon="-7.90734">
    <ele>309</ele>
    <time>2023-09-09T18:46:28Z</time>
    <name>Templo Romano de Évora</name>
    <type>Evora</type>
    <extensions>
      <osmand:amenity_subtype>abandoned_poi</osmand:amenity_subtype>
      <osmand:osm_tag_building_type_temple>temple</osmand:osm_tag_building_type_temple>
      <osmand:osm_tag_historic_civilization_ancient_roman>ancient_roman</osmand:osm_tag_historic_civilization_ancient_roman>
      <osmand:osm_tag_protection_title>Monumento Nacional</osmand:osm_tag_protection_title>
      <osmand:osm_tag_alt_name>Templo de Diana</osmand:osm_tag_alt_name>
      <osmand:amenity_name>Templo Romano de Évora</osmand:amenity_name>
      <osmand:osm_tag_wikidata>Q737441</osmand:osm_tag_wikidata>
      <osmand:osm_tag_abandoned>yes</osmand:osm_tag_abandoned>
      <osmand:amenity_type>man_made</osmand:amenity_type>
      <osmand:osm_tag_wikipedia>http://pt.wikipedia.org/wiki/Templo romano de Évora</osmand:osm_tag_wikipedia>
      <osmand:osm_tag_ruins>yes</osmand:osm_tag_ruins>
      <osmand:osm_tag_operator>DRCAlentejo, Portaria n.º 829/2009, DR, 2.ª série, n.º 163 de 24 agosto 2009</osmand:osm_tag_operator>
      <osmand:address>Largo do Conde de Vila Flor</osmand:address>
      <osmand:icon>abandoned_poi</osmand:icon>
      <osmand:background>octagon</osmand:background>
      <osmand:color>#10c0f0</osmand:color>
      <osmand:amenity_origin>Amenity:Roman Temple of Évora: man_made:abandoned_poi</osmand:amenity_origin>
    </extensions>
  </wpt>
  <wpt lat="38.5724256" lon="-7.9093437">
    <ele>305</ele>
    <time>2023-09-09T18:53:02Z</time>
    <name>Thermes romains</name>
    <type>Evora</type>
    <extensions>
      <osmand:address>Praça do Sertório</osmand:address>
      <osmand:icon>historic_archaeological_site</osmand:icon>
      <osmand:background>octagon</osmand:background>
      <osmand:color>#ff5020</osmand:color>
    </extensions>
  </wpt>
  <wpt lat="38.5716743" lon="-7.9093676">
    <ele>303</ele>
    <time>2023-09-09T19:27:49Z</time>
    <name>Torre de Sisebuto - vestige de la muraille wisigothe</name>
    <type>Evora</type>
    <extensions>
      <osmand:amenity_subtype>building</osmand:amenity_subtype>
      <osmand:osm_tag_historic_yes>yes</osmand:osm_tag_historic_yes>
      <osmand:amenity_name>Torre de Sisebuto</osmand:amenity_name>
      <osmand:osm_tag_wikidata>Q9088941</osmand:osm_tag_wikidata>
      <osmand:amenity_type>man_made</osmand:amenity_type>
      <osmand:address>Rua Nova</osmand:address>
      <osmand:icon>city_wall</osmand:icon>
      <osmand:background>octagon</osmand:background>
      <osmand:color>#10c0f0</osmand:color>
      <osmand:amenity_origin>Amenity:Torre de Sisebuto: man_made:building</osmand:amenity_origin>
    </extensions>
  </wpt>
  <wpt lat="38.5687639" lon="-7.9094108">
    <time>2023-09-11T13:42:40Z</time>
    <name>Zé do bacalhau</name>
    <type>Evora</type>
    <extensions>
      <osmand:address>Praça 1º Maio</osmand:address>
      <osmand:icon>shop_food</osmand:icon>
      <osmand:background>circle</osmand:background>
      <osmand:color>#10c0f0</osmand:color>
    </extensions>
  </wpt>
  <extensions>
    <osmand:points_groups>
      <group name="Evora" color="#10c0f0" icon="tourism_museum" background="circle" />
    </osmand:points_groups>
  </extensions>
</gpx>