<?xml version='1.0' encoding='UTF-8' standalone='yes' ?>
<gpx version="1.1" creator="OsmAnd~ 4.5.10" xmlns="http://www.topografix.com/GPX/1/1" xmlns:osmand="https://osmand.net" xmlns:xsi="http://www.w3.org/2001/XMLSchema-instance" xsi:schemaLocation="http://www.topografix.com/GPX/1/1 http://www.topografix.com/GPX/1/1/gpx.xsd">
  <metadata>
    <name>favorites-Porto - balades</name>
    <time>2023-11-05T21:18:19Z</time>
  </metadata>
  <wpt lat="41.1423569" lon="-8.6128663">
    <ele>55.5</ele>
    <time>2022-06-08T11:27:42Z</time>
    <name>Largo do Colégio</name>
    <desc>Belle vue en contre plongée sur le mur bordant le quartier de la cathédrale.</desc>
    <type>Porto - balades</type>
    <extensions>
      <osmand:icon>tourism_viewpoint</osmand:icon>
      <osmand:background>octagon</osmand:background>
      <osmand:color>#10c0f0</osmand:color>
      <osmand:address>Largo do Colégio (São Nicolau), Porto</osmand:address>
    </extensions>
  </wpt>
  <wpt lat="41.1420597" lon="-8.6129317">
    <ele>55</ele>
    <time>2022-06-07T22:22:48Z</time>
    <name>Point de vue</name>
    <type>Porto - balades</type>
    <extensions>
      <osmand:icon>tourism_viewpoint</osmand:icon>
      <osmand:background>octagon</osmand:background>
      <osmand:color>#10c0f0</osmand:color>
    </extensions>
  </wpt>
  <wpt lat="41.142307" lon="-8.6120282">
    <ele>74</ele>
    <time>2022-06-07T22:23:13Z</time>
    <name>Point de vue (1)</name>
    <type>Porto - balades</type>
    <extensions>
      <osmand:icon>tourism_viewpoint</osmand:icon>
      <osmand:background>octagon</osmand:background>
      <osmand:color>#10c0f0</osmand:color>
    </extensions>
  </wpt>
  <wpt lat="41.1430824" lon="-8.6113614">
    <ele>73</ele>
    <time>2022-06-07T22:23:38Z</time>
    <name>Point de vue (2)</name>
    <type>Porto - balades</type>
    <extensions>
      <osmand:icon>tourism_viewpoint</osmand:icon>
      <osmand:background>octagon</osmand:background>
      <osmand:color>#10c0f0</osmand:color>
    </extensions>
  </wpt>
  <wpt lat="41.1431413" lon="-8.6158824">
    <ele>76</ele>
    <time>2022-06-08T11:03:55Z</time>
    <name>Point de vue (3)</name>
    <desc>Joli point de vue mais en friche.</desc>
    <type>Porto - balades</type>
    <extensions>
      <osmand:icon>tourism_viewpoint</osmand:icon>
      <osmand:background>octagon</osmand:background>
      <osmand:color>#10c0f0</osmand:color>
    </extensions>
  </wpt>
  <wpt lat="41.1424318" lon="-8.6126294">
    <ele>62</ele>
    <time>2022-06-08T11:27:26Z</time>
    <name>Point de vue (4)</name>
    <type>Porto - balades</type>
    <extensions>
      <osmand:icon>tourism_viewpoint</osmand:icon>
      <osmand:background>octagon</osmand:background>
      <osmand:color>#10c0f0</osmand:color>
    </extensions>
  </wpt>
  <wpt lat="41.139669" lon="-8.609274">
    <time>2022-06-07T22:28:05Z</time>
    <name>Point de vue depuis le haut du pont</name>
    <type>Porto - balades</type>
    <extensions>
      <osmand:icon>tourism_viewpoint</osmand:icon>
      <osmand:background>octagon</osmand:background>
      <osmand:color>#10c0f0</osmand:color>
    </extensions>
  </wpt>
  <wpt lat="41.1383079" lon="-8.6086135">
    <ele>85.5</ele>
    <time>2022-06-07T21:53:20Z</time>
    <name>Point de vue sur Porto</name>
    <type>Porto - balades</type>
    <extensions>
      <osmand:icon>tourism_viewpoint</osmand:icon>
      <osmand:background>octagon</osmand:background>
      <osmand:color>#10c0f0</osmand:color>
    </extensions>
  </wpt>
  <wpt lat="41.140863" lon="-8.609731">
    <ele>14</ele>
    <time>2022-06-07T22:28:41Z</time>
    <name>Points de vue</name>
    <desc>Au choix en haut ou en bas du pont.</desc>
    <type>Porto - balades</type>
    <extensions>
      <osmand:icon>tourism_viewpoint</osmand:icon>
      <osmand:background>octagon</osmand:background>
      <osmand:color>#10c0f0</osmand:color>
    </extensions>
  </wpt>
  <wpt lat="41.1378685" lon="-8.6131978">
    <ele>3.8</ele>
    <time>2022-06-08T10:36:26Z</time>
    <name>Quai de Gaia</name>
    <desc>Magnifique point de vue sur Porto.</desc>
    <type>Porto - balades</type>
    <extensions>
      <osmand:icon>tourism_viewpoint</osmand:icon>
      <osmand:background>octagon</osmand:background>
      <osmand:color>#10c0f0</osmand:color>
    </extensions>
  </wpt>
  <wpt lat="41.1403152" lon="-8.6135536">
    <ele>7</ele>
    <time>2022-06-08T10:37:26Z</time>
    <name>Quais da Estiva</name>
    <desc>Point de vue sur Gaia. Il est intéressant de monter un peu les rues perpendiculaires pour des points de vue plongeants encadrés par les immeubles de Porto.</desc>
    <type>Porto - balades</type>
    <extensions>
      <osmand:icon>tourism_viewpoint</osmand:icon>
      <osmand:background>octagon</osmand:background>
      <osmand:color>#10c0f0</osmand:color>
    </extensions>
  </wpt>
  <wpt lat="41.1426589" lon="-8.6130391">
    <ele>57.2</ele>
    <time>2022-06-08T09:23:15Z</time>
    <name>Rues typiques</name>
    <type>Porto - balades</type>
    <extensions>
      <osmand:address>En contrebas de la cathédrale, il faut parcourir ce dédale de petites rues qui forment aussi un raccourci vers la place de la Bourse.</osmand:address>
      <osmand:icon>special_trekking</osmand:icon>
      <osmand:background>octagon</osmand:background>
      <osmand:color>#10c0f0</osmand:color>
    </extensions>
  </wpt>
  <wpt lat="41.1358738" lon="-8.609985">
    <ele>50</ele>
    <time>2022-06-08T09:25:21Z</time>
    <name>Rues typiques (1)</name>
    <type>Porto - balades</type>
    <extensions>
      <osmand:icon>special_trekking</osmand:icon>
      <osmand:background>octagon</osmand:background>
      <osmand:color>#10c0f0</osmand:color>
    </extensions>
  </wpt>
  <wpt lat="41.1418046" lon="-8.609886">
    <time>2022-06-08T09:27:14Z</time>
    <name>Rues typiques (2)</name>
    <desc>Situées sous le métro, il faut visiter ces quelques rues au charme désuet qui abritent plusieurs bâtiments en ruine.</desc>
    <type>Porto - balades</type>
    <extensions>
      <osmand:icon>special_trekking</osmand:icon>
      <osmand:background>octagon</osmand:background>
      <osmand:color>#10c0f0</osmand:color>
    </extensions>
  </wpt>
  <wpt lat="41.1371509" lon="-8.6092991">
    <ele>75</ele>
    <time>2022-06-07T23:17:43Z</time>
    <name>Vue sur le coucher du soleil</name>
    <desc>Attention il y a foule !</desc>
    <type>Porto - balades</type>
    <extensions>
      <osmand:icon>special_sunset</osmand:icon>
      <osmand:background>octagon</osmand:background>
      <osmand:color>#ff5020</osmand:color>
    </extensions>
  </wpt>
  <extensions>
    <osmand:points_groups>
      <group name="Porto - balades" color="#10c0f0" icon="special_trekking" background="octagon" />
    </osmand:points_groups>
  </extensions>
</gpx>