<?xml version='1.0' encoding='UTF-8' standalone='yes' ?>
<gpx version="1.1" creator="OsmAnd~ 4.3.5" xmlns="http://www.topografix.com/GPX/1/1" xmlns:osmand="https://osmand.net" xmlns:xsi="http://www.w3.org/2001/XMLSchema-instance" xsi:schemaLocation="http://www.topografix.com/GPX/1/1 http://www.topografix.com/GPX/1/1/gpx.xsd">
  <metadata>
    <name>favorites-Portugal</name>
    <time>2023-03-16T15:43:21Z</time>
  </metadata>
  <wpt lat="39.3754528" lon="-9.3410774">
    <ele>0</ele>
    <time>2023-02-16T19:17:16Z</time>
    <name>Baleal - Mini-village de pêcheurs et joli archipel</name>
    <type>Portugal</type>
    <extensions>
      <osmand:address>Rua do Pôr do Sol, Baleal</osmand:address>
      <osmand:icon>hamlet</osmand:icon>
      <osmand:background>octagon</osmand:background>
      <osmand:color>#ff5020</osmand:color>
    </extensions>
  </wpt>
  <wpt lat="41.548489" lon="-8.4161754">
    <time>2023-02-24T14:34:58Z</time>
    <name>Braga</name>
    <type>Portugal</type>
    <extensions>
      <osmand:address>Avenida João XXI, Santa Tecla</osmand:address>
      <osmand:icon>hamlet</osmand:icon>
      <osmand:background>octagon</osmand:background>
      <osmand:color>#ff5020</osmand:color>
    </extensions>
  </wpt>
  <wpt lat="39.3530297" lon="-9.3813341">
    <ele>16</ele>
    <time>2023-01-10T21:57:05Z</time>
    <name>Forteresse de Peniche - ancienne prison salazariste</name>
    <type>Portugal</type>
    <extensions>
      <osmand:address>Proche Avenida do Mar, Peniche</osmand:address>
      <osmand:icon>historic_castle</osmand:icon>
      <osmand:background>octagon</osmand:background>
      <osmand:color>#ff5020</osmand:color>
    </extensions>
  </wpt>
  <wpt lat="38.2937003" lon="-7.3963275">
    <time>2023-01-10T22:03:13Z</time>
    <name>Jolie région</name>
    <type>Portugal</type>
    <extensions>
      <osmand:icon>special_photo_camera</osmand:icon>
      <osmand:background>octagon</osmand:background>
      <osmand:color>#ff5020</osmand:color>
    </extensions>
  </wpt>
  <wpt lat="39.6005835" lon="-9.0708089">
    <ele>16.2</ele>
    <time>2023-01-10T22:00:19Z</time>
    <name>Nazaré - vagues spectaculaires</name>
    <type>Portugal</type>
    <extensions>
      <osmand:address>Rua da Pátria, Nazaré</osmand:address>
      <osmand:icon>sport_surfing</osmand:icon>
      <osmand:background>octagon</osmand:background>
      <osmand:color>#ff5020</osmand:color>
    </extensions>
  </wpt>
  <wpt lat="39.6030798" lon="-9.0696799">
    <ele>39.2</ele>
    <time>2023-02-16T19:16:00Z</time>
    <name>Nazaré - vieille ville</name>
    <type>Portugal</type>
    <extensions>
      <osmand:address>Avenida da Independência Nacional, Nazaré</osmand:address>
      <osmand:icon>special_trekking</osmand:icon>
      <osmand:background>circle</osmand:background>
      <osmand:color>#ff5020</osmand:color>
    </extensions>
  </wpt>
  <wpt lat="39.415374" lon="-9.5098887">
    <ele>89</ele>
    <time>2023-02-16T19:12:37Z</time>
    <name>Réserve naturelle</name>
    <type>Portugal</type>
    <extensions>
      <osmand:icon>wood</osmand:icon>
      <osmand:background>octagon</osmand:background>
      <osmand:color>#ff5020</osmand:color>
    </extensions>
  </wpt>
  <wpt lat="38.531129" lon="-8.88482">
    <time>2023-02-16T19:18:50Z</time>
    <name>Setúbal - Jolie ville</name>
    <type>Portugal</type>
    <extensions>
      <osmand:address>Avenida dos Ciprestes, Setúbal</osmand:address>
      <osmand:icon>hamlet</osmand:icon>
      <osmand:background>octagon</osmand:background>
      <osmand:color>#ff5020</osmand:color>
    </extensions>
  </wpt>
  <extensions>
    <osmand:points_groups>
      <group name="Portugal" color="#10c0f0" icon="special_star" background="circle" />
    </osmand:points_groups>
  </extensions>
</gpx>