<?xml version='1.0' encoding='UTF-8' standalone='yes' ?>
<gpx version="1.1" creator="OsmAnd~ 4.3.5" xmlns="http://www.topografix.com/GPX/1/1" xmlns:osmand="https://osmand.net" xmlns:xsi="http://www.w3.org/2001/XMLSchema-instance" xsi:schemaLocation="http://www.topografix.com/GPX/1/1 http://www.topografix.com/GPX/1/1/gpx.xsd">
  <metadata>
    <name>favorites-Berlin</name>
    <time>2023-08-06T20:56:37Z</time>
  </metadata>
  <wpt lat="52.5398269" lon="13.4233324">
    <ele>53</ele>
    <time>2023-01-10T22:13:00Z</time>
    <name>Air B'nB</name>
    <type>Berlin</type>
    <extensions>
      <osmand:address>Danziger Straße (Grüne Stadt) 67, Prenzlauer Berg</osmand:address>
      <osmand:icon>tourism_hostel</osmand:icon>
      <osmand:background>circle</osmand:background>
      <osmand:color>#1010a0</osmand:color>
    </extensions>
  </wpt>
  <wpt lat="52.4886998" lon="13.429611">
    <time>2022-06-09T03:55:39Z</time>
    <name>Aire de pique-nique</name>
    <desc>Idéalement située en face du Sahara Imbiss.</desc>
    <type>Berlin</type>
    <extensions>
      <osmand:address>Nansenstraße (Reuterkiez) 3, Neukölln</osmand:address>
      <osmand:icon>tourism_picnic_site</osmand:icon>
      <osmand:background>circle</osmand:background>
      <osmand:color>#a71de1</osmand:color>
    </extensions>
  </wpt>
  <wpt lat="52.5266044" lon="13.4323394">
    <ele>74</ele>
    <time>2022-06-09T05:40:59Z</time>
    <name>Ancien bunker, colline artificielle</name>
    <desc>Parc arboré construit sur les ruines d'un des quatres bunkers géants construit par les nazis pour abriter la population et que les alliés n'ont jamais réussi à détruire entièrement. A voir une prochaine fois.</desc>
    <type>Berlin</type>
    <extensions>
      <osmand:address>Proche Friedenstraße, Prenzlauer Berg</osmand:address>
      <osmand:icon>park</osmand:icon>
      <osmand:background>octagon</osmand:background>
      <osmand:color>#ff5020</osmand:color>
    </extensions>
  </wpt>
  <wpt lat="52.5170842" lon="13.4407628">
    <time>2022-06-08T19:08:24Z</time>
    <name>Angle de la Karl-Marx Allée et de la Straße der Pariser Kommune</name>
    <desc>Pour photographier les panneaux de noms de rue. Il n'existe même pas de rue de la Commune de Paris à Paris !</desc>
    <type>Berlin</type>
    <extensions>
      <osmand:address>Straße der Pariser Kommune 43, Friedrichshain</osmand:address>
      <osmand:icon>information_guidepost</osmand:icon>
      <osmand:background>circle</osmand:background>
      <osmand:color>#a71de1</osmand:color>
    </extensions>
  </wpt>
  <wpt lat="52.5054581" lon="13.4693702">
    <ele>36</ele>
    <time>2023-03-16T16:14:40Z</time>
    <name>Bagelmann</name>
    <desc>Délicieux bagels et Cocktails sans alcool maison !</desc>
    <type>Berlin</type>
    <extensions>
      <osmand:address>Neue Bahnhofstraße 30, Friedrichshain</osmand:address>
      <osmand:icon>restaurants</osmand:icon>
      <osmand:background>circle</osmand:background>
      <osmand:color>#a71de1</osmand:color>
    </extensions>
  </wpt>
  <wpt lat="52.5005307" lon="13.4225903">
    <time>2022-06-09T11:25:31Z</time>
    <name>Bateau ivre</name>
    <desc>Sympa pour boire un café ou un verre en terrasse. Essayer la limonade maison.</desc>
    <type>Berlin</type>
    <extensions>
      <osmand:address>Oranienstraße 18, Kreuzberg</osmand:address>
      <osmand:icon>amenity_biergarten</osmand:icon>
      <osmand:background>circle</osmand:background>
      <osmand:color>#a71de1</osmand:color>
    </extensions>
  </wpt>
  <wpt lat="52.5190734" lon="13.4011846">
    <ele>34</ele>
    <time>2023-03-16T16:00:41Z</time>
    <name>Berliner Dom</name>
    <type>Berlin</type>
    <extensions>
      <osmand:address>Am Lustgarten 1, Berlin</osmand:address>
      <osmand:icon>building_type_church</osmand:icon>
      <osmand:background>octagon</osmand:background>
      <osmand:color>#ff5020</osmand:color>
    </extensions>
  </wpt>
  <wpt lat="52.5478105" lon="13.3892561">
    <ele>48.8</ele>
    <time>2022-06-08T18:53:55Z</time>
    <name>Berliner Unterwelten</name>
    <desc>Super visites thématiques du Berlin souterrain. Pas de réservation possible, il faut venir suffisamment en avance. 
Le planning des visites est disponible en ligne. Au programme : bunkers de la seconde guerre mondiale, évasions de l'Est vers l'Ouest...
Visites en français, en anglais et dans les principales autres langues européennes.</desc>
    <type>Berlin</type>
    <extensions>
      <osmand:address>Brunnenstraße 105, Gesundbrunnen</osmand:address>
      <osmand:icon>tunnel</osmand:icon>
      <osmand:background>octagon</osmand:background>
      <osmand:color>#a71de1</osmand:color>
    </extensions>
  </wpt>
  <wpt lat="52.5540085" lon="13.3832359">
    <ele>40</ele>
    <time>2022-06-08T20:40:47Z</time>
    <name>Boucherie Haroun</name>
    <desc>Super boucherie tenue par un Algérien qui vit à Berlin depuis trente ans ! Idéal pour se procurer les ingrédients nécessaires à une blanquette de veau ou un couscous.</desc>
    <type>Berlin</type>
    <cmt>Amenity:Fleischerei Haroun: shop:butcher</cmt>
    <extensions>
      <osmand:address>Prinzenallee 13, Gesundbrunnen</osmand:address>
      <osmand:icon>shop_butcher</osmand:icon>
      <osmand:background>square</osmand:background>
      <osmand:color>#a71de1</osmand:color>
      <osmand:amenity_origin>Amenity:Fleischerei Haroun: shop:butcher</osmand:amenity_origin>
    </extensions>
  </wpt>
  <wpt lat="52.5496922" lon="13.3894942">
    <ele>47.2</ele>
    <time>2022-06-08T21:03:29Z</time>
    <name>Centre commercial</name>
    <type>Berlin</type>
    <extensions>
      <osmand:address>Behmstraße 6, Gesundbrunnen</osmand:address>
      <osmand:icon>shop_supermarket</osmand:icon>
      <osmand:background>square</osmand:background>
      <osmand:color>#a71de1</osmand:color>
    </extensions>
  </wpt>
  <wpt lat="52.5496192" lon="13.4154594">
    <ele>51.2</ele>
    <time>2022-06-09T05:55:01Z</time>
    <name>Centre commercial (1)</name>
    <type>Berlin</type>
    <extensions>
      <osmand:address>Wichertstraße 4, Prenzlauer Berg</osmand:address>
      <osmand:icon>shop_supermarket</osmand:icon>
      <osmand:background>square</osmand:background>
      <osmand:color>#a71de1</osmand:color>
    </extensions>
  </wpt>
  <wpt lat="52.5409813" lon="13.2121429">
    <ele>31.5</ele>
    <time>2022-06-09T06:08:37Z</time>
    <name>Citadelle de Spandau</name>
    <desc>Fortification du 16e siècle et ancienne prison, une visite vraiment intéressante ! Nombreux artefacts, histoire du peuplement de la zone. Accès aux fortifications situées à l'extérieur. A conseiller.</desc>
    <type>Berlin</type>
    <cmt>Amenity:Spandau Citadel: tourism:castle</cmt>
    <extensions>
      <osmand:address>Proche Wladimir-Gall-Weg</osmand:address>
      <osmand:icon>historic_castle</osmand:icon>
      <osmand:background>octagon</osmand:background>
      <osmand:color>#a71de1</osmand:color>
      <osmand:amenity_origin>Amenity:Spandau Citadel: tourism:castle</osmand:amenity_origin>
    </extensions>
  </wpt>
  <wpt lat="52.4996464" lon="13.4256364">
    <time>2022-06-08T21:19:59Z</time>
    <name>Coretex</name>
    <desc>T-shirts antifascistes</desc>
    <type>Berlin</type>
    <extensions>
      <osmand:address>Oranienstraße 3, Kreuzberg</osmand:address>
      <osmand:icon>shop_department_store</osmand:icon>
      <osmand:background>square</osmand:background>
      <osmand:color>#a71de1</osmand:color>
    </extensions>
  </wpt>
  <wpt lat="52.497735" lon="13.4222693">
    <time>2022-06-08T21:15:09Z</time>
    <name>Crêperie bretonne</name>
    <desc>A tester ?</desc>
    <type>Berlin</type>
    <extensions>
      <osmand:address>Reichenberger Straße 30, Kreuzberg</osmand:address>
      <osmand:icon>restaurants</osmand:icon>
      <osmand:background>circle</osmand:background>
      <osmand:color>#ff5020</osmand:color>
    </extensions>
  </wpt>
  <wpt lat="52.5010804" lon="13.4657646">
    <ele>35</ele>
    <time>2022-06-08T20:01:49Z</time>
    <name>E-Lok, maison de la jeunesse</name>
    <desc>Lieu de réunion de la FSFE.</desc>
    <type>Berlin</type>
    <extensions>
      <osmand:address>Laskerstraße 6, Friedrichshain</osmand:address>
      <osmand:icon>vending_drinks</osmand:icon>
      <osmand:background>circle</osmand:background>
      <osmand:color>#a71de1</osmand:color>
    </extensions>
  </wpt>
  <wpt lat="52.4957137" lon="13.4627985">
    <time>2022-06-09T11:12:42Z</time>
    <name>Elsenbrücke - point de vue</name>
    <type>Berlin</type>
    <extensions>
      <osmand:address>Elsenbrücke, Friedrichshain</osmand:address>
      <osmand:icon>tourism_viewpoint</osmand:icon>
      <osmand:background>octagon</osmand:background>
      <osmand:color>#a71de1</osmand:color>
    </extensions>
  </wpt>
  <wpt lat="52.4666286" lon="13.4017511">
    <ele>43.8</ele>
    <time>2022-06-08T21:34:12Z</time>
    <name>Ex-aéroport de Tempelhof - bâtiment</name>
    <desc>Ce bâtiment construit à l'époque nazi est long d'environ 2 km. 
Il abrite les terminaux de cet ancien aéroport à l'histoire riche, qui a joué un rôle central dans le pont aérien destiné à alimenter Berlin Ouest face au blocus soviétique dans l'immédiat après-guerre. Plus récemment, il a servit de camp de réfugiés lors de la crise consécutive à la guerre en Syrie.
La Visite comprend celle des quartiers des soldats américains et notamment leur salle de sport. Décoration années 1960 gentiment désuète. Impressionant ! Visite guidée disponible en français. Réserver en avance.</desc>
    <type>Berlin</type>
    <extensions>
      <osmand:address>Proche Straße 100, Berlin</osmand:address>
      <osmand:icon>air_transport</osmand:icon>
      <osmand:background>octagon</osmand:background>
      <osmand:color>#a71de1</osmand:color>
    </extensions>
  </wpt>
  <wpt lat="52.5341339" lon="13.4191236">
    <ele>52</ele>
    <time>2022-06-09T06:51:01Z</time>
    <name>Frühes nationalsozialistisches Konzentrationslager</name>
    <type>Berlin</type>
    <cmt>Amenity:Fruhes nationalsozialistisches Konzentrationslager: tourism:memorial</cmt>
    <extensions>
      <osmand:address>Knaackstraße (Kollwitzkiez) 23, Prenzlauer Berg</osmand:address>
      <osmand:icon>historic_memorial</osmand:icon>
      <osmand:background>circle</osmand:background>
      <osmand:color>#ff5020</osmand:color>
      <osmand:amenity_origin>Amenity:Fruhes nationalsozialistisches Konzentrationslager: tourism:memorial</osmand:amenity_origin>
    </extensions>
  </wpt>
  <wpt lat="52.5477617" lon="13.4162056">
    <ele>49.5</ele>
    <time>2022-06-09T04:19:39Z</time>
    <name>Gethsemanekirche</name>
    <desc>Cette église a joué un rôle important lors du mouvement de protestation qui a précédé la chute du mur. A visiter la prochaine fois.</desc>
    <type>Berlin</type>
    <extensions>
      <osmand:address>Gethsemanestraße 77, Prenzlauer Berg</osmand:address>
      <osmand:icon>building_type_church</osmand:icon>
      <osmand:background>octagon</osmand:background>
      <osmand:color>#ff5020</osmand:color>
    </extensions>
  </wpt>
  <wpt lat="52.5389915" lon="13.4213412">
    <time>2022-06-08T20:45:35Z</time>
    <name>Glaces à l'italienne</name>
    <type>Berlin</type>
    <extensions>
      <osmand:address>Kollwitzstraße (Kollwitzkiez) 100, Prenzlauer Berg</osmand:address>
      <osmand:icon>restaurants</osmand:icon>
      <osmand:background>circle</osmand:background>
      <osmand:color>#a71de1</osmand:color>
    </extensions>
  </wpt>
  <wpt lat="52.5053522" lon="13.4692463">
    <time>2023-03-16T16:16:41Z</time>
    <name>Gusti Leder</name>
    <desc>Artisanat de cuir</desc>
    <type>Berlin</type>
    <extensions>
      <osmand:address>Neue Bahnhofstraße 31, Friedrichshain</osmand:address>
      <osmand:icon>shop_food</osmand:icon>
      <osmand:background>square</osmand:background>
      <osmand:color>#a71de1</osmand:color>
    </extensions>
  </wpt>
  <wpt lat="52.5199029" lon="13.3987373">
    <ele>33.2</ele>
    <time>2023-03-16T16:01:18Z</time>
    <name>Île aux musées</name>
    <type>Berlin</type>
    <extensions>
      <osmand:address>Bodestraße, Berlin</osmand:address>
      <osmand:icon>special_trekking</osmand:icon>
      <osmand:background>octagon</osmand:background>
      <osmand:color>#a71de1</osmand:color>
    </extensions>
  </wpt>
  <wpt lat="52.5402499" lon="13.4112062">
    <time>2023-01-07T18:57:14Z</time>
    <name>Italian Food</name>
    <desc>Très bonnes lasagnes à vraiment pas cher.</desc>
    <type>Berlin</type>
    <extensions>
      <osmand:address>Kastanienallee 4, Prenzlauer Berg</osmand:address>
      <osmand:icon>restaurants</osmand:icon>
      <osmand:background>circle</osmand:background>
      <osmand:color>#a71de1</osmand:color>
    </extensions>
  </wpt>
  <wpt lat="52.5010867" lon="13.4193766">
    <time>2022-06-09T11:35:44Z</time>
    <name>Kebab Hasir</name>
    <desc>Un kebab cher, on en trouve de bien meilleurs pour quelques euros ailleurs dans Berlin.</desc>
    <type>Berlin</type>
    <extensions>
      <osmand:address>Adalbertstraße 10, Kreuzberg</osmand:address>
      <osmand:icon>restaurants</osmand:icon>
      <osmand:background>circle</osmand:background>
      <osmand:color>#a71de1</osmand:color>
    </extensions>
  </wpt>
  <wpt lat="52.7664192" lon="13.2637125">
    <time>2022-06-09T07:00:03Z</time>
    <name>KZ Sachsenhausen</name>
    <desc>Le camp de concentration le plus proche de Berlin. Une visite à prévoir.</desc>
    <type>Berlin</type>
    <extensions>
      <osmand:icon>historic_memorial</osmand:icon>
      <osmand:background>octagon</osmand:background>
      <osmand:color>#ff5020</osmand:color>
    </extensions>
  </wpt>
  <wpt lat="52.763502" lon="13.2618933">
    <time>2022-06-09T06:58:47Z</time>
    <name>KZ Sachsenhausen - Centre d'information des visteurs</name>
    <type>Berlin</type>
    <extensions>
      <osmand:icon>tourism_information</osmand:icon>
      <osmand:background>octagon</osmand:background>
      <osmand:color>#ff5020</osmand:color>
    </extensions>
  </wpt>
  <wpt lat="52.497823" lon="13.4233388">
    <time>2022-06-08T21:16:10Z</time>
    <name>La Commune</name>
    <desc>Café tenu par des Kurdes dont la décoration rend hommage aux combattant-e-s de la Commune de Paris !</desc>
    <type>Berlin</type>
    <extensions>
      <osmand:address>Reichenberger Straße 157, Kreuzberg</osmand:address>
      <osmand:icon>amenity_biergarten</osmand:icon>
      <osmand:background>circle</osmand:background>
      <osmand:color>#a71de1</osmand:color>
    </extensions>
  </wpt>
  <wpt lat="52.53969" lon="13.4117854">
    <ele>49.2</ele>
    <time>2022-06-08T21:07:50Z</time>
    <name>La Käserie - fromagerie française</name>
    <desc>Pas testé, mais a l'air de proposer un grand choix de fromages français !</desc>
    <type>Berlin</type>
    <extensions>
      <osmand:address>Schönhauser Allee 147, Prenzlauer Berg</osmand:address>
      <osmand:icon>shop_food</osmand:icon>
      <osmand:background>square</osmand:background>
      <osmand:color>#a71de1</osmand:color>
    </extensions>
  </wpt>
  <wpt lat="52.5353217" lon="13.4223804">
    <ele>52.8</ele>
    <time>2022-06-09T04:07:11Z</time>
    <name>La Poste</name>
    <type>Berlin</type>
    <extensions>
      <osmand:address>Marienburger Straße (Winsviertel) 1, Prenzlauer Berg</osmand:address>
      <osmand:icon>amenity_post_box</osmand:icon>
      <osmand:background>square</osmand:background>
      <osmand:color>#1010a0</osmand:color>
    </extensions>
  </wpt>
  <wpt lat="52.5007254" lon="13.4217314">
    <ele>34</ele>
    <time>2022-06-08T21:18:34Z</time>
    <name>Librairie Oh 21</name>
    <type>Berlin</type>
    <extensions>
      <osmand:address>Oranienstraße 21, Kreuzberg</osmand:address>
      <osmand:icon>shop_books</osmand:icon>
      <osmand:background>square</osmand:background>
      <osmand:color>#a71de1</osmand:color>
    </extensions>
  </wpt>
  <wpt lat="52.5139731" lon="13.3787535">
    <time>2022-06-08T20:37:00Z</time>
    <name>Mémorial pour les Juifs d'Europe assassinés</name>
    <type>Berlin</type>
    <extensions>
      <osmand:address>Hannah-Arendt-Straße</osmand:address>
      <osmand:icon>building_type_synagogue</osmand:icon>
      <osmand:background>octagon</osmand:background>
      <osmand:color>#a71de1</osmand:color>
    </extensions>
  </wpt>
  <wpt lat="52.5172742" lon="13.3761048">
    <time>2023-03-16T15:58:11Z</time>
    <name>Monument aux déportés rroms et sintid</name>
    <type>Berlin</type>
    <extensions>
      <osmand:address>Scheidemannstraße, Berlin</osmand:address>
      <osmand:icon>historic_memorial</osmand:icon>
      <osmand:background>octagon</osmand:background>
      <osmand:color>#ff5020</osmand:color>
    </extensions>
  </wpt>
  <wpt lat="52.5229527" lon="13.4077287">
    <ele>36</ele>
    <time>2022-06-08T20:17:34Z</time>
    <name>Musée de la moto de la RDA</name>
    <desc>Sympathique, beaucoup d'engins originaux !</desc>
    <type>Berlin</type>
    <extensions>
      <osmand:address>Dircksenstraße 37, Berlin</osmand:address>
      <osmand:icon>special_motorcycle</osmand:icon>
      <osmand:background>octagon</osmand:background>
      <osmand:color>#a71de1</osmand:color>
    </extensions>
  </wpt>
  <wpt lat="52.5194881" lon="13.4023623">
    <ele>36</ele>
    <time>2022-06-08T20:14:39Z</time>
    <name>Musée de la RDA</name>
    <desc>Ce sympathique petit musée offre un aperçu didactique de la vie quotidienne en RDA. Il est possible de toucher les objets exposés. Espaces de vie, jeux vidéo y tiennent une place de choix. Un incontournable : le jeu de simulation d'une usine de Traban !</desc>
    <type>Berlin</type>
    <extensions>
      <osmand:address>Karl-Liebknecht-Straße, B 2;B 5</osmand:address>
      <osmand:icon>tourism_museum</osmand:icon>
      <osmand:background>octagon</osmand:background>
      <osmand:color>#a71de1</osmand:color>
    </extensions>
  </wpt>
  <wpt lat="52.5076065" lon="13.3629856">
    <time>2022-06-08T21:31:24Z</time>
    <name>Musée de la Résistance</name>
    <desc>A visiter la prochaine fois ?</desc>
    <type>Berlin</type>
    <cmt>Amenity:Memorial to the German Resistance: tourism:museum</cmt>
    <extensions>
      <osmand:address>Stauffenbergstraße 14, Tiergarten</osmand:address>
      <osmand:icon>tourism_museum</osmand:icon>
      <osmand:background>octagon</osmand:background>
      <osmand:color>#a71de1</osmand:color>
      <osmand:amenity_origin>Amenity:Memorial to the German Resistance: tourism:museum</osmand:amenity_origin>
    </extensions>
  </wpt>
  <wpt lat="52.5137861" lon="13.4866908">
    <ele>41.8</ele>
    <time>2022-06-08T19:13:12Z</time>
    <name>Musée de la Stasi</name>
    <desc>Musée de la Stasi, passionnant et flippant ! Situé dans les anciens locaux du Ministère de la Sécurité d'État. On peut y voir le bureau du ministre. Détaillé les techniques de surveillance et de contrôle dela population mises en place par la RDA</desc>
    <type>Berlin</type>
    <extensions>
      <osmand:address>Proche Magdalenenstraße, Lichtenberg</osmand:address>
      <osmand:icon>tourism_museum</osmand:icon>
      <osmand:background>octagon</osmand:background>
      <osmand:color>#a71de1</osmand:color>
    </extensions>
  </wpt>
  <wpt lat="52.5337536" lon="13.3875151">
    <ele>35.2</ele>
    <time>2022-06-08T20:28:07Z</time>
    <name>Musée du mur de Berlin</name>
    <desc>Un musée intéressant, avec vue sur les festives situés juste en face.</desc>
    <type>Berlin</type>
    <extensions>
      <osmand:address>Bernauer Straße (Mitte) 119, Berlin</osmand:address>
      <osmand:icon>tourism_museum</osmand:icon>
      <osmand:background>octagon</osmand:background>
      <osmand:color>#a71de1</osmand:color>
    </extensions>
  </wpt>
  <wpt lat="52.5005895" lon="13.4182441">
    <ele>35</ele>
    <time>2022-06-09T11:20:27Z</time>
    <name>Musée du quartier Kreuzberg/Friedrichshain</name>
    <desc>Super petit musée sur le passé de ce quartier populaire marquer par des vagues d'immigration successives, des luttes sociales et la proximité du mur.</desc>
    <type>Berlin</type>
    <extensions>
      <osmand:address>Adalbertstraße 95a, Kreuzberg</osmand:address>
      <osmand:icon>tourism_museum</osmand:icon>
      <osmand:background>octagon</osmand:background>
      <osmand:color>#a71de1</osmand:color>
    </extensions>
  </wpt>
  <wpt lat="52.5023581" lon="13.3951892">
    <ele>35</ele>
    <time>2022-06-08T20:22:42Z</time>
    <name>Musée juif</name>
    <desc>Très déçus par ce musée qui enchantera toutefois les amateurs d'art contemporain, de part son architecture unique. Pour l'aspect historique, il est beaucoup trop superficiel. Dommage.</desc>
    <type>Berlin</type>
    <extensions>
      <osmand:address>Lindenstraße (Kreuzberg) 9-14, Berlin</osmand:address>
      <osmand:icon>building_type_synagogue</osmand:icon>
      <osmand:background>octagon</osmand:background>
      <osmand:color>#a71de1</osmand:color>
    </extensions>
  </wpt>
  <wpt lat="52.5494848" lon="13.3874608">
    <ele>48</ele>
    <time>2022-06-08T20:58:48Z</time>
    <name>Mythos Germania - Vision und Verbrechen</name>
    <desc>Un musée géré par Berliner Unterwelten sur le projet fou d'Hitler pour reconstruire Berlin à l'image de l'idéal nazi, grâce au talent de son architecte Albert Speer. La ville devait être rebaptisée Germania, capitale du Reich de mille ans.</desc>
    <type>Berlin</type>
    <extensions>
      <osmand:address>Behmstraße 1, Gesundbrunnen</osmand:address>
      <osmand:icon>tourism_museum</osmand:icon>
      <osmand:background>octagon</osmand:background>
      <osmand:color>#a71de1</osmand:color>
    </extensions>
  </wpt>
  <wpt lat="52.5160668" lon="13.3779111">
    <ele>34.8</ele>
    <time>2023-03-16T15:57:06Z</time>
    <name>Office de tourisme</name>
    <type>Berlin</type>
    <extensions>
      <osmand:address>Ebertstraße (Mitte) 22, Berlin</osmand:address>
      <osmand:icon>tourism_information</osmand:icon>
      <osmand:background>octagon</osmand:background>
      <osmand:color>#1010a0</osmand:color>
    </extensions>
  </wpt>
  <wpt lat="52.5047194" lon="13.4686469">
    <time>2023-03-16T16:18:12Z</time>
    <name>Par ici : restaurants asiatiques</name>
    <type>Berlin</type>
    <extensions>
      <osmand:address>Neue Bahnhofstraße 36, Friedrichshain</osmand:address>
      <osmand:icon>restaurants</osmand:icon>
      <osmand:background>circle</osmand:background>
      <osmand:color>#a71de1</osmand:color>
    </extensions>
  </wpt>
  <wpt lat="52.4841892" lon="13.4153774">
    <ele>49.2</ele>
    <time>2022-06-09T03:53:17Z</time>
    <name>Parc arboré</name>
    <desc>Le raccourci idéal entre le parc de Tempelhof et le Sahara Imbiss.</desc>
    <type>Berlin</type>
    <extensions>
      <osmand:address>Proche Columbiadamm, Neukölln</osmand:address>
      <osmand:icon>park</osmand:icon>
      <osmand:background>octagon</osmand:background>
      <osmand:color>#a71de1</osmand:color>
    </extensions>
  </wpt>
  <wpt lat="52.4789431" lon="13.4036571">
    <time>2022-06-09T03:28:49Z</time>
    <name>Parc de Tempelhof</name>
    <desc>Cette petite zone au nord de l'immense parc de Tempelhof est une aire de pique-nique idéale, notamment le soir en été. Elle a été investie de manière anarchique par les habitants qui y ont eux-mêmes construit des aires de pique-nique ou des mini jardins. Le lieu est très agréable.
La création de ce parc, qui englobe les pistes de l'ancien aéroport, a été décidée par référendum lorsque ce dernier a fermé. Le lieu est idéal pour les balades à vélo et pour diverses autres activités comme la pratique du cerf-volant.</desc>
    <type>Berlin</type>
    <extensions>
      <osmand:icon>tourism_picnic_site</osmand:icon>
      <osmand:background>octagon</osmand:background>
      <osmand:color>#a71de1</osmand:color>
    </extensions>
  </wpt>
  <wpt lat="52.5473727" lon="13.3847881">
    <ele>45.2</ele>
    <time>2022-06-08T19:01:07Z</time>
    <name>Point de vue - ancienne batterie antiaérienne</name>
    <desc>Ce point de vue se situe à l'aplomb d'un des quatre anciens bunkers géants construits par les nazis pour abriter la population. Ses ruines forment aujourd'hui la colline artificielle qui domine le parc.
Anciennement situé en zone française, ce bunker dominait les voies ferrées, situées elles en contrebas en zone soviétique. Le bunker n'a jamais pu être complètement détruit, et la crainte d'un incident diplomatique avec l'Est en cas de chute sur les voies a mis fin à toute velléité en ce sens. C'est du coup le seul des quatre dont les ruines sont encore visibles et visitables. 
Son histoire peut être découverte lors d'une des visites thématiques de l'association Berliner Unterwelten située à proximité.</desc>
    <type>Berlin</type>
    <extensions>
      <osmand:address>Proche Hochstraße, Gesundbrunnen</osmand:address>
      <osmand:icon>tourism_viewpoint</osmand:icon>
      <osmand:background>octagon</osmand:background>
      <osmand:color>#a71de1</osmand:color>
    </extensions>
  </wpt>
  <wpt lat="52.5162372" lon="13.3777349">
    <time>2023-03-16T15:56:34Z</time>
    <name>Porte de Brandebourg</name>
    <type>Berlin</type>
    <extensions>
      <osmand:address>Pariser Platz 1, Berlin</osmand:address>
      <osmand:icon>special_poi_brandenburg_gate</osmand:icon>
      <osmand:background>octagon</osmand:background>
      <osmand:color>#a71de1</osmand:color>
    </extensions>
  </wpt>
  <wpt lat="52.5492334" lon="13.3888414">
    <ele>42</ele>
    <time>2022-06-08T21:02:59Z</time>
    <name>Presse</name>
    <desc>Un dépôt de presse abondamment achalandé.</desc>
    <type>Berlin</type>
    <extensions>
      <osmand:address>Hanne-Sobek-Platz</osmand:address>
      <osmand:icon>shop_books</osmand:icon>
      <osmand:background>square</osmand:background>
      <osmand:color>#a71de1</osmand:color>
    </extensions>
  </wpt>
  <wpt lat="52.5356087" lon="13.4225309">
    <ele>52.8</ele>
    <time>2022-06-09T04:07:57Z</time>
    <name>Presse (1)</name>
    <desc>On peut y acheter des timbres.</desc>
    <type>Berlin</type>
    <extensions>
      <osmand:address>Marienburger Straße (Winsviertel) 49, Prenzlauer Berg</osmand:address>
      <osmand:icon>shop_books</osmand:icon>
      <osmand:background>circle</osmand:background>
      <osmand:color>#a71de1</osmand:color>
    </extensions>
  </wpt>
  <wpt lat="52.5186219" lon="13.376051">
    <time>2023-03-16T15:57:48Z</time>
    <name>Reichstag</name>
    <type>Berlin</type>
    <extensions>
      <osmand:address>Platz der Republik 1, Berlin</osmand:address>
      <osmand:icon>tourism_museum</osmand:icon>
      <osmand:background>octagon</osmand:background>
      <osmand:color>#ff5020</osmand:color>
    </extensions>
  </wpt>
  <wpt lat="52.5374798" lon="13.4227542">
    <ele>53.2</ele>
    <time>2022-06-08T20:43:43Z</time>
    <name>Restaurant Breslau</name>
    <desc>Excellent restaurant polonais, très sympathique ! La soupe aux betteraves est une tuerie !
On peut aussi plus simplement y déguster une bière.</desc>
    <type>Berlin</type>
    <extensions>
      <osmand:address>Sredzkistraße (Kollwitzkiez) 67, Prenzlauer Berg</osmand:address>
      <osmand:icon>restaurants</osmand:icon>
      <osmand:background>circle</osmand:background>
      <osmand:color>#a71de1</osmand:color>
    </extensions>
  </wpt>
  <wpt lat="52.4755592" lon="13.369997">
    <ele>43.8</ele>
    <time>2022-06-09T07:43:42Z</time>
    <name>SA-Gefängnis Papestraße</name>
    <desc>Un des tous premiers camps de concentration. Pour une prochaine fois.</desc>
    <type>Berlin</type>
    <cmt>Amenity:SA-Gefangnis Papestrasse: tourism:museum</cmt>
    <extensions>
      <osmand:address>Gontermannstraße 76, Tempelhof</osmand:address>
      <osmand:icon>tourism_museum</osmand:icon>
      <osmand:background>octagon</osmand:background>
      <osmand:color>#ff5020</osmand:color>
      <osmand:amenity_origin>Amenity:SA-Gefangnis Papestrasse: tourism:museum</osmand:amenity_origin>
    </extensions>
  </wpt>
  <wpt lat="52.4884523" lon="13.4286376">
    <ele>35.5</ele>
    <time>2022-06-08T19:28:24Z</time>
    <name>Sahara Imbiss</name>
    <desc>Chouette fast-food soudanais, attention à la sauce aux cacahuètes ! :-p
L'endroit est couru. On achète ses boissons au Späti d'à côté. Il y a aussi un bar juste en face pour l'apéro !</desc>
    <type>Berlin</type>
    <extensions>
      <osmand:address>Weserstraße (Donaukiez) 9, Neukölln</osmand:address>
      <osmand:icon>restaurants</osmand:icon>
      <osmand:background>circle</osmand:background>
      <osmand:color>#a71de1</osmand:color>
    </extensions>
  </wpt>
  <wpt lat="52.5179648" lon="13.4666311">
    <ele>45.2</ele>
    <time>2022-06-09T05:26:27Z</time>
    <name>Samariter Kirche</name>
    <desc>Pas sûre à 100 %, mais je crois que c'est dans cette église que j'avais vu une chouette exposition en allemand sur son rôle dans le mouvement de résistance au régime est-allemand, et l'accueil étonnant de concerts punks.</desc>
    <type>Berlin</type>
    <extensions>
      <osmand:address>Bänschstraße (Samariterviertel) 57, Friedrichshain</osmand:address>
      <osmand:icon>building_type_church</osmand:icon>
      <osmand:background>octagon</osmand:background>
      <osmand:color>#a71de1</osmand:color>
    </extensions>
  </wpt>
  <wpt lat="52.5013381" lon="13.4195161">
    <ele>33.8</ele>
    <time>2022-06-08T19:58:04Z</time>
    <name>Sankt-Pauli Fanshop</name>
    <desc>Merchandising du célèbre club de foot antifasciste hambourgeois.</desc>
    <type>Berlin</type>
    <extensions>
      <osmand:address>Oranienstraße 29, Kreuzberg</osmand:address>
      <osmand:icon>sport_soccer</osmand:icon>
      <osmand:background>square</osmand:background>
      <osmand:color>#a71de1</osmand:color>
    </extensions>
  </wpt>
  <wpt lat="52.4882236" lon="13.4287532">
    <time>2022-06-09T03:57:51Z</time>
    <name>Schilling</name>
    <desc>Bar idéalement situé face au Sahara Imbiss.</desc>
    <type>Berlin</type>
    <extensions>
      <osmand:address>Reuterstraße (Reuterkiez) 57, Neukölln</osmand:address>
      <osmand:icon>amenity_biergarten</osmand:icon>
      <osmand:background>circle</osmand:background>
      <osmand:color>#a71de1</osmand:color>
    </extensions>
  </wpt>
  <wpt lat="52.4845674" lon="13.4122987">
    <ele>49</ele>
    <time>2022-06-09T22:09:59Z</time>
    <name>Schuttberg</name>
    <desc>Colline artificielle constituée de gravats de la 2de guerre mondiale.</desc>
    <type>Berlin</type>
    <extensions>
      <osmand:address>Proche Columbiadamm, Neukölln</osmand:address>
      <osmand:icon>natural_cave_entrance</osmand:icon>
      <osmand:background>octagon</osmand:background>
      <osmand:color>#a71de1</osmand:color>
    </extensions>
  </wpt>
  <wpt lat="52.5003638" lon="13.4221854">
    <ele>34</ele>
    <time>2022-06-09T11:17:03Z</time>
    <name>SO 36</name>
    <desc>Un lieu mythique fréquenté par David Bowie lors de son séjour berlinois.</desc>
    <type>Berlin</type>
    <extensions>
      <osmand:address>Oranienstraße 190, Kreuzberg</osmand:address>
      <osmand:icon>special_audio</osmand:icon>
      <osmand:background>octagon</osmand:background>
      <osmand:color>#a71de1</osmand:color>
    </extensions>
  </wpt>
  <wpt lat="52.4972041" lon="13.2396437">
    <time>2022-06-09T05:51:13Z</time>
    <name>Teufelsberg - ancien radar</name>
    <desc>Cet ancien radar de surveillance de la NSA a été réinvesti après la chute du mur par les artistes. L'endroit est intéressant et offre paraît-il un joli point de vue sur la ville. Loin du centre, pas encore visite.</desc>
    <type>Berlin</type>
    <extensions>
      <osmand:address>Proche Teufelsseechaussee, Grunewald</osmand:address>
      <osmand:icon>tourism_viewpoint</osmand:icon>
      <osmand:background>octagon</osmand:background>
      <osmand:color>#ff5020</osmand:color>
    </extensions>
  </wpt>
  <wpt lat="52.5066334" lon="13.3839587">
    <ele>34</ele>
    <time>2022-06-08T20:25:09Z</time>
    <name>Topographie des Terrors</name>
    <desc>Superbe exposition permanente sur le régime nazi, ses crimes et sa répression. Accès gratuit. Ça vaut le coup de venir à deux reprises car le contenu est dense</desc>
    <type>Berlin</type>
    <extensions>
      <osmand:address>Niederkirchnerstraße (Kreuzberg) 8, Berlin</osmand:address>
      <osmand:icon>tourism_museum</osmand:icon>
      <osmand:background>octagon</osmand:background>
      <osmand:color>#a71de1</osmand:color>
    </extensions>
  </wpt>
  <wpt lat="52.4887612" lon="13.4710132">
    <ele>33.8</ele>
    <time>2022-06-09T11:10:08Z</time>
    <name>Treptower Park</name>
    <desc>Super parc, belle balade. Possibilité de boire un verre et de se restaurer rapidement sur le quai du petit port de plaisance à l'entrée. Comprend un grand mémorial soviétique.</desc>
    <type>Berlin</type>
    <extensions>
      <osmand:address>Puschkinallee, Alt-Treptow</osmand:address>
      <osmand:icon>park</osmand:icon>
      <osmand:background>octagon</osmand:background>
      <osmand:color>#a71de1</osmand:color>
    </extensions>
  </wpt>
  <wpt lat="52.5341582" lon="13.3857361">
    <ele>37</ele>
    <time>2022-06-08T20:29:17Z</time>
    <name>Vestige du mur de Berlin</name>
    <desc>Comprend une partie du no-man's land et un mirador.</desc>
    <type>Berlin</type>
    <extensions>
      <osmand:address>Gartenstraße 38, Gesundbrunnen</osmand:address>
      <osmand:icon>tourism_museum</osmand:icon>
      <osmand:background>octagon</osmand:background>
      <osmand:color>#a71de1</osmand:color>
    </extensions>
  </wpt>
  <wpt lat="52.4848328" lon="13.3600407">
    <time>2022-06-09T22:03:41Z</time>
    <name>Wirtshaus Heuberger</name>
    <desc>Excellent Bier Garten et restaurant de spécialités autrichiennes et du sud de l'Allemagne.</desc>
    <type>Berlin</type>
    <cmt>Amenity:Wirtshaus Heuberger: sustenance:restaurant</cmt>
    <extensions>
      <osmand:address>Cheruskerstraße (Rote Insel) 4, Schöneberg</osmand:address>
      <osmand:icon>amenity_restaurant</osmand:icon>
      <osmand:background>circle</osmand:background>
      <osmand:color>#a71de1</osmand:color>
      <osmand:amenity_origin>Amenity:Wirtshaus Heuberger: sustenance:restaurant</osmand:amenity_origin>
    </extensions>
  </wpt>
  <wpt lat="52.5347214" lon="13.4037657">
    <ele>52</ele>
    <time>2022-06-09T04:25:03Z</time>
    <name>Zionskirche</name>
    <desc>Haut lieu de la résistance au nazisme (le pasteur Dietrich Bonhoeffer est mort assassiné au camp de Flossenbürg) et à la RDA (l'église a abrité une exposition clandestine).  Exposition permanente. 
Montée des marches possible le dimanche contre un petit don pour admirer la ville.
A visiter la prochaine fois.</desc>
    <type>Berlin</type>
    <cmt>Amenity:Zionskirche: tourism:place_of_worship</cmt>
    <extensions>
      <osmand:address>Zionskirchstraße (Mitte) 35, Berlin</osmand:address>
      <osmand:icon>building_type_church</osmand:icon>
      <osmand:background>octagon</osmand:background>
      <osmand:color>#ff5020</osmand:color>
      <osmand:amenity_origin>Amenity:Zionskirche: tourism:place_of_worship</osmand:amenity_origin>
    </extensions>
  </wpt>
  <wpt lat="52.544806" lon="13.436914">
    <ele>47.2</ele>
    <time>2022-06-09T04:02:18Z</time>
    <name>Zur Haxe - restaurant bavarois</name>
    <desc>Vraiment bon mais copieux. Un jarret entier par personne !</desc>
    <type>Berlin</type>
    <extensions>
      <osmand:address>Erich-Weinert-Straße 128</osmand:address>
      <osmand:icon>restaurants</osmand:icon>
      <osmand:background>circle</osmand:background>
      <osmand:color>#a71de1</osmand:color>
    </extensions>
  </wpt>
  <extensions>
    <osmand:points_groups>
      <group name="Berlin" color="#a71de1" icon="special_star" background="circle" />
    </osmand:points_groups>
  </extensions>
</gpx>