<?xml version='1.0' encoding='UTF-8' standalone='yes' ?>
<gpx version="1.1" creator="OsmAnd~ 4.6.12" xmlns="http://www.topografix.com/GPX/1/1" xmlns:osmand="https://osmand.net" xmlns:xsi="http://www.w3.org/2001/XMLSchema-instance" xsi:schemaLocation="http://www.topografix.com/GPX/1/1 http://www.topografix.com/GPX/1/1/gpx.xsd">
  <metadata>
    <name>favorites-Lisbonne - Musées et patrimoine</name>
  </metadata>
  <wpt lat="38.6188057" lon="-9.1646115">
    <ele>35</ele>
    <time>2023-03-16T18:02:34Z</time>
    <name>Ancienne fabrique de poudre</name>
    <type>Lisbonne - Musées et patrimoine</type>
    <extensions>
      <osmand:address>Proche Avenida Fábrica da Pólvora (Alto do Moinho), Corroios</osmand:address>
      <osmand:icon>generator_source_coal</osmand:icon>
      <osmand:background>octagon</osmand:background>
      <osmand:color>#ff5020</osmand:color>
    </extensions>
  </wpt>
  <wpt lat="38.7266926" lon="-9.1664133">
    <ele>102.8</ele>
    <time>2022-11-13T14:25:08Z</time>
    <name>Aqueduc du Musée de l'eau</name>
    <desc>A faire un dimanche quand l'accès est gratuit. Peu d'intérêt en dehors de la (longue) promenade aller-retour le long de l'aqueduc. Point de vue sur un Lisbonne beaucoup moins riche et touristique. Accès par bus uniquement.</desc>
    <type>Lisbonne - Musées et patrimoine</type>
    <extensions>
      <osmand:address>Rua 2, Campolide</osmand:address>
      <osmand:icon>bridge_structure_beam</osmand:icon>
      <osmand:background>octagon</osmand:background>
      <osmand:color>#10c0f0</osmand:color>
    </extensions>
  </wpt>
  <wpt lat="38.7181419" lon="-9.1355642">
    <time>2023-03-18T22:00:39Z</time>
    <name>Arquivo municipal fotográfico</name>
    <type>Lisbonne - Musées et patrimoine</type>
    <extensions>
      <osmand:address>Rua da Palma (Socorro) 246, Santa Maria Maior</osmand:address>
      <osmand:icon>tourism_museum</osmand:icon>
      <osmand:background>octagon</osmand:background>
      <osmand:color>#ff5020</osmand:color>
    </extensions>
  </wpt>
  <wpt lat="38.7180922" lon="-9.1521335">
    <ele>83.8</ele>
    <time>2022-11-14T23:18:59Z</time>
    <name>Canal reliant les deux réservoirs</name>
    <type>Lisbonne - Musées et patrimoine</type>
    <extensions>
      <osmand:address>Rua da Escola Politécnica (São Mamede), Santo António</osmand:address>
      <osmand:icon>tunnel</osmand:icon>
      <osmand:background>octagon</osmand:background>
      <osmand:color>#ff5020</osmand:color>
    </extensions>
  </wpt>
  <wpt lat="38.7090469" lon="-9.1326969">
    <ele>10.8</ele>
    <time>2022-11-14T22:46:29Z</time>
    <name>Casa dos Bicos - Fondation José Saramago</name>
    <desc>Une des façades les plus célèbres de Lisbonne.</desc>
    <type>Lisbonne - Musées et patrimoine</type>
    <extensions>
      <osmand:address>Rua dos Bacalhoeiros (Santa Maria Maior) 10, Lisboa</osmand:address>
      <osmand:icon>tourism_museum</osmand:icon>
      <osmand:background>octagon</osmand:background>
      <osmand:color>#10c0f0</osmand:color>
    </extensions>
  </wpt>
  <wpt lat="38.7005979" lon="-9.4184191">
    <time>2022-11-13T13:10:47Z</time>
    <name>Cascais</name>
    <desc>Station balnéaire bourgeoise assez surfaite. Il y des beaux coins aux alentours, en particulier le long de la côte, si on le temps de randonner. Sinon il n'y a pas grand chose à faire, surtout le lundi, jour de fermeture des musées.</desc>
    <type>Lisbonne - Musées et patrimoine</type>
    <extensions>
      <osmand:address>Largo da Estação (Visconde da Luz), Cascais</osmand:address>
      <osmand:icon>village</osmand:icon>
      <osmand:background>octagon</osmand:background>
      <osmand:color>#10c0f0</osmand:color>
    </extensions>
  </wpt>
  <wpt lat="38.7139062" lon="-9.1335388">
    <ele>96</ele>
    <time>2022-11-13T12:29:44Z</time>
    <name>Castelo de São Jorge</name>
    <desc>Il faut venir en semaine dès l'ouverture pour profiter de ce site très couru. Beau château mauresque et médiéval, avec vue sur la ville. L'accès aux remparts et expositions est compris dans le prix du ticket, qui est assez cher comparé aux autres sites de la ville. Il y aussi un coeur archéologique préhistorique, accessible uniquement en visite guidée (incluse dans le ticket).</desc>
    <type>Lisbonne - Musées et patrimoine</type>
    <extensions>
      <osmand:address>Beco do Espírito Santo (Santo Estêvão), Santa Maria Maior</osmand:address>
      <osmand:icon>historic_castle</osmand:icon>
      <osmand:background>octagon</osmand:background>
      <osmand:color>#10c0f0</osmand:color>
    </extensions>
  </wpt>
  <wpt lat="38.729524" lon="-9.1211931">
    <ele>81</ele>
    <time>2022-11-13T14:13:48Z</time>
    <name>Cemíterio do Alto de São João</name>
    <desc>Cimetière portugais typique et colombarium. Attention âmes sensibles, les cercueils sont visibles. Tombes historiques. Vanités.</desc>
    <type>Lisbonne - Musées et patrimoine</type>
    <extensions>
      <osmand:address>Proche Avenida Afonso III (São João), Penha de França</osmand:address>
      <osmand:icon>historic_memorial</osmand:icon>
      <osmand:background>octagon</osmand:background>
      <osmand:color>#10c0f0</osmand:color>
    </extensions>
  </wpt>
  <wpt lat="38.713356" lon="-9.171524">
    <ele>86</ele>
    <time>2023-03-16T08:51:14Z</time>
    <name>Cemitério dos Prazeres - Cimetière de Campo Ourique</name>
    <type>Lisbonne - Musées et patrimoine</type>
    <extensions>
      <osmand:amenity_subtype>cemetery</osmand:amenity_subtype>
      <osmand:osm_tag_email>cemiterio.prazeres@cm-lisboa.pt</osmand:osm_tag_email>
      <osmand:phone>+351 213 961 511</osmand:phone>
      <osmand:amenity_name>Cemitério dos Prazeres</osmand:amenity_name>
      <osmand:osm_tag_wikidata>Q976850</osmand:osm_tag_wikidata>
      <osmand:amenity_type>man_made</osmand:amenity_type>
      <osmand:osm_tag_description> gz ¿+¨       Å-q­bÐ¬ä÷Y¡ªëÐ)5X5ñ³·{I°{ôĜýÑá¶Cµ?îfåBğì´ÊA)ċ(§­¸ą¶j*JÐÍĔB£öÖ¹Åč¹«o*iHĆ&amp;4%òÈh¾í"Cõ2ÂKîÏ9tÏ)®!ðùG^gqÚ¸9P8.mûo`&gt;z¼m¨ăKČĝÓÁ¼»ç6bu7ï9?+Q[L2É§¯·fÔm   </osmand:osm_tag_description>
      <osmand:amenity_opening_hours>Oct-Apr 09:00-17:00; May-Sep 09:00-18:00</osmand:amenity_opening_hours>
      <osmand:osm_tag_start_date>1833</osmand:osm_tag_start_date>
      <osmand:address>Proche Praça São João Bosco, Estrela</osmand:address>
      <osmand:icon>grave</osmand:icon>
      <osmand:background>octagon</osmand:background>
      <osmand:color>#10c0f0</osmand:color>
      <osmand:amenity_origin>Amenity:Cemiterio dos Prazeres: man_made:cemetery</osmand:amenity_origin>
    </extensions>
  </wpt>
  <wpt lat="38.6857432" lon="-9.1493482">
    <ele>12.5</ele>
    <time>2022-11-13T15:20:57Z</time>
    <name>Centre de culture anarchiste et libertaire</name>
    <type>Lisbonne - Musées et patrimoine</type>
    <extensions>
      <osmand:address>Rua Cândido do Reis (Pragal) 119,121,123, Almada</osmand:address>
      <osmand:icon>shop_books</osmand:icon>
      <osmand:background>square</osmand:background>
      <osmand:color>#10c0f0</osmand:color>
    </extensions>
  </wpt>
  <wpt lat="38.7066931" lon="-9.1337309">
    <ele>2</ele>
    <time>2023-03-16T17:58:28Z</time>
    <name>Centro Tejo</name>
    <type>Lisbonne - Musées et patrimoine</type>
    <extensions>
      <osmand:address>Avenida Infante Dom Henrique (Santa Maria Maior) 1B, Lisboa</osmand:address>
      <osmand:icon>tourism_museum</osmand:icon>
      <osmand:background>octagon</osmand:background>
      <osmand:color>#10c0f0</osmand:color>
    </extensions>
  </wpt>
  <wpt lat="38.7148781" lon="-9.1477385">
    <ele>69.2</ele>
    <time>2023-03-16T08:47:56Z</time>
    <name>Convento dos Cardais</name>
    <type>Lisbonne - Musées et patrimoine</type>
    <extensions>
      <osmand:osm_tag_historic_yes>yes</osmand:osm_tag_historic_yes>
      <osmand:website>https://www.conventodoscardaes.com/</osmand:website>
      <osmand:collapsable_religion_type>religion_christian</osmand:collapsable_religion_type>
      <osmand:osm_tag_wikidata>Q17117436</osmand:osm_tag_wikidata>
      <osmand:amenity_type>tourism</osmand:amenity_type>
      <osmand:osm_tag_description> gz ¿+¨       Å.ÑĎcÐ¬åObÑ¥´£0ĆïÚ¤h¸´ù©9îùhBáòæNsI|ÃĂ523Ę?Ĝ¤ñâyÅ`ø #à¶P×ĖĐØ=Āsë ù´ØēĄĔþ°¦"ă§bh7ě±e ¸Åĝò¡ÔØ@î4xċÜ2åìï-ô¹8ñ=Uµ{ÎÔĚôĂčHì­ĆT®Î*.ûCæ6IZîēB[ v[×¶3gêlėóJ²O°³¶ēµ«5½)ĝó¶@Ú9ăĖRğ¯ùüă   </osmand:osm_tag_description>
      <osmand:osm_tag_start_date>1681</osmand:osm_tag_start_date>
      <osmand:amenity_subtype>monastery</osmand:amenity_subtype>
      <osmand:collapsable_denomination>denomination_roman_catholic</osmand:collapsable_denomination>
      <osmand:osm_tag_old_name>Capela e Convento dos Cardais</osmand:osm_tag_old_name>
      <osmand:osm_tag_alt_name>Convento de Nossa Senhora da Conceição;Capela de Nossa Senhora da Conceição dos Cardais</osmand:osm_tag_alt_name>
      <osmand:amenity_name>Convento dos Cardais</osmand:amenity_name>
      <osmand:osm_tag_wikipedia>http://pt.wikipedia.org/wiki/Convento dos Cardais</osmand:osm_tag_wikipedia>
      <osmand:address>Rua Eduardo Coelho (Mercês) 1, Misericórdia</osmand:address>
      <osmand:icon>building_type_church</osmand:icon>
      <osmand:background>octagon</osmand:background>
      <osmand:color>#ff5020</osmand:color>
      <osmand:amenity_origin>Amenity:Convento dos Cardais: tourism:monastery</osmand:amenity_origin>
    </extensions>
  </wpt>
  <wpt lat="38.7029938" lon="-9.1710481">
    <ele>8.8</ele>
    <time>2023-03-17T10:33:06Z</time>
    <name>Entrada do Museu do Oriente</name>
    <type>Lisbonne - Musées et patrimoine</type>
    <extensions>
      <osmand:address>Avenida de Brasília (Prazeres) Edifício Pedro Álvares Cabral, Estrela</osmand:address>
      <osmand:icon>tourism_museum</osmand:icon>
      <osmand:background>octagon</osmand:background>
      <osmand:color>#10c0f0</osmand:color>
    </extensions>
  </wpt>
  <wpt lat="38.7004321" lon="-9.1788518">
    <ele>7.5</ele>
    <time>2023-09-05T10:49:55Z</time>
    <name>Experiência Pilar 7</name>
    <type>Lisbonne - Musées et patrimoine</type>
    <extensions>
      <osmand:amenity_subtype>museum</osmand:amenity_subtype>
      <osmand:website>https://www.visitlisboa.com/pt-pt/locais/experiencia-pilar-7</osmand:website>
      <osmand:osm_tag_email>info@lismarketing.pt</osmand:osm_tag_email>
      <osmand:phone>+351 21 111 7880</osmand:phone>
      <osmand:amenity_name>Experiência Pilar 7</osmand:amenity_name>
      <osmand:collapsable_fee>fee_yes</osmand:collapsable_fee>
      <osmand:amenity_type>tourism</osmand:amenity_type>
      <osmand:amenity_opening_hours>Mo-Su 10:00-18:00</osmand:amenity_opening_hours>
      <osmand:address>Avenida da Índia, EN 6</osmand:address>
      <osmand:icon>tourism_museum</osmand:icon>
      <osmand:background>octagon</osmand:background>
      <osmand:color>#ff5020</osmand:color>
      <osmand:amenity_origin>Amenity:Experiencia Pilar 7: tourism:museum</osmand:amenity_origin>
    </extensions>
  </wpt>
  <wpt lat="38.7004321" lon="-9.1788518">
    <ele>7.5</ele>
    <time>2023-09-05T10:49:55Z</time>
    <name>Experiência Pilar 7</name>
    <type>Lisbonne - Musées et patrimoine</type>
    <extensions>
      <osmand:amenity_subtype>museum</osmand:amenity_subtype>
      <osmand:website>https://www.visitlisboa.com/pt-pt/locais/experiencia-pilar-7</osmand:website>
      <osmand:osm_tag_email>info@lismarketing.pt</osmand:osm_tag_email>
      <osmand:phone>+351 21 111 7880</osmand:phone>
      <osmand:amenity_name>Experiência Pilar 7</osmand:amenity_name>
      <osmand:collapsable_fee>fee_yes</osmand:collapsable_fee>
      <osmand:amenity_type>tourism</osmand:amenity_type>
      <osmand:amenity_opening_hours>Mo-Su 10:00-18:00</osmand:amenity_opening_hours>
      <osmand:address>Avenida da Índia, EN 6</osmand:address>
      <osmand:icon>tourism_museum</osmand:icon>
      <osmand:background>octagon</osmand:background>
      <osmand:color>#ff5020</osmand:color>
      <osmand:amenity_origin>Amenity:Experiencia Pilar 7: tourism:museum</osmand:amenity_origin>
    </extensions>
  </wpt>
  <wpt lat="38.6454577" lon="-9.1448222">
    <ele>11</ele>
    <time>2023-09-09T18:22:31Z</time>
    <name>Fabrique d'amphores romaines</name>
    <type>Lisbonne - Musées et patrimoine</type>
    <extensions>
      <osmand:address>Rua do Rouxinol (Quinta do Brasileiro), Corroios</osmand:address>
      <osmand:icon>historic_archaeological_site</osmand:icon>
      <osmand:background>octagon</osmand:background>
      <osmand:color>#ff5020</osmand:color>
    </extensions>
  </wpt>
  <wpt lat="38.7087237" lon="-9.1480619">
    <ele>13.2</ele>
    <time>2023-09-12T11:45:17Z</time>
    <name>Fontaine 1615</name>
    <type>Lisbonne - Musées et patrimoine</type>
    <extensions>
      <osmand:address>Travessa do Marquês de Sampaio</osmand:address>
      <osmand:icon>waterfall</osmand:icon>
      <osmand:background>octagon</osmand:background>
      <osmand:color>#10c0f0</osmand:color>
    </extensions>
  </wpt>
  <wpt lat="38.7113084" lon="-9.128157">
    <ele>13</ele>
    <time>2022-06-08T15:55:43Z</time>
    <name>Fontaine typique</name>
    <desc>Fontaine typique de l'époque où la ségrégation à la fois raciale et de sexe sévissait pour l'accès à l'eau.</desc>
    <type>Lisbonne - Musées et patrimoine</type>
    <extensions>
      <osmand:icon>amenity_fountain</osmand:icon>
      <osmand:background>circle</osmand:background>
      <osmand:color>#10c0f0</osmand:color>
      <osmand:address>Largo do Chafariz de Dentro (São Miguel), Santa Maria Maior</osmand:address>
    </extensions>
  </wpt>
  <wpt lat="38.6939124" lon="-9.4192437">
    <ele>16.5</ele>
    <time>2022-11-13T13:13:40Z</time>
    <name>Forteresse de Cascais</name>
    <desc>Remparts malheureusement inaccessible, lieu occupé par des ateliers et résidences d'artistes.</desc>
    <type>Lisbonne - Musées et patrimoine</type>
    <extensions>
      <osmand:address>Proche Avenida Rei Humberto II de Itália, Cascais</osmand:address>
      <osmand:icon>historic_castle</osmand:icon>
      <osmand:background>octagon</osmand:background>
      <osmand:color>#10c0f0</osmand:color>
    </extensions>
  </wpt>
  <wpt lat="38.6865626" lon="-9.1461174">
    <ele>1.8</ele>
    <time>2022-11-13T13:03:41Z</time>
    <name>Fragata Dom Fernando II e Glória</name>
    <type>Lisbonne - Musées et patrimoine</type>
    <extensions>
      <osmand:address>Avenida Aliança Povo M.F.A., Cacilhas</osmand:address>
      <osmand:icon>leisure_marina</osmand:icon>
      <osmand:background>octagon</osmand:background>
      <osmand:color>#10c0f0</osmand:color>
    </extensions>
  </wpt>
  <wpt lat="38.7375107" lon="-9.1542988">
    <ele>74</ele>
    <time>2022-11-13T14:47:57Z</time>
    <name>Fundação Calouste Gulbenkian</name>
    <desc>Belle collection de peintures, artefacts et objets d'artisanat du monde entier. Architecture innovante et magnifique parc.</desc>
    <type>Lisbonne - Musées et patrimoine</type>
    <cmt>Amenity:Fundacao Calouste Gulbenkian: tourism:attraction</cmt>
    <extensions>
      <osmand:address>Avenida de Berna, Campo Pequeno</osmand:address>
      <osmand:icon>tourism_museum</osmand:icon>
      <osmand:background>octagon</osmand:background>
      <osmand:color>#10c0f0</osmand:color>
      <osmand:amenity_origin>Amenity:Fundacao Calouste Gulbenkian: tourism:attraction</osmand:amenity_origin>
    </extensions>
  </wpt>
  <wpt lat="38.7163949" lon="-9.1309186">
    <ele>82</ele>
    <time>2023-03-16T08:09:59Z</time>
    <name>Igreja e convento da Graça</name>
    <type>Lisbonne - Musées et patrimoine</type>
    <extensions>
      <osmand:address>Largo da Graça, Graça</osmand:address>
      <osmand:icon>building_type_church</osmand:icon>
      <osmand:background>octagon</osmand:background>
      <osmand:color>#10c0f0</osmand:color>
    </extensions>
  </wpt>
  <wpt lat="38.7071809" lon="-9.1567863">
    <ele>31</ele>
    <time>2023-09-12T17:40:41Z</time>
    <name>Institut français</name>
    <type>Lisbonne - Musées et patrimoine</type>
    <extensions>
      <osmand:address>Rua de Santos-o-Velho</osmand:address>
      <osmand:icon>shop_books</osmand:icon>
      <osmand:background>octagon</osmand:background>
      <osmand:color>#ff5020</osmand:color>
    </extensions>
  </wpt>
  <wpt lat="38.7071809" lon="-9.1567863">
    <ele>31</ele>
    <time>2023-09-12T17:40:41Z</time>
    <name>Institut français</name>
    <type>Lisbonne - Musées et patrimoine</type>
    <extensions>
      <osmand:address>Rua de Santos-o-Velho</osmand:address>
      <osmand:icon>shop_books</osmand:icon>
      <osmand:background>octagon</osmand:background>
      <osmand:color>#ff5020</osmand:color>
    </extensions>
  </wpt>
  <wpt lat="38.7077344" lon="-9.135281">
    <ele>3.2</ele>
    <time>2023-09-02T17:40:10Z</time>
    <name>Lisboa Story Centre</name>
    <type>Lisbonne - Musées et patrimoine</type>
    <extensions>
      <osmand:address>Praça do Comércio (Santa Maria Maior) 78 - 81, Lisboa</osmand:address>
      <osmand:icon>tourism_museum</osmand:icon>
      <osmand:background>octagon</osmand:background>
      <osmand:color>#ff5020</osmand:color>
    </extensions>
  </wpt>
  <wpt lat="38.7077344" lon="-9.135281">
    <ele>3.2</ele>
    <time>2023-09-02T17:40:10Z</time>
    <name>Lisboa Story Centre</name>
    <type>Lisbonne - Musées et patrimoine</type>
    <extensions>
      <osmand:address>Praça do Comércio (Santa Maria Maior) 78 - 81, Lisboa</osmand:address>
      <osmand:icon>tourism_museum</osmand:icon>
      <osmand:background>octagon</osmand:background>
      <osmand:color>#ff5020</osmand:color>
    </extensions>
  </wpt>
  <wpt lat="38.720459" lon="-9.140974">
    <ele>57.2</ele>
    <time>2023-09-05T17:30:23Z</time>
    <name>MILL</name>
    <type>Lisbonne - Musées et patrimoine</type>
    <extensions>
      <osmand:amenity_subtype>building</osmand:amenity_subtype>
      <osmand:amenity_name>MILL</osmand:amenity_name>
      <osmand:amenity_type>man_made</osmand:amenity_type>
      <osmand:osm_tag_description>MILL – Makers In Little Lisbon</osmand:osm_tag_description>
      <osmand:address>Calçada do Moinho de Vento (Pena) 14, Arroios</osmand:address>
      <osmand:icon>building</osmand:icon>
      <osmand:background>octagon</osmand:background>
      <osmand:color>#ff5020</osmand:color>
      <osmand:amenity_origin>Amenity:MILL: man_made:building</osmand:amenity_origin>
    </extensions>
  </wpt>
  <wpt lat="38.720459" lon="-9.140974">
    <ele>57.2</ele>
    <time>2023-09-05T17:30:23Z</time>
    <name>MILL</name>
    <type>Lisbonne - Musées et patrimoine</type>
    <extensions>
      <osmand:amenity_subtype>building</osmand:amenity_subtype>
      <osmand:amenity_name>MILL</osmand:amenity_name>
      <osmand:amenity_type>man_made</osmand:amenity_type>
      <osmand:osm_tag_description>MILL – Makers In Little Lisbon</osmand:osm_tag_description>
      <osmand:address>Calçada do Moinho de Vento (Pena) 14, Arroios</osmand:address>
      <osmand:icon>building</osmand:icon>
      <osmand:background>octagon</osmand:background>
      <osmand:color>#ff5020</osmand:color>
      <osmand:amenity_origin>Amenity:MILL: man_made:building</osmand:amenity_origin>
    </extensions>
  </wpt>
  <wpt lat="38.7100983" lon="-9.1925154">
    <ele>92.8</ele>
    <time>2023-09-06T10:04:28Z</time>
    <name>Moinhos do Casalinho da Ajuda</name>
    <type>Lisbonne - Musées et patrimoine</type>
    <extensions>
      <osmand:amenity_subtype>windmill</osmand:amenity_subtype>
      <osmand:osm_tag_historic_yes>yes</osmand:osm_tag_historic_yes>
      <osmand:osm_tag_alt_name>Moinhos de Vento do Casalinho da Ajuda</osmand:osm_tag_alt_name>
      <osmand:amenity_name>Moinhos do Casalinho da Ajuda</osmand:amenity_name>
      <osmand:osm_tag_wikimedia_commons>Category:Moinhos do Casalinho da Ajuda</osmand:osm_tag_wikimedia_commons>
      <osmand:osm_tag_wikidata>Q1943017</osmand:osm_tag_wikidata>
      <osmand:amenity_type>man_made</osmand:amenity_type>
      <osmand:address>Rua Roy Campbell</osmand:address>
      <osmand:icon>man_made_windmill</osmand:icon>
      <osmand:background>octagon</osmand:background>
      <osmand:color>#ff5020</osmand:color>
      <osmand:amenity_origin>Amenity:Moinhos do Casalinho da Ajuda: man_made:windmill</osmand:amenity_origin>
    </extensions>
  </wpt>
  <wpt lat="38.7100983" lon="-9.1925154">
    <ele>92.8</ele>
    <time>2023-09-06T10:04:28Z</time>
    <name>Moinhos do Casalinho da Ajuda</name>
    <type>Lisbonne - Musées et patrimoine</type>
    <extensions>
      <osmand:amenity_subtype>windmill</osmand:amenity_subtype>
      <osmand:osm_tag_historic_yes>yes</osmand:osm_tag_historic_yes>
      <osmand:osm_tag_alt_name>Moinhos de Vento do Casalinho da Ajuda</osmand:osm_tag_alt_name>
      <osmand:amenity_name>Moinhos do Casalinho da Ajuda</osmand:amenity_name>
      <osmand:osm_tag_wikimedia_commons>Category:Moinhos do Casalinho da Ajuda</osmand:osm_tag_wikimedia_commons>
      <osmand:osm_tag_wikidata>Q1943017</osmand:osm_tag_wikidata>
      <osmand:amenity_type>man_made</osmand:amenity_type>
      <osmand:address>Rua Roy Campbell</osmand:address>
      <osmand:icon>man_made_windmill</osmand:icon>
      <osmand:background>octagon</osmand:background>
      <osmand:color>#ff5020</osmand:color>
      <osmand:amenity_origin>Amenity:Moinhos do Casalinho da Ajuda: man_made:windmill</osmand:amenity_origin>
    </extensions>
  </wpt>
  <wpt lat="38.6980455" lon="-9.2057087">
    <ele>12</ele>
    <time>2022-11-13T15:33:54Z</time>
    <name>Monastère des Hiéronymites</name>
    <desc>Sûrement très beau, mais très couru.</desc>
    <type>Lisbonne - Musées et patrimoine</type>
    <extensions>
      <osmand:address>Rua dos Jerónimos, Belém</osmand:address>
      <osmand:icon>tourism_museum</osmand:icon>
      <osmand:background>octagon</osmand:background>
      <osmand:color>#ff5020</osmand:color>
    </extensions>
  </wpt>
  <wpt lat="38.6936063" lon="-9.2057387">
    <ele>0.2</ele>
    <time>2022-11-13T15:43:07Z</time>
    <name>Monument des découvreurs</name>
    <desc>Monument salazariste.</desc>
    <type>Lisbonne - Musées et patrimoine</type>
    <extensions>
      <osmand:address>Proche Avenida de Brasília, Belém</osmand:address>
      <osmand:icon>tourism_museum</osmand:icon>
      <osmand:background>octagon</osmand:background>
      <osmand:color>#10c0f0</osmand:color>
    </extensions>
  </wpt>
  <wpt lat="38.6434936" lon="-9.1446431">
    <ele>4</ele>
    <time>2023-09-09T18:16:48Z</time>
    <name>Moulin à marées</name>
    <type>Lisbonne - Musées et patrimoine</type>
    <extensions>
      <osmand:address>Proche Rua do Rouxinol (Quinta do Brasileiro), Corroios</osmand:address>
      <osmand:icon>man_made_windmill</osmand:icon>
      <osmand:background>octagon</osmand:background>
      <osmand:color>#ff5020</osmand:color>
    </extensions>
  </wpt>
  <wpt lat="38.7119983" lon="-9.1405708">
    <time>2022-11-13T15:14:29Z</time>
    <name>Musée archéologique (1)</name>
    <desc>Dans un ancien couvent en ruine (démoli par le séisme de 1755), musée archéologique avec de nombreux artefacts médiévaux mais aussi de toutes époques, incluant des momies incas.</desc>
    <type>Lisbonne - Musées et patrimoine</type>
    <extensions>
      <osmand:address>Largo do Carmo (Sacramento) Igreja do Convento de Santa Maria do Carmo, Santa Maria Maior</osmand:address>
      <osmand:icon>tourism_museum</osmand:icon>
      <osmand:background>octagon</osmand:background>
      <osmand:color>#10c0f0</osmand:color>
    </extensions>
  </wpt>
  <wpt lat="38.7119983" lon="-9.1405708">
    <time>2022-11-13T15:14:29Z</time>
    <name>Musée archéologique (2)</name>
    <desc>Dans un ancien couvent en ruine, musée archéologique avec de nombreux artefacts médiévaux mais aussi de toutes époques, incluant des momies incas.</desc>
    <type>Lisbonne - Musées et patrimoine</type>
    <extensions>
      <osmand:address>Largo do Carmo (Sacramento) Igreja do Convento de Santa Maria do Carmo, Santa Maria Maior</osmand:address>
      <osmand:icon>tourism_museum</osmand:icon>
      <osmand:background>octagon</osmand:background>
      <osmand:color>#10c0f0</osmand:color>
    </extensions>
  </wpt>
  <wpt lat="38.703901" lon="-9.1792379">
    <ele>11</ele>
    <time>2023-09-08T09:41:33Z</time>
    <name>Musee Art Deco</name>
    <type>Lisbonne - Musées et patrimoine</type>
    <extensions>
      <osmand:address>Rua Primeiro de Maio</osmand:address>
      <osmand:icon>tourism_museum</osmand:icon>
      <osmand:background>octagon</osmand:background>
      <osmand:color>#ff5020</osmand:color>
    </extensions>
  </wpt>
  <wpt lat="38.6956284" lon="-9.209305">
    <ele>16</ele>
    <time>2023-02-16T18:41:53Z</time>
    <name>Musée d'art moderne</name>
    <type>Lisbonne - Musées et patrimoine</type>
    <extensions>
      <osmand:address>Rua Bartolomeu Dias, Belém</osmand:address>
      <osmand:icon>tourism_museum</osmand:icon>
      <osmand:background>octagon</osmand:background>
      <osmand:color>#ff5020</osmand:color>
    </extensions>
  </wpt>
  <wpt lat="38.6956284" lon="-9.209305">
    <ele>16</ele>
    <time>2023-02-16T18:41:53Z</time>
    <name>Musée d'art moderne</name>
    <type>Lisbonne - Musées et patrimoine</type>
    <extensions>
      <osmand:address>Rua Bartolomeu Dias, Belém</osmand:address>
      <osmand:icon>tourism_museum</osmand:icon>
      <osmand:background>octagon</osmand:background>
      <osmand:color>#ff5020</osmand:color>
    </extensions>
  </wpt>
  <wpt lat="38.6936318" lon="-9.2082937">
    <ele>4.8</ele>
    <time>2022-11-13T15:36:29Z</time>
    <name>Musée d'art populaire</name>
    <desc>A faire ?</desc>
    <type>Lisbonne - Musées et patrimoine</type>
    <extensions>
      <osmand:address>Avenida de Brasília Museu de Arte Popular, Belém</osmand:address>
      <osmand:icon>tourism_museum</osmand:icon>
      <osmand:background>octagon</osmand:background>
      <osmand:color>#ff5020</osmand:color>
    </extensions>
  </wpt>
  <wpt lat="38.7200171" lon="-9.1198131">
    <ele>37</ele>
    <time>2022-11-13T12:52:59Z</time>
    <name>Musée de l'eau - centrale à vapeur</name>
    <desc>Site principal du Musée de l'eau, situé dans une ancienne centrale à vapeur. Histoire de l'exploitation des ressources hydrographiques à travers les âges, présentation des enjeux autour de la préservation de la ressource. Intéressant et didactique. Les éléments de la centrale sont vraiment impressionnants ! Attention à l'accès qui se fait par le bas (rua do Alviela).</desc>
    <type>Lisbonne - Musées et patrimoine</type>
    <extensions>
      <osmand:address>Rua do Alviela (Santa Engrácia) 12, Lisboa</osmand:address>
      <osmand:icon>tourism_museum</osmand:icon>
      <osmand:background>circle</osmand:background>
      <osmand:color>#10c0f0</osmand:color>
    </extensions>
  </wpt>
  <wpt lat="38.7029332" lon="-9.170597">
    <time>2022-11-14T22:31:33Z</time>
    <name>Musée de l'Orient</name>
    <desc>A faire une prochaine fois : belles collections d'art et d'artisanat asiatiques, armures de samouraïs notamment.</desc>
    <type>Lisbonne - Musées et patrimoine</type>
    <extensions>
      <osmand:address>Rua da Cintura do Porto de Lisboa, Estrela</osmand:address>
      <osmand:icon>tourism_museum</osmand:icon>
      <osmand:background>octagon</osmand:background>
      <osmand:color>#10c0f0</osmand:color>
    </extensions>
  </wpt>
  <wpt lat="38.6971179" lon="-9.2080285">
    <ele>7</ele>
    <time>2022-11-13T13:52:35Z</time>
    <name>Musée de la Marine</name>
    <desc>Musée d'histoire de la marine, nombreuses maquettes et exemplaires de bateaux anciens. Explications souvent succinctes malheureusement et peu de regard critique sur la période coloniale.</desc>
    <type>Lisbonne - Musées et patrimoine</type>
    <extensions>
      <osmand:address>Praça do Império 1400-206, Belém</osmand:address>
      <osmand:icon>leisure_marina</osmand:icon>
      <osmand:background>octagon</osmand:background>
      <osmand:color>#10c0f0</osmand:color>
    </extensions>
  </wpt>
  <wpt lat="38.707334" lon="-9.1351542">
    <ele>3</ele>
    <time>2022-11-13T12:28:42Z</time>
    <name>Musée de la morue</name>
    <desc>Super musée, intéressant et didactique.</desc>
    <type>Lisbonne - Musées et patrimoine</type>
    <extensions>
      <osmand:address>Avenida Infante Dom Henrique (Santa Maria Maior), Lisboa</osmand:address>
      <osmand:icon>tourism_museum</osmand:icon>
      <osmand:background>octagon</osmand:background>
      <osmand:color>#10c0f0</osmand:color>
    </extensions>
  </wpt>
  <wpt lat="38.7101574" lon="-9.1472639">
    <ele>54.8</ele>
    <time>2022-11-13T13:57:59Z</time>
    <name>Musée de la pharmacie</name>
    <desc>Super musée sur l'histoire de la pharmacie depuis la préhistoire. Nombreux artefacts.</desc>
    <type>Lisbonne - Musées et patrimoine</type>
    <extensions>
      <osmand:address>Rua de Santa Catarina (Santa Catarina) 2, Misericórdia</osmand:address>
      <osmand:icon>tourism_museum</osmand:icon>
      <osmand:background>octagon</osmand:background>
      <osmand:color>#10c0f0</osmand:color>
    </extensions>
  </wpt>
  <wpt lat="38.7423899" lon="-9.1452419">
    <time>2023-09-09T19:45:03Z</time>
    <name>Musée de la tauromachie</name>
    <type>Lisbonne - Musées et patrimoine</type>
    <extensions>
      <osmand:address>Campo Pequeno</osmand:address>
      <osmand:icon>tourism_museum</osmand:icon>
      <osmand:background>octagon</osmand:background>
      <osmand:color>#ff5020</osmand:color>
    </extensions>
  </wpt>
  <wpt lat="38.7078073" lon="-9.150345">
    <ele>9.5</ele>
    <time>2022-11-13T13:59:53Z</time>
    <name>Musée des communications</name>
    <desc>Histoire des PTT portugais. Vraiment bien, il y a de nombreux appareils à admirer : diligences, centraux téléphoniques, vieux ordinateurs...</desc>
    <type>Lisbonne - Musées et patrimoine</type>
    <extensions>
      <osmand:address>Rua do Instituto Industrial 16, Misericórdia</osmand:address>
      <osmand:icon>tourism_museum</osmand:icon>
      <osmand:background>octagon</osmand:background>
      <osmand:color>#10c0f0</osmand:color>
    </extensions>
  </wpt>
  <wpt lat="38.7011753" lon="-9.1799973">
    <time>2023-03-22T09:17:09Z</time>
    <name>Musée des transports urbains</name>
    <type>Lisbonne - Musées et patrimoine</type>
    <extensions>
      <osmand:address>Ponte 25 de Abril, Alcântara</osmand:address>
      <osmand:icon>tourism_museum</osmand:icon>
      <osmand:background>octagon</osmand:background>
      <osmand:color>#10c0f0</osmand:color>
    </extensions>
  </wpt>
  <wpt lat="38.7109699" lon="-9.1274741">
    <ele>5.8</ele>
    <time>2023-03-15T15:51:57Z</time>
    <name>Musée du fado</name>
    <type>Lisbonne - Musées et patrimoine</type>
    <extensions>
      <osmand:address>Largo do Chafariz de Dentro (São Miguel) 1, Santa Maria Maior</osmand:address>
      <osmand:icon>tourism_museum</osmand:icon>
      <osmand:background>octagon</osmand:background>
      <osmand:color>#ff5020</osmand:color>
    </extensions>
  </wpt>
  <wpt lat="38.7155559" lon="-9.1421487">
    <ele>22</ele>
    <time>2023-03-15T15:48:11Z</time>
    <name>Musée du sport</name>
    <type>Lisbonne - Musées et patrimoine</type>
    <extensions>
      <osmand:address>Praça dos Restauradores (Santa Justa) 25-45, Santa Maria Maior</osmand:address>
      <osmand:icon>tourism_museum</osmand:icon>
      <osmand:background>octagon</osmand:background>
      <osmand:color>#ff5020</osmand:color>
    </extensions>
  </wpt>
  <wpt lat="38.7155559" lon="-9.1421487">
    <ele>22</ele>
    <time>2023-03-15T15:48:11Z</time>
    <name>Musée du sport</name>
    <type>Lisbonne - Musées et patrimoine</type>
    <extensions>
      <osmand:address>Praça dos Restauradores (Santa Justa) 25-45, Santa Maria Maior</osmand:address>
      <osmand:icon>tourism_museum</osmand:icon>
      <osmand:background>octagon</osmand:background>
      <osmand:color>#ff5020</osmand:color>
    </extensions>
  </wpt>
  <wpt lat="38.6973536" lon="-9.2070887">
    <ele>8.8</ele>
    <time>2022-11-13T15:32:06Z</time>
    <name>Musée national d'archéologie</name>
    <desc>A faire. Malheureusement il y a la queue à la billetterie car elle est située à l'entrée du monastère des hiéronymites.</desc>
    <type>Lisbonne - Musées et patrimoine</type>
    <extensions>
      <osmand:address>Praça do Império Mosteiro dos Jerónimos, Belém</osmand:address>
      <osmand:icon>tourism_museum</osmand:icon>
      <osmand:background>octagon</osmand:background>
      <osmand:color>#ff5020</osmand:color>
    </extensions>
  </wpt>
  <wpt lat="38.708004" lon="-9.1557961">
    <ele>36.8</ele>
    <time>2023-09-02T18:03:42Z</time>
    <name>Museu da Marioneta</name>
    <type>Lisbonne - Musées et patrimoine</type>
    <extensions>
      <osmand:amenity_subtype>museum</osmand:amenity_subtype>
      <osmand:website>http://www.museudamarioneta.pt</osmand:website>
      <osmand:osm_tag_email>museudamarioneta@egeac.pt</osmand:osm_tag_email>
      <osmand:phone>+351 213 942 810;+351 916 294 128;+351 916 294 135</osmand:phone>
      <osmand:amenity_name>Museu da Marioneta</osmand:amenity_name>
      <osmand:osm_tag_wikidata>Q10333706</osmand:osm_tag_wikidata>
      <osmand:osm_tag_fax>+351 213 942 819</osmand:osm_tag_fax>
      <osmand:amenity_type>tourism</osmand:amenity_type>
      <osmand:osm_tag_wikipedia>http://pt.wikipedia.org/wiki/Museu da Marioneta</osmand:osm_tag_wikipedia>
      <osmand:amenity_opening_hours>Tu-Su 10:00-18:00</osmand:amenity_opening_hours>
      <osmand:osm_tag_addr_housename>Convento das Bernardas</osmand:osm_tag_addr_housename>
      <osmand:osm_tag_start_date>1987</osmand:osm_tag_start_date>
      <osmand:address>Rua da Esperança (Santos-o-Velho) 146, Estrela</osmand:address>
      <osmand:icon>tourism_museum</osmand:icon>
      <osmand:background>circle</osmand:background>
      <osmand:color>#ff5020</osmand:color>
      <osmand:amenity_origin>Amenity:Museu da Marioneta: tourism:museum</osmand:amenity_origin>
    </extensions>
  </wpt>
  <wpt lat="38.7101798" lon="-9.1325514">
    <ele>44.2</ele>
    <time>2022-11-13T12:19:51Z</time>
    <name>Museu do Aljube</name>
    <desc>Ancienne prison salazariste. Musée sur la dictature et la résistance.</desc>
    <type>Lisbonne - Musées et patrimoine</type>
    <extensions>
      <osmand:address>Rua Augusto Rosa (Sé), Santa Maria Maior</osmand:address>
      <osmand:icon>tourism_museum</osmand:icon>
      <osmand:background>octagon</osmand:background>
      <osmand:color>#10c0f0</osmand:color>
    </extensions>
  </wpt>
  <wpt lat="38.7247426" lon="-9.1136346">
    <ele>10</ele>
    <time>2022-11-13T12:58:25Z</time>
    <name>Museu do Azulejo</name>
    <desc>Musée incontournable de Lisbonne, situé sur le site d'une ancienne église richement décorée. Accessible en bus uniquement.</desc>
    <type>Lisbonne - Musées et patrimoine</type>
    <extensions>
      <osmand:address>Rua da Madre de Deus, Penha de França</osmand:address>
      <osmand:icon>tourism_museum</osmand:icon>
      <osmand:background>circle</osmand:background>
      <osmand:color>#10c0f0</osmand:color>
    </extensions>
  </wpt>
  <wpt lat="38.7085951" lon="-9.1388951">
    <ele>14.2</ele>
    <time>2023-03-16T17:29:38Z</time>
    <name>Museu do Dinheiro e Núcleo museológico da muralha - Musée de la monnaie.</name>
    <desc>Gratuit. Accès aux fondations de la muraille médiévale.</desc>
    <type>Lisbonne - Musées et patrimoine</type>
    <extensions>
      <osmand:address>Largo de São Julião (Santa Maria Maior) 26, Lisboa</osmand:address>
      <osmand:icon>tourism_museum</osmand:icon>
      <osmand:background>octagon</osmand:background>
      <osmand:color>#10c0f0</osmand:color>
    </extensions>
  </wpt>
  <wpt lat="38.7105577" lon="-9.1323507">
    <ele>56</ele>
    <time>2022-11-13T12:21:12Z</time>
    <name>Museu do Teatro Romano</name>
    <desc>Petit musée archéologique présentant le site voisin du théâtre romain et l'histoire de la période ibéro-romaine à Lisbonne. Nombreux artefacts.</desc>
    <type>Lisbonne - Musées et patrimoine</type>
    <extensions>
      <osmand:address>Rua de São Mamede (Sé), Santa Maria Maior</osmand:address>
      <osmand:icon>special_poi_colosseum</osmand:icon>
      <osmand:background>octagon</osmand:background>
      <osmand:color>#10c0f0</osmand:color>
    </extensions>
  </wpt>
  <wpt lat="38.7131081" lon="-9.1497555">
    <ele>51.2</ele>
    <time>2023-03-18T13:00:40Z</time>
    <name>Museu Geológico</name>
    <desc>Salles inchangées depuis le 18e siècle.</desc>
    <type>Lisbonne - Musées et patrimoine</type>
    <extensions>
      <osmand:amenity_subtype>museum</osmand:amenity_subtype>
      <osmand:website>http://www.lneg.pt/museugeologico/</osmand:website>
      <osmand:osm_tag_email>museugeol@lneg.pt</osmand:osm_tag_email>
      <osmand:phone>+351 213 463 915</osmand:phone>
      <osmand:osm_tag_alt_name>Museu Geológico e Mineiro</osmand:osm_tag_alt_name>
      <osmand:amenity_name>Museu Geológico</osmand:amenity_name>
      <osmand:osm_tag_wikidata>Q10333493</osmand:osm_tag_wikidata>
      <osmand:amenity_type>tourism</osmand:amenity_type>
      <osmand:osm_tag_wikipedia>http://pt.wikipedia.org/wiki/Museu Geológico de Lisboa</osmand:osm_tag_wikipedia>
      <osmand:amenity_opening_hours>Mo-Sa 10:00-18:00; PH off</osmand:amenity_opening_hours>
      <osmand:osm_tag_start_date>1859</osmand:osm_tag_start_date>
      <osmand:osm_tag_operator>Laboratório Nacional de Energia e Geologia</osmand:osm_tag_operator>
      <osmand:address>Rua da Academia das Ciências (Mercês) 19, Misericórdia</osmand:address>
      <osmand:icon>tourism_museum</osmand:icon>
      <osmand:background>octagon</osmand:background>
      <osmand:color>#10c0f0</osmand:color>
      <osmand:amenity_origin>Amenity:Museu Geologico: tourism:museum</osmand:amenity_origin>
    </extensions>
  </wpt>
  <wpt lat="38.7131081" lon="-9.1497555">
    <ele>51.2</ele>
    <time>2023-03-18T13:00:40Z</time>
    <name>Museu Geológico</name>
    <desc>Salles inchangées depuis le 18e siècle.</desc>
    <type>Lisbonne - Musées et patrimoine</type>
    <extensions>
      <osmand:amenity_subtype>museum</osmand:amenity_subtype>
      <osmand:website>http://www.lneg.pt/museugeologico/</osmand:website>
      <osmand:osm_tag_email>museugeol@lneg.pt</osmand:osm_tag_email>
      <osmand:phone>+351 213 463 915</osmand:phone>
      <osmand:osm_tag_alt_name>Museu Geológico e Mineiro</osmand:osm_tag_alt_name>
      <osmand:amenity_name>Museu Geológico</osmand:amenity_name>
      <osmand:osm_tag_wikidata>Q10333493</osmand:osm_tag_wikidata>
      <osmand:amenity_type>tourism</osmand:amenity_type>
      <osmand:osm_tag_wikipedia>http://pt.wikipedia.org/wiki/Museu Geológico de Lisboa</osmand:osm_tag_wikipedia>
      <osmand:amenity_opening_hours>Mo-Sa 10:00-18:00; PH off</osmand:amenity_opening_hours>
      <osmand:osm_tag_start_date>1859</osmand:osm_tag_start_date>
      <osmand:osm_tag_operator>Laboratório Nacional de Energia e Geologia</osmand:osm_tag_operator>
      <osmand:address>Rua da Academia das Ciências (Mercês) 19, Misericórdia</osmand:address>
      <osmand:icon>tourism_museum</osmand:icon>
      <osmand:background>octagon</osmand:background>
      <osmand:color>#10c0f0</osmand:color>
      <osmand:amenity_origin>Amenity:Museu Geologico: tourism:museum</osmand:amenity_origin>
    </extensions>
  </wpt>
  <wpt lat="38.7045555" lon="-9.161911">
    <ele>32.8</ele>
    <time>2023-03-16T17:23:16Z</time>
    <name>Museu Nacional de Arte Antiga</name>
    <type>Lisbonne - Musées et patrimoine</type>
    <extensions>
      <osmand:osm_tag_short_name>MNAA</osmand:osm_tag_short_name>
      <osmand:website>http://museudearteantiga.pt</osmand:website>
      <osmand:osm_tag_castle_type_palace>palace</osmand:osm_tag_castle_type_palace>
      <osmand:osm_tag_wikidata>Q212459</osmand:osm_tag_wikidata>
      <osmand:amenity_type>tourism</osmand:amenity_type>
      <osmand:osm_tag_description> gz ¿+¨       Å.áª¢Ñ¬åO2£èaÃ(Àlb=hČT½Èlìêr*Ę;a%Ę¥7Ăæ%Č³~çÌ¡!É&amp;ÔÆ¯A%é{sÛoýç9%®"eÇìÁrIM·¶ČV·ęQdĆ×ùVñ¾Åöá@´¡Y@Ýz}Äñ«JP©ćp_BSûÄ¨æĕFĀ¯Ó2ò.ÒfôČ-wØ©f"ÓFVdôą ½Àbö¯2TP7V6yÙ¡zN£ĕ}   </osmand:osm_tag_description>
      <osmand:amenity_subtype>castle</osmand:amenity_subtype>
      <osmand:collapsable_museum_type>museum_art</osmand:collapsable_museum_type>
      <osmand:osm_tag_old_name>Palácio Alvor</osmand:osm_tag_old_name>
      <osmand:osm_tag_email>geral@mnaa.dgpc.pt</osmand:osm_tag_email>
      <osmand:phone>+351 213 912 800</osmand:phone>
      <osmand:osm_tag_protection_title>Imóvel de Interesse Público</osmand:osm_tag_protection_title>
      <osmand:osm_tag_alt_name>Convento de Santo Alberto</osmand:osm_tag_alt_name>
      <osmand:amenity_name>Museu Nacional de Arte Antiga</osmand:amenity_name>
      <osmand:osm_tag_wikipedia>http://pt.wikipedia.org/wiki/Museu Nacional de Arte Antiga</osmand:osm_tag_wikipedia>
      <osmand:amenity_opening_hours>Tu-Su 10:00-18:00</osmand:amenity_opening_hours>
      <osmand:osm_tag_addr_housename>Palácio Alvor-Pombal</osmand:osm_tag_addr_housename>
      <osmand:osm_tag_operator>DGPC, Decreto-Lei n.º 114/2012, DR, 1.ª série, n.º 102 de 25 maio 2012</osmand:osm_tag_operator>
      <osmand:address>Rua das Janelas Verdes (Santos-o-Velho) 59, Estrela</osmand:address>
      <osmand:icon>tourism_museum</osmand:icon>
      <osmand:background>octagon</osmand:background>
      <osmand:color>#ff5020</osmand:color>
      <osmand:amenity_origin>Amenity:National Museum of Ancient Art: tourism:castle</osmand:amenity_origin>
    </extensions>
  </wpt>
  <wpt lat="38.7048073" lon="-9.2082167">
    <ele>71.8</ele>
    <time>2023-03-16T17:24:54Z</time>
    <name>Museu Nacional de Etnologia</name>
    <type>Lisbonne - Musées et patrimoine</type>
    <extensions>
      <osmand:amenity_subtype>museum</osmand:amenity_subtype>
      <osmand:website>https://mnetnologia.wordpress.com</osmand:website>
      <osmand:osm_tag_email>geral@mnetnologia.dgpc.pt</osmand:osm_tag_email>
      <osmand:phone>+351 213 041 160;+351 213 041 169</osmand:phone>
      <osmand:amenity_name>Museu Nacional de Etnologia</osmand:amenity_name>
      <osmand:osm_tag_wikidata>Q6974467</osmand:osm_tag_wikidata>
      <osmand:osm_tag_fax>+351 210 109 206</osmand:osm_tag_fax>
      <osmand:amenity_type>tourism</osmand:amenity_type>
      <osmand:amenity_opening_hours>Tu 14:00-18:00; We-Su 10:00-18:00; Jan 01,May 01,Jun 13,Dec 25 off;easter off</osmand:amenity_opening_hours>
      <osmand:address>Avenida Ilha da Madeira (Restelo), Belém</osmand:address>
      <osmand:icon>tourism_museum</osmand:icon>
      <osmand:background>octagon</osmand:background>
      <osmand:color>#10c0f0</osmand:color>
      <osmand:amenity_origin>Amenity:National Museum of Ethnology: tourism:museum</osmand:amenity_origin>
    </extensions>
  </wpt>
  <wpt lat="38.7048073" lon="-9.2082167">
    <ele>71.8</ele>
    <time>2023-03-16T17:24:54Z</time>
    <name>Museu Nacional de Etnologia</name>
    <type>Lisbonne - Musées et patrimoine</type>
    <extensions>
      <osmand:amenity_subtype>museum</osmand:amenity_subtype>
      <osmand:website>https://mnetnologia.wordpress.com</osmand:website>
      <osmand:osm_tag_email>geral@mnetnologia.dgpc.pt</osmand:osm_tag_email>
      <osmand:phone>+351 213 041 160;+351 213 041 169</osmand:phone>
      <osmand:amenity_name>Museu Nacional de Etnologia</osmand:amenity_name>
      <osmand:osm_tag_wikidata>Q6974467</osmand:osm_tag_wikidata>
      <osmand:osm_tag_fax>+351 210 109 206</osmand:osm_tag_fax>
      <osmand:amenity_type>tourism</osmand:amenity_type>
      <osmand:amenity_opening_hours>Tu 14:00-18:00; We-Su 10:00-18:00; Jan 01,May 01,Jun 13,Dec 25 off;easter off</osmand:amenity_opening_hours>
      <osmand:address>Avenida Ilha da Madeira (Restelo), Belém</osmand:address>
      <osmand:icon>tourism_museum</osmand:icon>
      <osmand:background>octagon</osmand:background>
      <osmand:color>#10c0f0</osmand:color>
      <osmand:amenity_origin>Amenity:National Museum of Ethnology: tourism:museum</osmand:amenity_origin>
    </extensions>
  </wpt>
  <wpt lat="38.7177086" lon="-9.1504688">
    <ele>81</ele>
    <time>2023-03-18T13:47:43Z</time>
    <name>Museu Nacional de História Natural e da Ciência</name>
    <desc>https://www.museus.ulisboa.pt/horarios-e-precos</desc>
    <type>Lisbonne - Musées et patrimoine</type>
    <extensions>
      <osmand:amenity_subtype>museum</osmand:amenity_subtype>
      <osmand:osm_tag_short_name>MUHNAC</osmand:osm_tag_short_name>
      <osmand:website>http://www.museus.ulisboa.pt</osmand:website>
      <osmand:osm_tag_old_name>Escola Politécnica;Noviciado da Cotovia</osmand:osm_tag_old_name>
      <osmand:osm_tag_email>geral@museus.ulisboa.pt</osmand:osm_tag_email>
      <osmand:phone>+351 213 921 800; +351 213 921 808</osmand:phone>
      <osmand:amenity_name>Museu Nacional de História Natural e da Ciência</osmand:amenity_name>
      <osmand:osm_tag_wikidata>Q10333586</osmand:osm_tag_wikidata>
      <osmand:amenity_type>tourism</osmand:amenity_type>
      <osmand:osm_tag_wikipedia>http://pt.wikipedia.org/wiki/Museu Nacional de História Natural e da Ciência</osmand:osm_tag_wikipedia>
      <osmand:osm_tag_operator>Universidade de Lisboa</osmand:osm_tag_operator>
      <osmand:address>Entrada do Jardim Botânico (São Mamede), Santo António</osmand:address>
      <osmand:icon>tourism_museum</osmand:icon>
      <osmand:background>octagon</osmand:background>
      <osmand:color>#ff5020</osmand:color>
      <osmand:amenity_origin>Amenity:Museum of Natural History and Science: tourism:museum</osmand:amenity_origin>
    </extensions>
  </wpt>
  <wpt lat="38.7747536" lon="-9.1669483">
    <ele>92</ele>
    <time>2023-09-05T20:35:01Z</time>
    <name>Museu Nacional do Teatro e da Dança</name>
    <type>Lisbonne - Musées et patrimoine</type>
    <extensions>
      <osmand:amenity_subtype>museum</osmand:amenity_subtype>
      <osmand:website>http://museudoteatroedanca.pt/</osmand:website>
      <osmand:osm_tag_email>geral@mnteatro.dgpc.pt</osmand:osm_tag_email>
      <osmand:phone>+351 217 567 410;+351 217 567 419</osmand:phone>
      <osmand:amenity_name>Museu Nacional do Teatro e da Dança</osmand:amenity_name>
      <osmand:collapsable_fee>fee_yes</osmand:collapsable_fee>
      <osmand:amenity_type>tourism</osmand:amenity_type>
      <osmand:address>Estrada do Lumiar</osmand:address>
      <osmand:icon>tourism_museum</osmand:icon>
      <osmand:background>octagon</osmand:background>
      <osmand:color>#ff5020</osmand:color>
      <osmand:amenity_origin>Amenity:Museu Nacional do Teatro e da Danca: tourism:museum</osmand:amenity_origin>
    </extensions>
  </wpt>
  <wpt lat="38.7105179" lon="-9.1874399">
    <ele>93.5</ele>
    <time>2023-03-21T12:47:26Z</time>
    <name>Observatório Astronómico de Lisboa</name>
    <desc>https://oal.ul.pt/</desc>
    <type>Lisbonne - Musées et patrimoine</type>
    <extensions>
      <osmand:amenity_subtype>museum</osmand:amenity_subtype>
      <osmand:osm_tag_historic_yes>yes</osmand:osm_tag_historic_yes>
      <osmand:website>http://oal.ul.pt</osmand:website>
      <osmand:osm_tag_alt_name> gz ¿+¨       ïÊîÍÊëÌÙ\YÈÓÿaQXDÈß|lĜ¥7ü¥?rcċ+MđËêéô¨éÌè¤òà8õ:2èàÕø­ PäîĖ   </osmand:osm_tag_alt_name>
      <osmand:amenity_name>Observatório Astronómico de Lisboa</osmand:amenity_name>
      <osmand:osm_tag_wikidata>Q2065139</osmand:osm_tag_wikidata>
      <osmand:amenity_type>tourism</osmand:amenity_type>
      <osmand:osm_tag_wikipedia>http://pt.wikipedia.org/wiki/Observatório Astronómico de Lisboa</osmand:osm_tag_wikipedia>
      <osmand:osm_tag_note> gz ¿+¨       «ÈjÏéíoìi÷èmËÌílËi÷hl£*´Å¢%µ2RêABå)YEåeªÉ)ªÁ)¥)àª(¼Sê!D&amp;ćmąIÙªÉIª&gt;àåIeeIª¡'ėÅĄÆċ¡ c­Sõć   </osmand:osm_tag_note>
      <osmand:collapsable_observatory_designation>astronomical_observatory</osmand:collapsable_observatory_designation>
      <osmand:address>Tapada da Ajuda, Alcântara</osmand:address>
      <osmand:icon>telescope_type_optical</osmand:icon>
      <osmand:background>octagon</osmand:background>
      <osmand:color>#10c0f0</osmand:color>
      <osmand:amenity_origin>Amenity:Observatorio Astronomico de Lisboa: tourism:museum</osmand:amenity_origin>
    </extensions>
  </wpt>
  <wpt lat="38.7400856" lon="-9.1802788">
    <ele>85.5</ele>
    <time>2023-03-16T08:46:54Z</time>
    <name>Palácio Fronteira</name>
    <desc>14€ l'entrée palais (visite guidée obligatoire) + jardin ou 6€ jardin !!!</desc>
    <type>Lisbonne - Musées et patrimoine</type>
    <extensions>
      <osmand:website>http://www.fronteira-alorna.pt</osmand:website>
      <osmand:osm_tag_castle_type_palace>palace</osmand:osm_tag_castle_type_palace>
      <osmand:osm_tag_wikidata>Q1161724</osmand:osm_tag_wikidata>
      <osmand:amenity_type>tourism</osmand:amenity_type>
      <osmand:osm_tag_tourism_yes>yes</osmand:osm_tag_tourism_yes>
      <osmand:osm_tag_description> gz ¿+¨       õ.aê£á°äğE.ª²ĂĞà$¨"Àþ{y¶ûRsċd±¯2àîY8Ó¦¯þ:ÊJÿ}sZĜäñäí&gt;čó#ÂÉ\Čă`cĒ)SĊđęñg\cD¦é²%R\³¦fĕ`M6ïč½ęÄâ~AÞöa~Öąm\Ñí9eHcSª5ďj¯uÐĈ&lt;vâG+FĒĐÈÒ;qHGä_8o£öÒ4ýJą:¸ċLZ¸»5=ăã¨ßēÅo   </osmand:osm_tag_description>
      <osmand:osm_tag_start_date>1670-1673</osmand:osm_tag_start_date>
      <osmand:amenity_subtype>castle</osmand:amenity_subtype>
      <osmand:osm_tag_email>fronteiraalorna@mail.telepac.pt</osmand:osm_tag_email>
      <osmand:phone>+351 217 782 023</osmand:phone>
      <osmand:osm_tag_alt_name> gz ¿+¨       «èlÙ\ÐÙÓÿÁÅ_øa×QHPÔUØUøÁÅñaMÈßOÄÕSÈqÚ JæçÁËQÈÅÓOøçÁÃ_HÄñÁõÁ×±è!T"ĐÎâěÊ¶öÀI¡:83ÿ4'B¸BÊr-£ Ñ!Â¤u   </osmand:osm_tag_alt_name>
      <osmand:amenity_name>Palácio Fronteira</osmand:amenity_name>
      <osmand:osm_tag_wikipedia>http://en.wikipedia.org/wiki/Palace of the Marquises of Fronteira</osmand:osm_tag_wikipedia>
      <osmand:amenity_opening_hours>Mo-Sa 11:00-12:00</osmand:amenity_opening_hours>
      <osmand:address>Largo São Domingos de Benfica 1, São Domingos de Benfica</osmand:address>
      <osmand:icon>historic_castle</osmand:icon>
      <osmand:background>octagon</osmand:background>
      <osmand:color>#ff5020</osmand:color>
      <osmand:amenity_origin>Amenity:Fronteira Palace: tourism:castle</osmand:amenity_origin>
    </extensions>
  </wpt>
  <wpt lat="38.7075855" lon="-9.1976613">
    <time>2023-03-19T21:13:53Z</time>
    <name>Palácio Nacional da Ajuda</name>
    <desc>Accès 18E ou bus 729</desc>
    <type>Lisbonne - Musées et patrimoine</type>
    <extensions>
      <osmand:website>http://www.palacioajuda.gov.pt</osmand:website>
      <osmand:osm_tag_castle_type_palace>palace</osmand:osm_tag_castle_type_palace>
      <osmand:osm_tag_wikidata>Q1478288</osmand:osm_tag_wikidata>
      <osmand:osm_tag_fax>+351 213 648 223</osmand:osm_tag_fax>
      <osmand:amenity_type>tourism</osmand:amenity_type>
      <osmand:osm_tag_description> gz ¿+¨       ½/ÑîdÐ°åO[ ´Áč±MĈyĚáúîđ¼ÔhäăěÏäáåe±ĒÑÆImÿ²ċ5å¢ćåpLXĊÙ6FĘą°ÍìÃ¶µß6zLď_®Ē}Ê´Í:ÑKSēdÜíøĉä¿UéĂÀ&amp;¶9âç£'ād&gt;8CjćìLĊHqĖç¼e$×LFÿqmòÄ(«¾îđ|IËë/©·ffĒĄ_ċO¼ñĕQxqSėĐQKi=ĀJ|ĞVăE÷ÏĚwğWä¡   </osmand:osm_tag_description>
      <osmand:amenity_subtype>castle</osmand:amenity_subtype>
      <osmand:osm_tag_email>geral@pnajuda.dgpc.pt</osmand:osm_tag_email>
      <osmand:phone>+351 213 637 095;+351 213 620 264</osmand:phone>
      <osmand:osm_tag_protection_title>Monumento Nacional</osmand:osm_tag_protection_title>
      <osmand:osm_tag_alt_name>Paço da Ajuda</osmand:osm_tag_alt_name>
      <osmand:amenity_name>Palácio Nacional da Ajuda</osmand:amenity_name>
      <osmand:amenity_opening_hours>Mo-Su 10:00-18:00; We off</osmand:amenity_opening_hours>
      <osmand:osm_tag_addr_housename>Palácio Nacional da Ajuda</osmand:osm_tag_addr_housename>
      <osmand:address>Largo da Ajuda Palácio Nacional da Ajuda, Ajuda</osmand:address>
      <osmand:icon>historic_castle</osmand:icon>
      <osmand:background>octagon</osmand:background>
      <osmand:color>#10c0f0</osmand:color>
      <osmand:amenity_origin>Amenity:Palacio Nacional da Ajuda: tourism:castle</osmand:amenity_origin>
    </extensions>
  </wpt>
  <wpt lat="38.7150097" lon="-9.1246645">
    <ele>48</ele>
    <time>2022-11-13T14:12:22Z</time>
    <name>Panthéon</name>
    <desc>Point de vue.</desc>
    <type>Lisbonne - Musées et patrimoine</type>
    <extensions>
      <osmand:address>Campo de Santa Clara Panteão Nacional, Lisboa</osmand:address>
      <osmand:icon>tourism_museum</osmand:icon>
      <osmand:background>circle</osmand:background>
      <osmand:color>#10c0f0</osmand:color>
    </extensions>
  </wpt>
  <wpt lat="38.6916049" lon="-9.1775127">
    <time>2022-11-13T15:38:49Z</time>
    <name>Ponte 25 de Abril</name>
    <desc>Impressionnant pont suspendu ferroviaire et routier, construit par Eiffel. On peut aisément l'admirer de dessous depuis le train ou le tramway.</desc>
    <type>Lisbonne - Musées et patrimoine</type>
    <extensions>
      <osmand:address>Ponte 25 de Abril, Alcântara</osmand:address>
      <osmand:icon>bridge_structure_suspension</osmand:icon>
      <osmand:background>octagon</osmand:background>
      <osmand:color>#10c0f0</osmand:color>
    </extensions>
  </wpt>
  <wpt lat="38.7212389" lon="-9.1556787">
    <ele>82</ele>
    <time>2022-11-13T14:41:41Z</time>
    <name>Reservatório da Mãe d'Água das Amoreiras - Musée de l'eau</name>
    <desc>Superbe réservoir d'eau. Impressionnant. Point de vue sur la ville sur le toit du bâtiment.</desc>
    <type>Lisbonne - Musées et patrimoine</type>
    <extensions>
      <osmand:address>Calçada Bento da Rocha Cabral (Rato), Santo António</osmand:address>
      <osmand:icon>waterfall</osmand:icon>
      <osmand:background>octagon</osmand:background>
      <osmand:color>#10c0f0</osmand:color>
    </extensions>
  </wpt>
  <wpt lat="38.716205" lon="-9.1489182">
    <ele>74.2</ele>
    <time>2022-11-13T14:34:42Z</time>
    <name>Réservoir du Patriarcal - Musée de l'eau</name>
    <desc>A faire. Ouvert seulement les samedis et dimanches du mois d'octobre.
https://www.epal.pt/EPAL/menu/museu-da-%C3%A1gua/informa%C3%A7%C3%B5es-%C3%BAteis/contactos-hor%C3%A1rios</desc>
    <type>Lisbonne - Musées et patrimoine</type>
    <extensions>
      <osmand:address>Praça do Príncipe Real (Mercês), Misericórdia</osmand:address>
      <osmand:icon>waterfall</osmand:icon>
      <osmand:background>octagon</osmand:background>
      <osmand:color>#ff5020</osmand:color>
    </extensions>
  </wpt>
  <wpt lat="38.7098644" lon="-9.132823">
    <ele>43.8</ele>
    <time>2022-11-13T12:26:43Z</time>
    <name>Sé de Lisboa</name>
    <desc>Cathédrale de Lisbonne</desc>
    <type>Lisbonne - Musées et patrimoine</type>
    <extensions>
      <osmand:address>Rua Augusto Rosa (Sé), Santa Maria Maior</osmand:address>
      <osmand:icon>building_type_church</osmand:icon>
      <osmand:background>octagon</osmand:background>
      <osmand:color>#10c0f0</osmand:color>
    </extensions>
  </wpt>
  <wpt lat="38.7993277" lon="-9.3855219">
    <ele>206.5</ele>
    <time>2022-11-13T14:56:43Z</time>
    <name>Sintra</name>
    <desc>Ça a l'air très joli, mais c'est ultra touristique et hors de prix si on n'a pas de voiture (obligation de prendre des bus à touristes chers). On a laissé tomber.</desc>
    <type>Lisbonne - Musées et patrimoine</type>
    <extensions>
      <osmand:address>Avenida Doutor Miguel Bombarda, Sintra</osmand:address>
      <osmand:icon>historic_castle</osmand:icon>
      <osmand:background>octagon</osmand:background>
      <osmand:color>#10c0f0</osmand:color>
    </extensions>
  </wpt>
  <wpt lat="38.685956" lon="-9.1523917">
    <ele>40.2</ele>
    <time>2023-02-16T19:10:32Z</time>
    <name>Site phénicien</name>
    <type>Lisbonne - Musées et patrimoine</type>
    <extensions>
      <osmand:address>Rua Elias Garcia (Ginjal), Cacilhas</osmand:address>
      <osmand:icon>historic_archaeological_site</osmand:icon>
      <osmand:background>octagon</osmand:background>
      <osmand:color>#ff5020</osmand:color>
    </extensions>
  </wpt>
  <wpt lat="38.56041" lon="-7.9076023">
    <time>2023-09-11T09:41:56Z</time>
    <name>Taxis</name>
    <type>Lisbonne - Musées et patrimoine</type>
    <extensions>
      <osmand:address>Rua da Estação</osmand:address>
      <osmand:icon>special_taxi</osmand:icon>
      <osmand:background>circle</osmand:background>
      <osmand:color>#1010a0</osmand:color>
    </extensions>
  </wpt>
  <wpt lat="38.7104297" lon="-9.132287">
    <ele>56</ele>
    <time>2022-11-13T12:25:02Z</time>
    <name>Théâtre romain</name>
    <desc>Ruines du théâtre antique.</desc>
    <type>Lisbonne - Musées et patrimoine</type>
    <extensions>
      <osmand:address>Rua de São Mamede (Sé) 3A, Santa Maria Maior</osmand:address>
      <osmand:icon>special_poi_colosseum</osmand:icon>
      <osmand:background>octagon</osmand:background>
      <osmand:color>#10c0f0</osmand:color>
    </extensions>
  </wpt>
  <wpt lat="38.6915582" lon="-9.2159187">
    <ele>0</ele>
    <time>2022-11-13T15:37:47Z</time>
    <name>Torre de Belém</name>
    <type>Lisbonne - Musées et patrimoine</type>
    <extensions>
      <osmand:address>Avenida de Brasília Torre de Belém, Belém</osmand:address>
      <osmand:icon>historic_castle</osmand:icon>
      <osmand:background>octagon</osmand:background>
      <osmand:color>#10c0f0</osmand:color>
    </extensions>
  </wpt>
  <wpt lat="38.7075526" lon="-9.1987615">
    <ele>94.2</ele>
    <time>2023-03-20T12:10:56Z</time>
    <name>Trésor royal</name>
    <type>Lisbonne - Musées et patrimoine</type>
    <extensions>
      <osmand:address>Calçada da Ajuda, Ajuda</osmand:address>
      <osmand:icon>tourism_museum</osmand:icon>
      <osmand:background>octagon</osmand:background>
      <osmand:color>#ff5020</osmand:color>
    </extensions>
  </wpt>
  <extensions>
    <osmand:points_groups>
      <group name="Lisbonne - Musées et patrimoine" color="#10c0f0" icon="tourism_museum" background="octagon" />
    </osmand:points_groups>
  </extensions>
</gpx>