<?xml version='1.0' encoding='UTF-8' standalone='yes' ?>
<gpx version="1.1" creator="OsmAnd~ 4.3.5" xmlns="http://www.topografix.com/GPX/1/1" xmlns:osmand="https://osmand.net" xmlns:xsi="http://www.w3.org/2001/XMLSchema-instance" xsi:schemaLocation="http://www.topografix.com/GPX/1/1 http://www.topografix.com/GPX/1/1/gpx.xsd">
  <metadata>
    <name>2023-04-07_15-35_Fri</name>
    <time>2023-04-07T14:05:58Z</time>
  </metadata>
  <trk>
    <trkseg>
      <trkpt lat="48.0091222" lon="0.1961447">
        <ele>100.9</ele>
        <time>2023-04-07T13:35:45Z</time>
        <hdop>3.8</hdop>
        <extensions>
          <osmand:heading>0</osmand:heading>
        </extensions>
      </trkpt>
      <trkpt lat="48.0090796" lon="0.1961756">
        <ele>100.1</ele>
        <time>2023-04-07T13:35:51Z</time>
        <hdop>3.8</hdop>
        <extensions>
          <osmand:bearing>136,3</osmand:bearing>
          <osmand:speed>0.6</osmand:speed>
          <osmand:heading>0</osmand:heading>
        </extensions>
      </trkpt>
      <trkpt lat="48.0090547" lon="0.1962052">
        <ele>101</ele>
        <time>2023-04-07T13:35:56Z</time>
        <hdop>3.8</hdop>
        <extensions>
          <osmand:bearing>126,9</osmand:bearing>
          <osmand:speed>0.5</osmand:speed>
          <osmand:heading>0</osmand:heading>
        </extensions>
      </trkpt>
      <trkpt lat="48.0090373" lon="0.1962423">
        <ele>103</ele>
        <time>2023-04-07T13:36:02Z</time>
        <hdop>3.8</hdop>
        <extensions>
          <osmand:bearing>126,9</osmand:bearing>
          <osmand:speed>0.6</osmand:speed>
          <osmand:heading>0</osmand:heading>
        </extensions>
      </trkpt>
      <trkpt lat="48.0090366" lon="0.1962822">
        <ele>102.8</ele>
        <time>2023-04-07T13:36:07Z</time>
        <hdop>3.8</hdop>
        <extensions>
          <osmand:bearing>67,8</osmand:bearing>
          <osmand:speed>0.7</osmand:speed>
          <osmand:heading>0</osmand:heading>
        </extensions>
      </trkpt>
      <trkpt lat="48.0090662" lon="0.1963172">
        <ele>102.7</ele>
        <time>2023-04-07T13:36:12Z</time>
        <hdop>3.8</hdop>
        <extensions>
          <osmand:heading>0</osmand:heading>
        </extensions>
      </trkpt>
      <trkpt lat="48.0090689" lon="0.1963188">
        <ele>102.7</ele>
        <time>2023-04-07T13:36:18Z</time>
        <hdop>3.8</hdop>
        <extensions>
          <osmand:heading>0</osmand:heading>
        </extensions>
      </trkpt>
      <trkpt lat="48.0090346" lon="0.1963226">
        <ele>102.7</ele>
        <time>2023-04-07T13:36:23Z</time>
        <hdop>3.8</hdop>
        <extensions>
          <osmand:bearing>190,0</osmand:bearing>
          <osmand:speed>0.8</osmand:speed>
          <osmand:heading>0</osmand:heading>
        </extensions>
      </trkpt>
      <trkpt lat="48.0089801" lon="0.1962649">
        <ele>103.7</ele>
        <time>2023-04-07T13:36:28Z</time>
        <hdop>3.8</hdop>
        <extensions>
          <osmand:bearing>219,8</osmand:bearing>
          <osmand:speed>1.2</osmand:speed>
          <osmand:heading>0</osmand:heading>
        </extensions>
      </trkpt>
      <trkpt lat="48.0089484" lon="0.1962232">
        <ele>104.6</ele>
        <time>2023-04-07T13:36:34Z</time>
        <hdop>3.8</hdop>
        <extensions>
          <osmand:heading>0</osmand:heading>
        </extensions>
      </trkpt>
      <trkpt lat="48.0089483" lon="0.196219">
        <ele>104.5</ele>
        <time>2023-04-07T13:36:40Z</time>
        <hdop>3.8</hdop>
        <extensions>
          <osmand:heading>0</osmand:heading>
        </extensions>
      </trkpt>
      <trkpt lat="48.0089476" lon="0.1962072">
        <ele>104.4</ele>
        <time>2023-04-07T13:36:45Z</time>
        <hdop>3.8</hdop>
        <extensions>
          <osmand:bearing>259,9</osmand:bearing>
          <osmand:speed>1</osmand:speed>
          <osmand:heading>0</osmand:heading>
        </extensions>
      </trkpt>
      <trkpt lat="48.0089641" lon="0.1961385">
        <ele>104.3</ele>
        <time>2023-04-07T13:36:50Z</time>
        <hdop>3.8</hdop>
        <extensions>
          <osmand:bearing>309,2</osmand:bearing>
          <osmand:speed>0.8</osmand:speed>
          <osmand:heading>0</osmand:heading>
        </extensions>
      </trkpt>
      <trkpt lat="48.0089956" lon="0.1960869">
        <ele>103.1</ele>
        <time>2023-04-07T13:36:56Z</time>
        <hdop>3.8</hdop>
        <extensions>
          <osmand:bearing>310,8</osmand:bearing>
          <osmand:speed>0.8</osmand:speed>
          <osmand:heading>0</osmand:heading>
        </extensions>
      </trkpt>
      <trkpt lat="48.0090307" lon="0.1960284">
        <ele>102.6</ele>
        <time>2023-04-07T13:37:02Z</time>
        <hdop>3.8</hdop>
        <extensions>
          <osmand:bearing>321,0</osmand:bearing>
          <osmand:speed>0.9</osmand:speed>
          <osmand:heading>0</osmand:heading>
        </extensions>
      </trkpt>
      <trkpt lat="48.009064" lon="0.1959874">
        <ele>102.8</ele>
        <time>2023-04-07T13:37:07Z</time>
        <hdop>3.8</hdop>
        <extensions>
          <osmand:bearing>319,2</osmand:bearing>
          <osmand:speed>0.8</osmand:speed>
          <osmand:heading>0</osmand:heading>
        </extensions>
      </trkpt>
      <trkpt lat="48.0090892" lon="0.1959342">
        <ele>100.6</ele>
        <time>2023-04-07T13:37:13Z</time>
        <hdop>3.8</hdop>
        <extensions>
          <osmand:bearing>306,5</osmand:bearing>
          <osmand:speed>0.6</osmand:speed>
          <osmand:heading>0</osmand:heading>
        </extensions>
      </trkpt>
      <trkpt lat="48.0091001" lon="0.1958947">
        <ele>99.4</ele>
        <time>2023-04-07T13:37:18Z</time>
        <hdop>3.8</hdop>
        <extensions>
          <osmand:bearing>307,3</osmand:bearing>
          <osmand:speed>0.7</osmand:speed>
          <osmand:heading>0</osmand:heading>
        </extensions>
      </trkpt>
      <trkpt lat="48.0091193" lon="0.1958597">
        <ele>96.6</ele>
        <time>2023-04-07T13:37:23Z</time>
        <hdop>3.8</hdop>
        <extensions>
          <osmand:bearing>304,3</osmand:bearing>
          <osmand:speed>0.6</osmand:speed>
          <osmand:heading>0</osmand:heading>
        </extensions>
      </trkpt>
      <trkpt lat="48.0091393" lon="0.1958216">
        <ele>94.3</ele>
        <time>2023-04-07T13:37:28Z</time>
        <hdop>3.8</hdop>
        <extensions>
          <osmand:bearing>306,0</osmand:bearing>
          <osmand:speed>1</osmand:speed>
          <osmand:heading>0</osmand:heading>
        </extensions>
      </trkpt>
      <trkpt lat="48.0091692" lon="0.1957352">
        <ele>92</ele>
        <time>2023-04-07T13:37:34Z</time>
        <hdop>9.9</hdop>
        <extensions>
          <osmand:bearing>289,2</osmand:bearing>
          <osmand:speed>1.4</osmand:speed>
          <osmand:heading>0</osmand:heading>
        </extensions>
      </trkpt>
      <trkpt lat="48.0091586" lon="0.1956406">
        <ele>92.1</ele>
        <time>2023-04-07T13:37:40Z</time>
        <hdop>9.9</hdop>
        <extensions>
          <osmand:bearing>240,0</osmand:bearing>
          <osmand:speed>1.3</osmand:speed>
          <osmand:heading>0</osmand:heading>
        </extensions>
      </trkpt>
      <trkpt lat="48.0091033" lon="0.1955574">
        <ele>93.4</ele>
        <time>2023-04-07T13:37:46Z</time>
        <hdop>9.9</hdop>
        <extensions>
          <osmand:bearing>219,0</osmand:bearing>
          <osmand:speed>1.4</osmand:speed>
          <osmand:heading>0</osmand:heading>
        </extensions>
      </trkpt>
      <trkpt lat="48.0090376" lon="0.1954862">
        <ele>94.8</ele>
        <time>2023-04-07T13:37:52Z</time>
        <hdop>9.9</hdop>
        <extensions>
          <osmand:bearing>219,9</osmand:bearing>
          <osmand:speed>1.4</osmand:speed>
          <osmand:heading>0</osmand:heading>
        </extensions>
      </trkpt>
      <trkpt lat="48.0089822" lon="0.1954286">
        <ele>95.8</ele>
        <time>2023-04-07T13:37:57Z</time>
        <hdop>9.9</hdop>
        <extensions>
          <osmand:bearing>217,1</osmand:bearing>
          <osmand:speed>1.3</osmand:speed>
          <osmand:heading>0</osmand:heading>
        </extensions>
      </trkpt>
      <trkpt lat="48.0089129" lon="0.195381">
        <ele>96.4</ele>
        <time>2023-04-07T13:38:03Z</time>
        <hdop>9.9</hdop>
        <extensions>
          <osmand:bearing>193,9</osmand:bearing>
          <osmand:speed>1.2</osmand:speed>
          <osmand:heading>0</osmand:heading>
        </extensions>
      </trkpt>
      <trkpt lat="48.0088658" lon="0.195391">
        <ele>96.7</ele>
        <time>2023-04-07T13:38:09Z</time>
        <hdop>9.9</hdop>
        <extensions>
          <osmand:heading>0</osmand:heading>
        </extensions>
      </trkpt>
      <trkpt lat="48.0088489" lon="0.1954032">
        <ele>97.4</ele>
        <time>2023-04-07T13:38:15Z</time>
        <hdop>9.9</hdop>
        <extensions>
          <osmand:heading>0</osmand:heading>
        </extensions>
      </trkpt>
      <trkpt lat="48.0088485" lon="0.1954021">
        <ele>97.5</ele>
        <time>2023-04-07T13:38:20Z</time>
        <hdop>9.9</hdop>
        <extensions>
          <osmand:heading>0</osmand:heading>
        </extensions>
      </trkpt>
      <trkpt lat="48.008848" lon="0.1954019">
        <ele>97.5</ele>
        <time>2023-04-07T13:38:26Z</time>
        <hdop>9.9</hdop>
        <extensions>
          <osmand:heading>0</osmand:heading>
        </extensions>
      </trkpt>
      <trkpt lat="48.0088418" lon="0.195366">
        <ele>97.2</ele>
        <time>2023-04-07T13:38:32Z</time>
        <hdop>9.9</hdop>
        <extensions>
          <osmand:bearing>255,7</osmand:bearing>
          <osmand:speed>0.9</osmand:speed>
          <osmand:heading>0</osmand:heading>
        </extensions>
      </trkpt>
      <trkpt lat="48.008801" lon="0.1952896">
        <ele>97.1</ele>
        <time>2023-04-07T13:38:38Z</time>
        <hdop>9.9</hdop>
        <extensions>
          <osmand:bearing>216,4</osmand:bearing>
          <osmand:speed>1.2</osmand:speed>
          <osmand:heading>0</osmand:heading>
        </extensions>
      </trkpt>
      <trkpt lat="48.0087492" lon="0.1952452">
        <ele>96.6</ele>
        <time>2023-04-07T13:38:43Z</time>
        <hdop>9.9</hdop>
        <extensions>
          <osmand:bearing>213,6</osmand:bearing>
          <osmand:speed>1.2</osmand:speed>
          <osmand:heading>0</osmand:heading>
        </extensions>
      </trkpt>
      <trkpt lat="48.008699" lon="0.1951742">
        <ele>96.8</ele>
        <time>2023-04-07T13:38:49Z</time>
        <hdop>9.9</hdop>
        <extensions>
          <osmand:bearing>222,7</osmand:bearing>
          <osmand:speed>1.3</osmand:speed>
          <osmand:heading>0</osmand:heading>
        </extensions>
      </trkpt>
      <trkpt lat="48.0086445" lon="0.195109">
        <ele>96.2</ele>
        <time>2023-04-07T13:38:55Z</time>
        <hdop>9.9</hdop>
        <extensions>
          <osmand:bearing>222,7</osmand:bearing>
          <osmand:speed>1.2</osmand:speed>
          <osmand:heading>0</osmand:heading>
        </extensions>
      </trkpt>
      <trkpt lat="48.0086043" lon="0.1950771">
        <ele>95.8</ele>
        <time>2023-04-07T13:39:00Z</time>
        <hdop>9.9</hdop>
        <extensions>
          <osmand:bearing>186,7</osmand:bearing>
          <osmand:speed>0.7</osmand:speed>
          <osmand:heading>0</osmand:heading>
        </extensions>
      </trkpt>
      <trkpt lat="48.0085937" lon="0.1950938">
        <ele>95.7</ele>
        <time>2023-04-07T13:39:05Z</time>
        <hdop>9.9</hdop>
        <extensions>
          <osmand:heading>0</osmand:heading>
        </extensions>
      </trkpt>
      <trkpt lat="48.0085787" lon="0.1951113">
        <ele>95.7</ele>
        <time>2023-04-07T13:39:11Z</time>
        <hdop>9.9</hdop>
        <extensions>
          <osmand:heading>0</osmand:heading>
        </extensions>
      </trkpt>
      <trkpt lat="48.0085801" lon="0.1951117">
        <ele>95.4</ele>
        <time>2023-04-07T13:39:16Z</time>
        <hdop>9.9</hdop>
        <extensions>
          <osmand:heading>0</osmand:heading>
        </extensions>
      </trkpt>
      <trkpt lat="48.0085807" lon="0.1951116">
        <ele>95.4</ele>
        <time>2023-04-07T13:39:22Z</time>
        <hdop>9.9</hdop>
        <extensions>
          <osmand:heading>0</osmand:heading>
        </extensions>
      </trkpt>
      <trkpt lat="48.0085768" lon="0.1951192">
        <ele>95.1</ele>
        <time>2023-04-07T13:39:28Z</time>
        <hdop>9.9</hdop>
        <extensions>
          <osmand:bearing>131,4</osmand:bearing>
          <osmand:speed>0.9</osmand:speed>
          <osmand:heading>0</osmand:heading>
        </extensions>
      </trkpt>
      <trkpt lat="48.0085775" lon="0.1951324">
        <ele>94.9</ele>
        <time>2023-04-07T13:39:33Z</time>
        <hdop>9.9</hdop>
        <extensions>
          <osmand:heading>0</osmand:heading>
        </extensions>
      </trkpt>
      <trkpt lat="48.0085775" lon="0.1951336">
        <ele>95.1</ele>
        <time>2023-04-07T13:39:38Z</time>
        <hdop>9.9</hdop>
        <extensions>
          <osmand:heading>0</osmand:heading>
        </extensions>
      </trkpt>
      <trkpt lat="48.0085776" lon="0.1951347">
        <ele>95.2</ele>
        <time>2023-04-07T13:39:44Z</time>
        <hdop>9.9</hdop>
        <extensions>
          <osmand:heading>0</osmand:heading>
        </extensions>
      </trkpt>
      <trkpt lat="48.0085776" lon="0.1951347">
        <ele>95.2</ele>
        <time>2023-04-07T13:39:49Z</time>
        <hdop>9.9</hdop>
        <extensions>
          <osmand:heading>0</osmand:heading>
        </extensions>
      </trkpt>
      <trkpt lat="48.0085776" lon="0.1951347">
        <ele>95.2</ele>
        <time>2023-04-07T13:39:55Z</time>
        <hdop>9.9</hdop>
        <extensions>
          <osmand:heading>0</osmand:heading>
        </extensions>
      </trkpt>
      <trkpt lat="48.0085776" lon="0.1951347">
        <ele>95.2</ele>
        <time>2023-04-07T13:40:00Z</time>
        <hdop>9.9</hdop>
        <extensions>
          <osmand:heading>0</osmand:heading>
        </extensions>
      </trkpt>
      <trkpt lat="48.0085775" lon="0.1951347">
        <ele>95.2</ele>
        <time>2023-04-07T13:40:05Z</time>
        <hdop>9.9</hdop>
        <extensions>
          <osmand:heading>0</osmand:heading>
        </extensions>
      </trkpt>
      <trkpt lat="48.0085775" lon="0.1951346">
        <ele>95.2</ele>
        <time>2023-04-07T13:40:11Z</time>
        <hdop>9.9</hdop>
        <extensions>
          <osmand:heading>0</osmand:heading>
        </extensions>
      </trkpt>
      <trkpt lat="48.0085775" lon="0.1951346">
        <ele>95.2</ele>
        <time>2023-04-07T13:40:17Z</time>
        <hdop>9.9</hdop>
        <extensions>
          <osmand:heading>0</osmand:heading>
        </extensions>
      </trkpt>
      <trkpt lat="48.0085775" lon="0.1951346">
        <ele>95.2</ele>
        <time>2023-04-07T13:40:23Z</time>
        <hdop>9.9</hdop>
        <extensions>
          <osmand:heading>0</osmand:heading>
        </extensions>
      </trkpt>
      <trkpt lat="48.0085775" lon="0.1951347">
        <ele>95.2</ele>
        <time>2023-04-07T13:40:29Z</time>
        <hdop>9.9</hdop>
        <extensions>
          <osmand:heading>0</osmand:heading>
        </extensions>
      </trkpt>
      <trkpt lat="48.008573" lon="0.1951395">
        <ele>95.3</ele>
        <time>2023-04-07T13:40:35Z</time>
        <hdop>9.9</hdop>
        <extensions>
          <osmand:bearing>173,9</osmand:bearing>
          <osmand:speed>0.4</osmand:speed>
          <osmand:heading>0</osmand:heading>
        </extensions>
      </trkpt>
      <trkpt lat="48.0085635" lon="0.1950698">
        <ele>95.4</ele>
        <time>2023-04-07T13:40:41Z</time>
        <hdop>9.9</hdop>
        <extensions>
          <osmand:bearing>231,0</osmand:bearing>
          <osmand:speed>1.3</osmand:speed>
          <osmand:heading>0</osmand:heading>
        </extensions>
      </trkpt>
      <trkpt lat="48.0085251" lon="0.1950079">
        <ele>95</ele>
        <time>2023-04-07T13:40:47Z</time>
        <hdop>9.9</hdop>
        <extensions>
          <osmand:bearing>189,2</osmand:bearing>
          <osmand:speed>0.7</osmand:speed>
          <osmand:heading>0</osmand:heading>
        </extensions>
      </trkpt>
      <trkpt lat="48.0085107" lon="0.195026">
        <ele>95</ele>
        <time>2023-04-07T13:40:53Z</time>
        <hdop>9.9</hdop>
        <extensions>
          <osmand:heading>0</osmand:heading>
        </extensions>
      </trkpt>
      <trkpt lat="48.008508" lon="0.1950299">
        <ele>95</ele>
        <time>2023-04-07T13:40:59Z</time>
        <hdop>9.9</hdop>
        <extensions>
          <osmand:heading>0</osmand:heading>
        </extensions>
      </trkpt>
      <trkpt lat="48.008508" lon="0.1950298">
        <ele>95</ele>
        <time>2023-04-07T13:41:05Z</time>
        <hdop>9.9</hdop>
        <extensions>
          <osmand:heading>0</osmand:heading>
        </extensions>
      </trkpt>
      <trkpt lat="48.0085079" lon="0.1950297">
        <ele>95</ele>
        <time>2023-04-07T13:41:11Z</time>
        <hdop>9.9</hdop>
        <extensions>
          <osmand:heading>0</osmand:heading>
        </extensions>
      </trkpt>
      <trkpt lat="48.008509" lon="0.1950213">
        <ele>94.7</ele>
        <time>2023-04-07T13:41:16Z</time>
        <hdop>9.9</hdop>
        <extensions>
          <osmand:bearing>293,1</osmand:bearing>
          <osmand:speed>0.4</osmand:speed>
          <osmand:heading>0</osmand:heading>
        </extensions>
      </trkpt>
      <trkpt lat="48.0084986" lon="0.1949646">
        <ele>93.5</ele>
        <time>2023-04-07T13:41:21Z</time>
        <hdop>9.9</hdop>
        <extensions>
          <osmand:bearing>226,6</osmand:bearing>
          <osmand:speed>1.1</osmand:speed>
          <osmand:heading>0</osmand:heading>
        </extensions>
      </trkpt>
      <trkpt lat="48.0084432" lon="0.19491">
        <ele>93.7</ele>
        <time>2023-04-07T13:41:27Z</time>
        <hdop>9.9</hdop>
        <extensions>
          <osmand:bearing>206,9</osmand:bearing>
          <osmand:speed>1.2</osmand:speed>
          <osmand:heading>0</osmand:heading>
        </extensions>
      </trkpt>
      <trkpt lat="48.0083915" lon="0.194864">
        <ele>92.8</ele>
        <time>2023-04-07T13:41:33Z</time>
        <hdop>9.9</hdop>
        <extensions>
          <osmand:bearing>202,9</osmand:bearing>
          <osmand:speed>1.2</osmand:speed>
          <osmand:heading>0</osmand:heading>
        </extensions>
      </trkpt>
      <trkpt lat="48.0083499" lon="0.1948132">
        <ele>92.1</ele>
        <time>2023-04-07T13:41:38Z</time>
        <hdop>9.9</hdop>
        <extensions>
          <osmand:bearing>229,0</osmand:bearing>
          <osmand:speed>1.2</osmand:speed>
          <osmand:heading>0</osmand:heading>
        </extensions>
      </trkpt>
      <trkpt lat="48.0083028" lon="0.1947359">
        <ele>92.4</ele>
        <time>2023-04-07T13:41:44Z</time>
        <hdop>9.9</hdop>
        <extensions>
          <osmand:bearing>217,4</osmand:bearing>
          <osmand:speed>1.3</osmand:speed>
          <osmand:heading>0</osmand:heading>
        </extensions>
      </trkpt>
      <trkpt lat="48.0082511" lon="0.194687">
        <ele>92.5</ele>
        <time>2023-04-07T13:41:49Z</time>
        <hdop>9.9</hdop>
        <extensions>
          <osmand:bearing>213,7</osmand:bearing>
          <osmand:speed>1.4</osmand:speed>
          <osmand:heading>0</osmand:heading>
        </extensions>
      </trkpt>
      <trkpt lat="48.0081959" lon="0.1946143">
        <ele>92.7</ele>
        <time>2023-04-07T13:41:55Z</time>
        <hdop>9.9</hdop>
        <extensions>
          <osmand:bearing>219,3</osmand:bearing>
          <osmand:speed>1.3</osmand:speed>
          <osmand:heading>0</osmand:heading>
        </extensions>
      </trkpt>
      <trkpt lat="48.008144" lon="0.1945343">
        <ele>94.1</ele>
        <time>2023-04-07T13:42:01Z</time>
        <hdop>9.9</hdop>
        <extensions>
          <osmand:bearing>219,5</osmand:bearing>
          <osmand:speed>1.3</osmand:speed>
          <osmand:heading>0</osmand:heading>
        </extensions>
      </trkpt>
      <trkpt lat="48.0080974" lon="0.1944739">
        <ele>94.9</ele>
        <time>2023-04-07T13:42:06Z</time>
        <hdop>9.9</hdop>
        <extensions>
          <osmand:bearing>222,5</osmand:bearing>
          <osmand:speed>1.3</osmand:speed>
          <osmand:heading>0</osmand:heading>
        </extensions>
      </trkpt>
      <trkpt lat="48.0080672" lon="0.1944586">
        <ele>92.7</ele>
        <time>2023-04-07T13:42:12Z</time>
        <hdop>9.9</hdop>
        <extensions>
          <osmand:bearing>217,2</osmand:bearing>
          <osmand:speed>0.8</osmand:speed>
          <osmand:heading>0</osmand:heading>
        </extensions>
      </trkpt>
      <trkpt lat="48.0080473" lon="0.1944893">
        <ele>92.7</ele>
        <time>2023-04-07T13:42:17Z</time>
        <hdop>9.9</hdop>
        <extensions>
          <osmand:heading>0</osmand:heading>
        </extensions>
      </trkpt>
      <trkpt lat="48.0080447" lon="0.1944951">
        <ele>92.6</ele>
        <time>2023-04-07T13:42:23Z</time>
        <hdop>9.9</hdop>
        <extensions>
          <osmand:heading>0</osmand:heading>
        </extensions>
      </trkpt>
      <trkpt lat="48.0080446" lon="0.1944952">
        <ele>92.6</ele>
        <time>2023-04-07T13:42:29Z</time>
        <hdop>9.9</hdop>
        <extensions>
          <osmand:heading>0</osmand:heading>
        </extensions>
      </trkpt>
      <trkpt lat="48.0080421" lon="0.1944876">
        <ele>92.8</ele>
        <time>2023-04-07T13:42:35Z</time>
        <hdop>9.9</hdop>
        <extensions>
          <osmand:bearing>207,1</osmand:bearing>
          <osmand:speed>1</osmand:speed>
          <osmand:heading>0</osmand:heading>
        </extensions>
      </trkpt>
      <trkpt lat="48.0080144" lon="0.1944075">
        <ele>92.3</ele>
        <time>2023-04-07T13:42:40Z</time>
        <hdop>9.9</hdop>
        <extensions>
          <osmand:bearing>222,9</osmand:bearing>
          <osmand:speed>1.2</osmand:speed>
          <osmand:heading>0</osmand:heading>
        </extensions>
      </trkpt>
      <trkpt lat="48.0079563" lon="0.1943867">
        <ele>93.9</ele>
        <time>2023-04-07T13:42:46Z</time>
        <hdop>9.9</hdop>
        <extensions>
          <osmand:bearing>163,3</osmand:bearing>
          <osmand:speed>0.4</osmand:speed>
          <osmand:heading>0</osmand:heading>
        </extensions>
      </trkpt>
      <trkpt lat="48.0079426" lon="0.1943896">
        <ele>93.7</ele>
        <time>2023-04-07T13:42:52Z</time>
        <hdop>9.9</hdop>
        <extensions>
          <osmand:bearing>158,8</osmand:bearing>
          <osmand:speed>0.5</osmand:speed>
          <osmand:heading>0</osmand:heading>
        </extensions>
      </trkpt>
      <trkpt lat="48.0079075" lon="0.1943677">
        <ele>93.8</ele>
        <time>2023-04-07T13:42:58Z</time>
        <hdop>9.9</hdop>
        <extensions>
          <osmand:bearing>211,5</osmand:bearing>
          <osmand:speed>0.7</osmand:speed>
          <osmand:heading>0</osmand:heading>
        </extensions>
      </trkpt>
      <trkpt lat="48.0078821" lon="0.1943541">
        <ele>95.6</ele>
        <time>2023-04-07T13:43:04Z</time>
        <hdop>9.9</hdop>
        <extensions>
          <osmand:heading>0</osmand:heading>
        </extensions>
      </trkpt>
      <trkpt lat="48.0078804" lon="0.1943547">
        <ele>95.6</ele>
        <time>2023-04-07T13:43:10Z</time>
        <hdop>9.9</hdop>
        <extensions>
          <osmand:heading>0</osmand:heading>
        </extensions>
      </trkpt>
      <trkpt lat="48.0078798" lon="0.1943551">
        <ele>95.6</ele>
        <time>2023-04-07T13:43:16Z</time>
        <hdop>9.9</hdop>
        <extensions>
          <osmand:heading>0</osmand:heading>
        </extensions>
      </trkpt>
      <trkpt lat="48.0078795" lon="0.1943554">
        <ele>95.7</ele>
        <time>2023-04-07T13:43:22Z</time>
        <hdop>9.9</hdop>
        <extensions>
          <osmand:heading>0</osmand:heading>
        </extensions>
      </trkpt>
      <trkpt lat="48.0078828" lon="0.1943611">
        <ele>95.3</ele>
        <time>2023-04-07T13:43:28Z</time>
        <hdop>9.9</hdop>
        <extensions>
          <osmand:heading>0</osmand:heading>
        </extensions>
      </trkpt>
      <trkpt lat="48.007886" lon="0.1943643">
        <ele>95.2</ele>
        <time>2023-04-07T13:43:34Z</time>
        <hdop>9.9</hdop>
        <extensions>
          <osmand:heading>0</osmand:heading>
        </extensions>
      </trkpt>
      <trkpt lat="48.00789" lon="0.1943644">
        <ele>95.5</ele>
        <time>2023-04-07T13:43:39Z</time>
        <hdop>9.9</hdop>
        <extensions>
          <osmand:heading>0</osmand:heading>
        </extensions>
      </trkpt>
      <trkpt lat="48.0078929" lon="0.1943632">
        <ele>95.6</ele>
        <time>2023-04-07T13:43:45Z</time>
        <hdop>9.9</hdop>
        <extensions>
          <osmand:heading>0</osmand:heading>
        </extensions>
      </trkpt>
      <trkpt lat="48.0078936" lon="0.1943627">
        <ele>95.6</ele>
        <time>2023-04-07T13:43:51Z</time>
        <hdop>9.9</hdop>
        <extensions>
          <osmand:heading>0</osmand:heading>
        </extensions>
      </trkpt>
      <trkpt lat="48.007894" lon="0.1943624">
        <ele>95.6</ele>
        <time>2023-04-07T13:43:56Z</time>
        <hdop>9.9</hdop>
        <extensions>
          <osmand:heading>0</osmand:heading>
        </extensions>
      </trkpt>
      <trkpt lat="48.0078947" lon="0.194362">
        <ele>95.6</ele>
        <time>2023-04-07T13:44:02Z</time>
        <hdop>9.9</hdop>
        <extensions>
          <osmand:heading>0</osmand:heading>
        </extensions>
      </trkpt>
      <trkpt lat="48.0078989" lon="0.1943639">
        <ele>95.2</ele>
        <time>2023-04-07T13:44:07Z</time>
        <hdop>9.9</hdop>
        <extensions>
          <osmand:bearing>19,7</osmand:bearing>
          <osmand:speed>0.5</osmand:speed>
          <osmand:heading>0</osmand:heading>
        </extensions>
      </trkpt>
      <trkpt lat="48.0079246" lon="0.1943775">
        <ele>95.6</ele>
        <time>2023-04-07T13:44:13Z</time>
        <hdop>9.9</hdop>
        <extensions>
          <osmand:heading>0</osmand:heading>
        </extensions>
      </trkpt>
      <trkpt lat="48.0079267" lon="0.1943776">
        <ele>95.7</ele>
        <time>2023-04-07T13:44:19Z</time>
        <hdop>9.9</hdop>
        <extensions>
          <osmand:heading>0</osmand:heading>
        </extensions>
      </trkpt>
      <trkpt lat="48.0079274" lon="0.1943775">
        <ele>95.7</ele>
        <time>2023-04-07T13:44:24Z</time>
        <hdop>9.9</hdop>
        <extensions>
          <osmand:heading>0</osmand:heading>
        </extensions>
      </trkpt>
      <trkpt lat="48.0079276" lon="0.1943773">
        <ele>95.8</ele>
        <time>2023-04-07T13:44:30Z</time>
        <hdop>9.9</hdop>
        <extensions>
          <osmand:heading>0</osmand:heading>
        </extensions>
      </trkpt>
      <trkpt lat="48.0079279" lon="0.1943772">
        <ele>95.8</ele>
        <time>2023-04-07T13:44:36Z</time>
        <hdop>9.9</hdop>
        <extensions>
          <osmand:heading>0</osmand:heading>
        </extensions>
      </trkpt>
      <trkpt lat="48.0079234" lon="0.1943546">
        <ele>95.6</ele>
        <time>2023-04-07T13:44:42Z</time>
        <hdop>9.9</hdop>
        <extensions>
          <osmand:bearing>260,3</osmand:bearing>
          <osmand:speed>0.7</osmand:speed>
          <osmand:heading>0</osmand:heading>
        </extensions>
      </trkpt>
      <trkpt lat="48.0079113" lon="0.1942572">
        <ele>94.6</ele>
        <time>2023-04-07T13:44:48Z</time>
        <hdop>9.9</hdop>
        <extensions>
          <osmand:bearing>235,4</osmand:bearing>
          <osmand:speed>1.4</osmand:speed>
          <osmand:heading>0</osmand:heading>
        </extensions>
      </trkpt>
      <trkpt lat="48.0078586" lon="0.194171">
        <ele>92.7</ele>
        <time>2023-04-07T13:44:54Z</time>
        <hdop>9.9</hdop>
        <extensions>
          <osmand:bearing>232,0</osmand:bearing>
          <osmand:speed>0.9</osmand:speed>
          <osmand:heading>0</osmand:heading>
        </extensions>
      </trkpt>
      <trkpt lat="48.0078174" lon="0.1941063">
        <ele>92.9</ele>
        <time>2023-04-07T13:44:59Z</time>
        <hdop>9.9</hdop>
        <extensions>
          <osmand:bearing>226,6</osmand:bearing>
          <osmand:speed>1.1</osmand:speed>
          <osmand:heading>0</osmand:heading>
        </extensions>
      </trkpt>
      <trkpt lat="48.0077725" lon="0.1940532">
        <ele>93.9</ele>
        <time>2023-04-07T13:45:05Z</time>
        <hdop>9.9</hdop>
        <extensions>
          <osmand:bearing>213,5</osmand:bearing>
          <osmand:speed>1</osmand:speed>
          <osmand:heading>0</osmand:heading>
        </extensions>
      </trkpt>
      <trkpt lat="48.0077469" lon="0.1940216">
        <ele>93.6</ele>
        <time>2023-04-07T13:45:11Z</time>
        <hdop>9.9</hdop>
        <extensions>
          <osmand:heading>0</osmand:heading>
        </extensions>
      </trkpt>
      <trkpt lat="48.0077075" lon="0.193979">
        <ele>93.6</ele>
        <time>2023-04-07T13:45:17Z</time>
        <hdop>9.9</hdop>
        <extensions>
          <osmand:bearing>216,6</osmand:bearing>
          <osmand:speed>1.5</osmand:speed>
          <osmand:heading>0</osmand:heading>
        </extensions>
      </trkpt>
      <trkpt lat="48.0076493" lon="0.1939222">
        <ele>94.4</ele>
        <time>2023-04-07T13:45:22Z</time>
        <hdop>9.9</hdop>
        <extensions>
          <osmand:bearing>208,7</osmand:bearing>
          <osmand:speed>1.5</osmand:speed>
          <osmand:heading>0</osmand:heading>
        </extensions>
      </trkpt>
      <trkpt lat="48.007582" lon="0.1938593">
        <ele>94.7</ele>
        <time>2023-04-07T13:45:28Z</time>
        <hdop>9.9</hdop>
        <extensions>
          <osmand:bearing>212,6</osmand:bearing>
          <osmand:speed>1.4</osmand:speed>
          <osmand:heading>0</osmand:heading>
        </extensions>
      </trkpt>
      <trkpt lat="48.007528" lon="0.1938124">
        <ele>95.6</ele>
        <time>2023-04-07T13:45:33Z</time>
        <hdop>9.9</hdop>
        <extensions>
          <osmand:bearing>205,8</osmand:bearing>
          <osmand:speed>1.5</osmand:speed>
          <osmand:heading>0</osmand:heading>
        </extensions>
      </trkpt>
      <trkpt lat="48.0074746" lon="0.193779">
        <ele>94.4</ele>
        <time>2023-04-07T13:45:38Z</time>
        <hdop>9.9</hdop>
        <extensions>
          <osmand:bearing>208,1</osmand:bearing>
          <osmand:speed>1.4</osmand:speed>
          <osmand:heading>0</osmand:heading>
        </extensions>
      </trkpt>
      <trkpt lat="48.0074258" lon="0.1937305">
        <ele>94.7</ele>
        <time>2023-04-07T13:45:43Z</time>
        <hdop>9.9</hdop>
        <extensions>
          <osmand:bearing>213,9</osmand:bearing>
          <osmand:speed>1.4</osmand:speed>
          <osmand:heading>0</osmand:heading>
        </extensions>
      </trkpt>
      <trkpt lat="48.0073543" lon="0.1936802">
        <ele>95.3</ele>
        <time>2023-04-07T13:45:49Z</time>
        <hdop>9.9</hdop>
        <extensions>
          <osmand:bearing>208,2</osmand:bearing>
          <osmand:speed>1.4</osmand:speed>
          <osmand:heading>0</osmand:heading>
        </extensions>
      </trkpt>
      <trkpt lat="48.0072944" lon="0.193642">
        <ele>95.6</ele>
        <time>2023-04-07T13:45:54Z</time>
        <hdop>9.9</hdop>
        <extensions>
          <osmand:bearing>208,1</osmand:bearing>
          <osmand:speed>1.2</osmand:speed>
          <osmand:heading>0</osmand:heading>
        </extensions>
      </trkpt>
      <trkpt lat="48.0072895" lon="0.193667">
        <ele>94.9</ele>
        <time>2023-04-07T13:46:00Z</time>
        <hdop>9.9</hdop>
        <extensions>
          <osmand:heading>0</osmand:heading>
        </extensions>
      </trkpt>
      <trkpt lat="48.0072898" lon="0.1936711">
        <ele>95.1</ele>
        <time>2023-04-07T13:46:06Z</time>
        <hdop>9.9</hdop>
        <extensions>
          <osmand:heading>0</osmand:heading>
        </extensions>
      </trkpt>
      <trkpt lat="48.0072897" lon="0.1936718">
        <ele>95.1</ele>
        <time>2023-04-07T13:46:12Z</time>
        <hdop>9.9</hdop>
        <extensions>
          <osmand:heading>0</osmand:heading>
        </extensions>
      </trkpt>
      <trkpt lat="48.0072419" lon="0.1936468">
        <ele>94.3</ele>
        <time>2023-04-07T13:46:18Z</time>
        <hdop>9.9</hdop>
        <extensions>
          <osmand:bearing>201,7</osmand:bearing>
          <osmand:speed>0.7</osmand:speed>
          <osmand:heading>0</osmand:heading>
        </extensions>
      </trkpt>
      <trkpt lat="48.0071905" lon="0.1936158">
        <ele>93.2</ele>
        <time>2023-04-07T13:46:23Z</time>
        <hdop>9.9</hdop>
        <extensions>
          <osmand:bearing>203,5</osmand:bearing>
          <osmand:speed>1.1</osmand:speed>
          <osmand:heading>0</osmand:heading>
        </extensions>
      </trkpt>
      <trkpt lat="48.0071622" lon="0.193583">
        <ele>92.7</ele>
        <time>2023-04-07T13:46:29Z</time>
        <hdop>9.9</hdop>
        <extensions>
          <osmand:bearing>300,5</osmand:bearing>
          <osmand:speed>0.6</osmand:speed>
          <osmand:heading>0</osmand:heading>
        </extensions>
      </trkpt>
      <trkpt lat="48.0071584" lon="0.1935708">
        <ele>92.3</ele>
        <time>2023-04-07T13:46:35Z</time>
        <hdop>9.9</hdop>
        <extensions>
          <osmand:heading>0</osmand:heading>
        </extensions>
      </trkpt>
      <trkpt lat="48.0071551" lon="0.1935635">
        <ele>92.1</ele>
        <time>2023-04-07T13:46:40Z</time>
        <hdop>9.9</hdop>
        <extensions>
          <osmand:bearing>285,2</osmand:bearing>
          <osmand:speed>0.4</osmand:speed>
          <osmand:heading>0</osmand:heading>
        </extensions>
      </trkpt>
      <trkpt lat="48.0071385" lon="0.1935561">
        <ele>92.8</ele>
        <time>2023-04-07T13:46:46Z</time>
        <hdop>9.9</hdop>
        <extensions>
          <osmand:heading>0</osmand:heading>
        </extensions>
      </trkpt>
      <trkpt lat="48.0071378" lon="0.1935564">
        <ele>92.8</ele>
        <time>2023-04-07T13:46:51Z</time>
        <hdop>9.9</hdop>
        <extensions>
          <osmand:heading>0</osmand:heading>
        </extensions>
      </trkpt>
      <trkpt lat="48.0071337" lon="0.1935478">
        <ele>92.7</ele>
        <time>2023-04-07T13:46:57Z</time>
        <hdop>9.9</hdop>
        <extensions>
          <osmand:heading>0</osmand:heading>
        </extensions>
      </trkpt>
      <trkpt lat="48.0071359" lon="0.1935508">
        <ele>92.2</ele>
        <time>2023-04-07T13:47:03Z</time>
        <hdop>9.9</hdop>
        <extensions>
          <osmand:heading>0</osmand:heading>
        </extensions>
      </trkpt>
      <trkpt lat="48.007148" lon="0.1936006">
        <ele>91.3</ele>
        <time>2023-04-07T13:47:08Z</time>
        <hdop>9.9</hdop>
        <extensions>
          <osmand:heading>0</osmand:heading>
        </extensions>
      </trkpt>
      <trkpt lat="48.0071486" lon="0.1936108">
        <ele>91.4</ele>
        <time>2023-04-07T13:47:13Z</time>
        <hdop>9.9</hdop>
        <extensions>
          <osmand:heading>0</osmand:heading>
        </extensions>
      </trkpt>
      <trkpt lat="48.0071484" lon="0.1936123">
        <ele>91.4</ele>
        <time>2023-04-07T13:47:19Z</time>
        <hdop>9.9</hdop>
        <extensions>
          <osmand:heading>0</osmand:heading>
        </extensions>
      </trkpt>
      <trkpt lat="48.0071126" lon="0.1935933">
        <ele>90.5</ele>
        <time>2023-04-07T13:47:25Z</time>
        <hdop>9.9</hdop>
        <extensions>
          <osmand:bearing>193,8</osmand:bearing>
          <osmand:speed>1.1</osmand:speed>
          <osmand:heading>0</osmand:heading>
        </extensions>
      </trkpt>
      <trkpt lat="48.0070482" lon="0.1935508">
        <ele>90.1</ele>
        <time>2023-04-07T13:47:31Z</time>
        <hdop>9.9</hdop>
        <extensions>
          <osmand:bearing>193,3</osmand:bearing>
          <osmand:speed>1.2</osmand:speed>
          <osmand:heading>0</osmand:heading>
        </extensions>
      </trkpt>
      <trkpt lat="48.0069863" lon="0.1935089">
        <ele>88.1</ele>
        <time>2023-04-07T13:47:37Z</time>
        <hdop>9.9</hdop>
        <extensions>
          <osmand:bearing>196,2</osmand:bearing>
          <osmand:speed>1</osmand:speed>
          <osmand:heading>0</osmand:heading>
        </extensions>
      </trkpt>
      <trkpt lat="48.0069471" lon="0.1934999">
        <ele>88.1</ele>
        <time>2023-04-07T13:47:42Z</time>
        <hdop>13</hdop>
        <extensions>
          <osmand:bearing>194,1</osmand:bearing>
          <osmand:speed>0.6</osmand:speed>
          <osmand:heading>0</osmand:heading>
        </extensions>
      </trkpt>
      <trkpt lat="48.0069456" lon="0.1934902">
        <ele>87.3</ele>
        <time>2023-04-07T13:47:48Z</time>
        <hdop>13.1</hdop>
        <extensions>
          <osmand:heading>0</osmand:heading>
        </extensions>
      </trkpt>
      <trkpt lat="48.0069463" lon="0.1934976">
        <ele>87.3</ele>
        <time>2023-04-07T13:47:54Z</time>
        <hdop>11.3</hdop>
        <extensions>
          <osmand:heading>0</osmand:heading>
        </extensions>
      </trkpt>
      <trkpt lat="48.0069461" lon="0.193502">
        <ele>87.3</ele>
        <time>2023-04-07T13:47:59Z</time>
        <hdop>10.9</hdop>
        <extensions>
          <osmand:heading>0</osmand:heading>
        </extensions>
      </trkpt>
      <trkpt lat="48.0069507" lon="0.1935174">
        <ele>87.4</ele>
        <time>2023-04-07T13:48:05Z</time>
        <hdop>10.5</hdop>
        <extensions>
          <osmand:heading>0</osmand:heading>
        </extensions>
      </trkpt>
      <trkpt lat="48.0069551" lon="0.1935269">
        <ele>87.5</ele>
        <time>2023-04-07T13:48:10Z</time>
        <hdop>10.2</hdop>
        <extensions>
          <osmand:bearing>247,1</osmand:bearing>
          <osmand:speed>0.2</osmand:speed>
          <osmand:heading>0</osmand:heading>
        </extensions>
      </trkpt>
      <trkpt lat="48.0069165" lon="0.1934479">
        <ele>87.4</ele>
        <time>2023-04-07T13:48:16Z</time>
        <hdop>12.6</hdop>
        <extensions>
          <osmand:bearing>223,2</osmand:bearing>
          <osmand:speed>1.6</osmand:speed>
          <osmand:heading>0</osmand:heading>
        </extensions>
      </trkpt>
      <trkpt lat="48.0068482" lon="0.1934064">
        <ele>92.5</ele>
        <time>2023-04-07T13:48:21Z</time>
        <hdop>10.3</hdop>
        <extensions>
          <osmand:bearing>194,8</osmand:bearing>
          <osmand:speed>1.2</osmand:speed>
          <osmand:heading>0</osmand:heading>
        </extensions>
      </trkpt>
      <trkpt lat="48.0067955" lon="0.1933751">
        <ele>96.2</ele>
        <time>2023-04-07T13:48:27Z</time>
        <hdop>9.9</hdop>
        <extensions>
          <osmand:bearing>185,0</osmand:bearing>
          <osmand:speed>0.3</osmand:speed>
          <osmand:heading>0</osmand:heading>
        </extensions>
      </trkpt>
      <trkpt lat="48.0067952" lon="0.1933772">
        <ele>96.1</ele>
        <time>2023-04-07T13:48:32Z</time>
        <hdop>9.9</hdop>
        <extensions>
          <osmand:heading>0</osmand:heading>
        </extensions>
      </trkpt>
      <trkpt lat="48.006784" lon="0.1933971">
        <ele>95.5</ele>
        <time>2023-04-07T13:48:38Z</time>
        <hdop>9.9</hdop>
        <extensions>
          <osmand:heading>0</osmand:heading>
        </extensions>
      </trkpt>
      <trkpt lat="48.0067846" lon="0.1933989">
        <ele>95.6</ele>
        <time>2023-04-07T13:48:43Z</time>
        <hdop>9.9</hdop>
        <extensions>
          <osmand:heading>0</osmand:heading>
        </extensions>
      </trkpt>
      <trkpt lat="48.0067845" lon="0.1933994">
        <ele>95.6</ele>
        <time>2023-04-07T13:48:49Z</time>
        <hdop>9.9</hdop>
        <extensions>
          <osmand:heading>0</osmand:heading>
        </extensions>
      </trkpt>
      <trkpt lat="48.0067844" lon="0.1933994">
        <ele>95.6</ele>
        <time>2023-04-07T13:48:55Z</time>
        <hdop>9.9</hdop>
        <extensions>
          <osmand:heading>0</osmand:heading>
        </extensions>
      </trkpt>
      <trkpt lat="48.0067841" lon="0.1933988">
        <ele>95.7</ele>
        <time>2023-04-07T13:49:01Z</time>
        <hdop>9.9</hdop>
        <extensions>
          <osmand:heading>0</osmand:heading>
        </extensions>
      </trkpt>
      <trkpt lat="48.0067738" lon="0.1933989">
        <ele>95.8</ele>
        <time>2023-04-07T13:49:07Z</time>
        <hdop>9.9</hdop>
        <extensions>
          <osmand:bearing>171,1</osmand:bearing>
          <osmand:speed>0.9</osmand:speed>
          <osmand:heading>0</osmand:heading>
        </extensions>
      </trkpt>
      <trkpt lat="48.0067327" lon="0.1933811">
        <ele>94.6</ele>
        <time>2023-04-07T13:49:13Z</time>
        <hdop>9.9</hdop>
        <extensions>
          <osmand:bearing>183,1</osmand:bearing>
          <osmand:speed>1</osmand:speed>
          <osmand:heading>0</osmand:heading>
        </extensions>
      </trkpt>
      <trkpt lat="48.0066971" lon="0.1933459">
        <ele>94.9</ele>
        <time>2023-04-07T13:49:18Z</time>
        <hdop>9.9</hdop>
        <extensions>
          <osmand:bearing>203,5</osmand:bearing>
          <osmand:speed>1.2</osmand:speed>
          <osmand:heading>0</osmand:heading>
        </extensions>
      </trkpt>
      <trkpt lat="48.0066384" lon="0.1932974">
        <ele>95.2</ele>
        <time>2023-04-07T13:49:24Z</time>
        <hdop>9.9</hdop>
        <extensions>
          <osmand:bearing>201,9</osmand:bearing>
          <osmand:speed>1.3</osmand:speed>
          <osmand:heading>0</osmand:heading>
        </extensions>
      </trkpt>
      <trkpt lat="48.0065894" lon="0.1932603">
        <ele>96.1</ele>
        <time>2023-04-07T13:49:29Z</time>
        <hdop>9.9</hdop>
        <extensions>
          <osmand:bearing>207,4</osmand:bearing>
          <osmand:speed>1.4</osmand:speed>
          <osmand:heading>0</osmand:heading>
        </extensions>
      </trkpt>
      <trkpt lat="48.0065427" lon="0.1932669">
        <ele>97.8</ele>
        <time>2023-04-07T13:49:34Z</time>
        <hdop>9.9</hdop>
        <extensions>
          <osmand:bearing>165,0</osmand:bearing>
          <osmand:speed>1.3</osmand:speed>
          <osmand:heading>0</osmand:heading>
        </extensions>
      </trkpt>
      <trkpt lat="48.0064934" lon="0.1932613">
        <ele>96.9</ele>
        <time>2023-04-07T13:49:39Z</time>
        <hdop>9.9</hdop>
        <extensions>
          <osmand:bearing>155,7</osmand:bearing>
          <osmand:speed>1.1</osmand:speed>
          <osmand:heading>0</osmand:heading>
        </extensions>
      </trkpt>
      <trkpt lat="48.0064853" lon="0.1932592">
        <ele>96.6</ele>
        <time>2023-04-07T13:49:45Z</time>
        <hdop>3.8</hdop>
        <extensions>
          <osmand:heading>0</osmand:heading>
        </extensions>
      </trkpt>
      <trkpt lat="48.0064856" lon="0.1932592">
        <ele>96.6</ele>
        <time>2023-04-07T13:49:51Z</time>
        <hdop>3.8</hdop>
        <extensions>
          <osmand:heading>0</osmand:heading>
        </extensions>
      </trkpt>
      <trkpt lat="48.0064856" lon="0.1932593">
        <ele>96.6</ele>
        <time>2023-04-07T13:49:56Z</time>
        <hdop>3.8</hdop>
        <extensions>
          <osmand:heading>0</osmand:heading>
        </extensions>
      </trkpt>
      <trkpt lat="48.0064816" lon="0.1932657">
        <ele>96.9</ele>
        <time>2023-04-07T13:50:02Z</time>
        <hdop>3.8</hdop>
        <extensions>
          <osmand:bearing>155,5</osmand:bearing>
          <osmand:speed>0.6</osmand:speed>
          <osmand:heading>0</osmand:heading>
        </extensions>
      </trkpt>
      <trkpt lat="48.0064511" lon="0.1933256">
        <ele>97.8</ele>
        <time>2023-04-07T13:50:08Z</time>
        <hdop>3.8</hdop>
        <extensions>
          <osmand:bearing>123,0</osmand:bearing>
          <osmand:speed>1.3</osmand:speed>
          <osmand:heading>0</osmand:heading>
        </extensions>
      </trkpt>
      <trkpt lat="48.0064855" lon="0.1933742">
        <ele>99</ele>
        <time>2023-04-07T13:50:14Z</time>
        <hdop>3.8</hdop>
        <extensions>
          <osmand:heading>0</osmand:heading>
        </extensions>
      </trkpt>
      <trkpt lat="48.0064931" lon="0.1933772">
        <ele>99</ele>
        <time>2023-04-07T13:50:20Z</time>
        <hdop>3.8</hdop>
        <extensions>
          <osmand:heading>0</osmand:heading>
        </extensions>
      </trkpt>
      <trkpt lat="48.0064965" lon="0.1933764">
        <ele>98.9</ele>
        <time>2023-04-07T13:50:26Z</time>
        <hdop>3.8</hdop>
        <extensions>
          <osmand:bearing>22,6</osmand:bearing>
          <osmand:speed>0.5</osmand:speed>
          <osmand:heading>0</osmand:heading>
        </extensions>
      </trkpt>
      <trkpt lat="48.0065155" lon="0.1932942">
        <ele>97.3</ele>
        <time>2023-04-07T13:50:31Z</time>
        <hdop>4.1</hdop>
        <extensions>
          <osmand:bearing>276,7</osmand:bearing>
          <osmand:speed>1.5</osmand:speed>
          <osmand:heading>0</osmand:heading>
        </extensions>
      </trkpt>
      <trkpt lat="48.0064595" lon="0.1932413">
        <ele>92.1</ele>
        <time>2023-04-07T13:50:36Z</time>
        <hdop>4.7</hdop>
        <extensions>
          <osmand:bearing>210,8</osmand:bearing>
          <osmand:speed>1.3</osmand:speed>
          <osmand:heading>0</osmand:heading>
        </extensions>
      </trkpt>
      <trkpt lat="48.0063908" lon="0.193153">
        <ele>90.2</ele>
        <time>2023-04-07T13:50:42Z</time>
        <hdop>4.2</hdop>
        <extensions>
          <osmand:bearing>251,3</osmand:bearing>
          <osmand:speed>1.5</osmand:speed>
          <osmand:heading>0</osmand:heading>
        </extensions>
      </trkpt>
      <trkpt lat="48.0063727" lon="0.1930498">
        <ele>90.6</ele>
        <time>2023-04-07T13:50:48Z</time>
        <hdop>3.8</hdop>
        <extensions>
          <osmand:bearing>241,9</osmand:bearing>
          <osmand:speed>1.3</osmand:speed>
          <osmand:heading>0</osmand:heading>
        </extensions>
      </trkpt>
      <trkpt lat="48.0063603" lon="0.1930083">
        <ele>91.7</ele>
        <time>2023-04-07T13:50:53Z</time>
        <hdop>3.8</hdop>
        <extensions>
          <osmand:bearing>268,8</osmand:bearing>
          <osmand:speed>0.7</osmand:speed>
          <osmand:heading>0</osmand:heading>
        </extensions>
      </trkpt>
      <trkpt lat="48.006415" lon="0.1929457">
        <ele>93.9</ele>
        <time>2023-04-07T13:50:59Z</time>
        <hdop>3.8</hdop>
        <extensions>
          <osmand:bearing>310,6</osmand:bearing>
          <osmand:speed>1.6</osmand:speed>
          <osmand:heading>0</osmand:heading>
        </extensions>
      </trkpt>
      <trkpt lat="48.0064723" lon="0.1928416">
        <ele>93.9</ele>
        <time>2023-04-07T13:51:05Z</time>
        <hdop>3.8</hdop>
        <extensions>
          <osmand:bearing>295,8</osmand:bearing>
          <osmand:speed>1.5</osmand:speed>
          <osmand:heading>0</osmand:heading>
        </extensions>
      </trkpt>
      <trkpt lat="48.0065191" lon="0.1927998">
        <ele>91.8</ele>
        <time>2023-04-07T13:51:11Z</time>
        <hdop>3.8</hdop>
        <extensions>
          <osmand:bearing>354,7</osmand:bearing>
          <osmand:speed>1.2</osmand:speed>
          <osmand:heading>0</osmand:heading>
        </extensions>
      </trkpt>
      <trkpt lat="48.0065876" lon="0.1927578">
        <ele>89.9</ele>
        <time>2023-04-07T13:51:17Z</time>
        <hdop>3.8</hdop>
        <extensions>
          <osmand:bearing>310,8</osmand:bearing>
          <osmand:speed>1.3</osmand:speed>
          <osmand:heading>0</osmand:heading>
        </extensions>
      </trkpt>
      <trkpt lat="48.0066434" lon="0.192672">
        <ele>89.8</ele>
        <time>2023-04-07T13:51:23Z</time>
        <hdop>3.8</hdop>
        <extensions>
          <osmand:bearing>301,4</osmand:bearing>
          <osmand:speed>1.6</osmand:speed>
          <osmand:heading>0</osmand:heading>
        </extensions>
      </trkpt>
      <trkpt lat="48.0066814" lon="0.1925774">
        <ele>90.7</ele>
        <time>2023-04-07T13:51:29Z</time>
        <hdop>3.8</hdop>
        <extensions>
          <osmand:bearing>303,0</osmand:bearing>
          <osmand:speed>1.5</osmand:speed>
          <osmand:heading>0</osmand:heading>
        </extensions>
      </trkpt>
      <trkpt lat="48.0067189" lon="0.1925007">
        <ele>90.5</ele>
        <time>2023-04-07T13:51:34Z</time>
        <hdop>3.8</hdop>
        <extensions>
          <osmand:bearing>312,8</osmand:bearing>
          <osmand:speed>1.4</osmand:speed>
          <osmand:heading>0</osmand:heading>
        </extensions>
      </trkpt>
      <trkpt lat="48.0067497" lon="0.192475">
        <ele>91.3</ele>
        <time>2023-04-07T13:51:40Z</time>
        <hdop>3.8</hdop>
        <extensions>
          <osmand:heading>0</osmand:heading>
        </extensions>
      </trkpt>
      <trkpt lat="48.0067502" lon="0.1924755">
        <ele>91.3</ele>
        <time>2023-04-07T13:51:46Z</time>
        <hdop>3.8</hdop>
        <extensions>
          <osmand:heading>0</osmand:heading>
        </extensions>
      </trkpt>
      <trkpt lat="48.0067502" lon="0.1924754">
        <ele>91.3</ele>
        <time>2023-04-07T13:51:52Z</time>
        <hdop>3.8</hdop>
        <extensions>
          <osmand:heading>0</osmand:heading>
        </extensions>
      </trkpt>
      <trkpt lat="48.0067502" lon="0.1924753">
        <ele>91.4</ele>
        <time>2023-04-07T13:51:57Z</time>
        <hdop>3.8</hdop>
        <extensions>
          <osmand:heading>0</osmand:heading>
        </extensions>
      </trkpt>
      <trkpt lat="48.0067162" lon="0.1924493">
        <ele>91.2</ele>
        <time>2023-04-07T13:52:03Z</time>
        <hdop>3.8</hdop>
        <extensions>
          <osmand:bearing>206,1</osmand:bearing>
          <osmand:speed>0.7</osmand:speed>
          <osmand:heading>0</osmand:heading>
        </extensions>
      </trkpt>
      <trkpt lat="48.0066961" lon="0.1924112">
        <ele>91.4</ele>
        <time>2023-04-07T13:52:09Z</time>
        <hdop>3.8</hdop>
        <extensions>
          <osmand:bearing>302,5</osmand:bearing>
          <osmand:speed>0.3</osmand:speed>
          <osmand:heading>0</osmand:heading>
        </extensions>
      </trkpt>
      <trkpt lat="48.0067047" lon="0.1924098">
        <ele>91.3</ele>
        <time>2023-04-07T13:52:15Z</time>
        <hdop>3.8</hdop>
        <extensions>
          <osmand:heading>0</osmand:heading>
        </extensions>
      </trkpt>
      <trkpt lat="48.0067049" lon="0.1924104">
        <ele>91.3</ele>
        <time>2023-04-07T13:52:20Z</time>
        <hdop>3.8</hdop>
        <extensions>
          <osmand:heading>0</osmand:heading>
        </extensions>
      </trkpt>
      <trkpt lat="48.0067049" lon="0.1924106">
        <ele>91.3</ele>
        <time>2023-04-07T13:52:25Z</time>
        <hdop>3.8</hdop>
        <extensions>
          <osmand:heading>0</osmand:heading>
        </extensions>
      </trkpt>
      <trkpt lat="48.0066927" lon="0.1923953">
        <ele>91.3</ele>
        <time>2023-04-07T13:52:31Z</time>
        <hdop>3.8</hdop>
        <extensions>
          <osmand:bearing>207,4</osmand:bearing>
          <osmand:speed>0.2</osmand:speed>
          <osmand:heading>0</osmand:heading>
        </extensions>
      </trkpt>
      <trkpt lat="48.0066837" lon="0.1924056">
        <ele>91.3</ele>
        <time>2023-04-07T13:52:37Z</time>
        <hdop>3.8</hdop>
        <extensions>
          <osmand:heading>0</osmand:heading>
        </extensions>
      </trkpt>
      <trkpt lat="48.0066836" lon="0.1924057">
        <ele>91.3</ele>
        <time>2023-04-07T13:52:43Z</time>
        <hdop>3.8</hdop>
        <extensions>
          <osmand:heading>0</osmand:heading>
        </extensions>
      </trkpt>
      <trkpt lat="48.0066394" lon="0.1923653">
        <ele>91.7</ele>
        <time>2023-04-07T13:52:49Z</time>
        <hdop>3.8</hdop>
        <extensions>
          <osmand:bearing>214,0</osmand:bearing>
          <osmand:speed>1.7</osmand:speed>
          <osmand:heading>0</osmand:heading>
        </extensions>
      </trkpt>
      <trkpt lat="48.0065643" lon="0.1923092">
        <ele>92.1</ele>
        <time>2023-04-07T13:52:55Z</time>
        <hdop>3.8</hdop>
        <extensions>
          <osmand:bearing>205,0</osmand:bearing>
          <osmand:speed>1.5</osmand:speed>
          <osmand:heading>0</osmand:heading>
        </extensions>
      </trkpt>
      <trkpt lat="48.0065076" lon="0.1922711">
        <ele>92.6</ele>
        <time>2023-04-07T13:53:00Z</time>
        <hdop>3.8</hdop>
        <extensions>
          <osmand:bearing>212,0</osmand:bearing>
          <osmand:speed>1.5</osmand:speed>
          <osmand:heading>0</osmand:heading>
        </extensions>
      </trkpt>
      <trkpt lat="48.0064516" lon="0.1922026">
        <ele>93.7</ele>
        <time>2023-04-07T13:53:06Z</time>
        <hdop>3.8</hdop>
        <extensions>
          <osmand:bearing>210,1</osmand:bearing>
          <osmand:speed>1.4</osmand:speed>
          <osmand:heading>0</osmand:heading>
        </extensions>
      </trkpt>
      <trkpt lat="48.0063832" lon="0.192149">
        <ele>92.8</ele>
        <time>2023-04-07T13:53:12Z</time>
        <hdop>3.8</hdop>
        <extensions>
          <osmand:bearing>210,4</osmand:bearing>
          <osmand:speed>1.5</osmand:speed>
          <osmand:heading>0</osmand:heading>
        </extensions>
      </trkpt>
      <trkpt lat="48.0063297" lon="0.1921078">
        <ele>92.7</ele>
        <time>2023-04-07T13:53:17Z</time>
        <hdop>3.8</hdop>
        <extensions>
          <osmand:bearing>215,9</osmand:bearing>
          <osmand:speed>1.5</osmand:speed>
          <osmand:heading>0</osmand:heading>
        </extensions>
      </trkpt>
      <trkpt lat="48.0062766" lon="0.1920244">
        <ele>93.7</ele>
        <time>2023-04-07T13:53:23Z</time>
        <hdop>3.8</hdop>
        <extensions>
          <osmand:bearing>214,1</osmand:bearing>
          <osmand:speed>1.4</osmand:speed>
          <osmand:heading>0</osmand:heading>
        </extensions>
      </trkpt>
      <trkpt lat="48.006221" lon="0.191968">
        <ele>95</ele>
        <time>2023-04-07T13:53:29Z</time>
        <hdop>3.8</hdop>
        <extensions>
          <osmand:bearing>211,1</osmand:bearing>
          <osmand:speed>1.4</osmand:speed>
          <osmand:heading>0</osmand:heading>
        </extensions>
      </trkpt>
      <trkpt lat="48.0061608" lon="0.1919132">
        <ele>94.9</ele>
        <time>2023-04-07T13:53:35Z</time>
        <hdop>3.8</hdop>
        <extensions>
          <osmand:bearing>212,7</osmand:bearing>
          <osmand:speed>1.4</osmand:speed>
          <osmand:heading>0</osmand:heading>
        </extensions>
      </trkpt>
      <trkpt lat="48.006118" lon="0.1918759">
        <ele>94.8</ele>
        <time>2023-04-07T13:53:40Z</time>
        <hdop>3.8</hdop>
        <extensions>
          <osmand:bearing>203,8</osmand:bearing>
          <osmand:speed>0.9</osmand:speed>
          <osmand:heading>0</osmand:heading>
        </extensions>
      </trkpt>
      <trkpt lat="48.0060946" lon="0.1918752">
        <ele>95.1</ele>
        <time>2023-04-07T13:53:46Z</time>
        <hdop>3.8</hdop>
        <extensions>
          <osmand:bearing>167,7</osmand:bearing>
          <osmand:speed>0.5</osmand:speed>
          <osmand:heading>0</osmand:heading>
        </extensions>
      </trkpt>
      <trkpt lat="48.0060993" lon="0.1919125">
        <ele>94.8</ele>
        <time>2023-04-07T13:53:51Z</time>
        <hdop>3.8</hdop>
        <extensions>
          <osmand:heading>0</osmand:heading>
        </extensions>
      </trkpt>
      <trkpt lat="48.0060988" lon="0.1919103">
        <ele>94.3</ele>
        <time>2023-04-07T13:53:57Z</time>
        <hdop>3.8</hdop>
        <extensions>
          <osmand:heading>0</osmand:heading>
        </extensions>
      </trkpt>
      <trkpt lat="48.0060972" lon="0.1919098">
        <ele>94.2</ele>
        <time>2023-04-07T13:54:02Z</time>
        <hdop>3.8</hdop>
        <extensions>
          <osmand:bearing>195,0</osmand:bearing>
          <osmand:speed>0.3</osmand:speed>
          <osmand:heading>0</osmand:heading>
        </extensions>
      </trkpt>
      <trkpt lat="48.0061052" lon="0.191885">
        <ele>93.6</ele>
        <time>2023-04-07T13:54:08Z</time>
        <hdop>3.8</hdop>
        <extensions>
          <osmand:bearing>278,3</osmand:bearing>
          <osmand:speed>0.7</osmand:speed>
          <osmand:heading>0</osmand:heading>
        </extensions>
      </trkpt>
      <trkpt lat="48.0060258" lon="0.191878">
        <ele>93.7</ele>
        <time>2023-04-07T13:54:14Z</time>
        <hdop>3.8</hdop>
        <extensions>
          <osmand:bearing>180,6</osmand:bearing>
          <osmand:speed>1.4</osmand:speed>
          <osmand:heading>0</osmand:heading>
        </extensions>
      </trkpt>
      <trkpt lat="48.0059598" lon="0.1919123">
        <ele>93.8</ele>
        <time>2023-04-07T13:54:20Z</time>
        <hdop>3.8</hdop>
        <extensions>
          <osmand:bearing>168,8</osmand:bearing>
          <osmand:speed>1.3</osmand:speed>
          <osmand:heading>0</osmand:heading>
        </extensions>
      </trkpt>
      <trkpt lat="48.0059058" lon="0.1919169">
        <ele>94.5</ele>
        <time>2023-04-07T13:54:25Z</time>
        <hdop>3.8</hdop>
        <extensions>
          <osmand:bearing>178,2</osmand:bearing>
          <osmand:speed>1.1</osmand:speed>
          <osmand:heading>0</osmand:heading>
        </extensions>
      </trkpt>
      <trkpt lat="48.0058653" lon="0.1919227">
        <ele>94</ele>
        <time>2023-04-07T13:54:31Z</time>
        <hdop>3.8</hdop>
        <extensions>
          <osmand:heading>0</osmand:heading>
        </extensions>
      </trkpt>
      <trkpt lat="48.0058736" lon="0.1919373">
        <ele>92.9</ele>
        <time>2023-04-07T13:54:36Z</time>
        <hdop>3.8</hdop>
        <extensions>
          <osmand:bearing>38,2</osmand:bearing>
          <osmand:speed>0.4</osmand:speed>
          <osmand:heading>0</osmand:heading>
        </extensions>
      </trkpt>
      <trkpt lat="48.0058766" lon="0.1919349">
        <ele>92.8</ele>
        <time>2023-04-07T13:54:42Z</time>
        <hdop>3.8</hdop>
        <extensions>
          <osmand:heading>0</osmand:heading>
        </extensions>
      </trkpt>
      <trkpt lat="48.0058874" lon="0.1920024">
        <ele>94</ele>
        <time>2023-04-07T13:54:48Z</time>
        <hdop>3.8</hdop>
        <extensions>
          <osmand:bearing>85,8</osmand:bearing>
          <osmand:speed>1.6</osmand:speed>
          <osmand:heading>0</osmand:heading>
        </extensions>
      </trkpt>
      <trkpt lat="48.0058761" lon="0.1920785">
        <ele>95.6</ele>
        <time>2023-04-07T13:54:54Z</time>
        <hdop>3.8</hdop>
        <extensions>
          <osmand:heading>0</osmand:heading>
        </extensions>
      </trkpt>
      <trkpt lat="48.0058755" lon="0.1920787">
        <ele>95.6</ele>
        <time>2023-04-07T13:55:00Z</time>
        <hdop>3.8</hdop>
        <extensions>
          <osmand:heading>0</osmand:heading>
        </extensions>
      </trkpt>
      <trkpt lat="48.0058756" lon="0.1920791">
        <ele>95.6</ele>
        <time>2023-04-07T13:55:06Z</time>
        <hdop>3.8</hdop>
        <extensions>
          <osmand:heading>0</osmand:heading>
        </extensions>
      </trkpt>
      <trkpt lat="48.0058758" lon="0.1920794">
        <ele>95.6</ele>
        <time>2023-04-07T13:55:12Z</time>
        <hdop>3.8</hdop>
        <extensions>
          <osmand:heading>0</osmand:heading>
        </extensions>
      </trkpt>
      <trkpt lat="48.0058757" lon="0.1920794">
        <ele>95.6</ele>
        <time>2023-04-07T13:55:18Z</time>
        <hdop>3.8</hdop>
        <extensions>
          <osmand:heading>0</osmand:heading>
        </extensions>
      </trkpt>
      <trkpt lat="48.0058758" lon="0.1920798">
        <ele>95.6</ele>
        <time>2023-04-07T13:55:24Z</time>
        <hdop>3.8</hdop>
        <extensions>
          <osmand:heading>0</osmand:heading>
        </extensions>
      </trkpt>
      <trkpt lat="48.0058758" lon="0.1920801">
        <ele>95.6</ele>
        <time>2023-04-07T13:55:29Z</time>
        <hdop>3.8</hdop>
        <extensions>
          <osmand:heading>0</osmand:heading>
        </extensions>
      </trkpt>
      <trkpt lat="48.005872" lon="0.1920862">
        <ele>95.3</ele>
        <time>2023-04-07T13:55:35Z</time>
        <hdop>3.8</hdop>
        <extensions>
          <osmand:bearing>122,6</osmand:bearing>
          <osmand:speed>0.8</osmand:speed>
          <osmand:heading>0</osmand:heading>
        </extensions>
      </trkpt>
      <trkpt lat="48.0058406" lon="0.1921706">
        <ele>96.3</ele>
        <time>2023-04-07T13:55:40Z</time>
        <hdop>3.8</hdop>
        <extensions>
          <osmand:bearing>116,8</osmand:bearing>
          <osmand:speed>1.5</osmand:speed>
          <osmand:heading>0</osmand:heading>
        </extensions>
      </trkpt>
      <trkpt lat="48.0058183" lon="0.1922793">
        <ele>98.3</ele>
        <time>2023-04-07T13:55:46Z</time>
        <hdop>3.8</hdop>
        <extensions>
          <osmand:bearing>100,7</osmand:bearing>
          <osmand:speed>1.2</osmand:speed>
          <osmand:heading>0</osmand:heading>
        </extensions>
      </trkpt>
      <trkpt lat="48.0058003" lon="0.1923512">
        <ele>97.4</ele>
        <time>2023-04-07T13:55:51Z</time>
        <hdop>3.8</hdop>
        <extensions>
          <osmand:bearing>95,4</osmand:bearing>
          <osmand:speed>1.4</osmand:speed>
          <osmand:heading>0</osmand:heading>
        </extensions>
      </trkpt>
      <trkpt lat="48.0057768" lon="0.192445">
        <ele>97.4</ele>
        <time>2023-04-07T13:55:57Z</time>
        <hdop>3.8</hdop>
        <extensions>
          <osmand:bearing>125,1</osmand:bearing>
          <osmand:speed>1.4</osmand:speed>
          <osmand:heading>0</osmand:heading>
        </extensions>
      </trkpt>
      <trkpt lat="48.0057324" lon="0.1925072">
        <ele>96.8</ele>
        <time>2023-04-07T13:56:02Z</time>
        <hdop>3.8</hdop>
        <extensions>
          <osmand:bearing>131,9</osmand:bearing>
          <osmand:speed>1.4</osmand:speed>
          <osmand:heading>0</osmand:heading>
        </extensions>
      </trkpt>
      <trkpt lat="48.0056923" lon="0.1925794">
        <ele>97.5</ele>
        <time>2023-04-07T13:56:07Z</time>
        <hdop>3.8</hdop>
        <extensions>
          <osmand:bearing>121,7</osmand:bearing>
          <osmand:speed>1.4</osmand:speed>
          <osmand:heading>0</osmand:heading>
        </extensions>
      </trkpt>
      <trkpt lat="48.0056526" lon="0.1926763">
        <ele>95.9</ele>
        <time>2023-04-07T13:56:13Z</time>
        <hdop>3.8</hdop>
        <extensions>
          <osmand:bearing>131,3</osmand:bearing>
          <osmand:speed>1.3</osmand:speed>
          <osmand:heading>0</osmand:heading>
        </extensions>
      </trkpt>
      <trkpt lat="48.0056078" lon="0.1927658">
        <ele>98.7</ele>
        <time>2023-04-07T13:56:19Z</time>
        <hdop>3.8</hdop>
        <extensions>
          <osmand:bearing>122,4</osmand:bearing>
          <osmand:speed>1.4</osmand:speed>
          <osmand:heading>0</osmand:heading>
        </extensions>
      </trkpt>
      <trkpt lat="48.0055731" lon="0.192863">
        <ele>99.8</ele>
        <time>2023-04-07T13:56:25Z</time>
        <hdop>3.8</hdop>
        <extensions>
          <osmand:bearing>126,8</osmand:bearing>
          <osmand:speed>1.4</osmand:speed>
          <osmand:heading>0</osmand:heading>
        </extensions>
      </trkpt>
      <trkpt lat="48.005532" lon="0.1929494">
        <ele>99.7</ele>
        <time>2023-04-07T13:56:31Z</time>
        <hdop>3.8</hdop>
        <extensions>
          <osmand:bearing>125,1</osmand:bearing>
          <osmand:speed>1.3</osmand:speed>
          <osmand:heading>0</osmand:heading>
        </extensions>
      </trkpt>
      <trkpt lat="48.0054979" lon="0.1930431">
        <ele>98.6</ele>
        <time>2023-04-07T13:56:37Z</time>
        <hdop>3.8</hdop>
        <extensions>
          <osmand:bearing>117,4</osmand:bearing>
          <osmand:speed>1.4</osmand:speed>
          <osmand:heading>0</osmand:heading>
        </extensions>
      </trkpt>
      <trkpt lat="48.0054608" lon="0.1931501">
        <ele>98.3</ele>
        <time>2023-04-07T13:56:43Z</time>
        <hdop>3.8</hdop>
        <extensions>
          <osmand:bearing>110,8</osmand:bearing>
          <osmand:speed>1.7</osmand:speed>
          <osmand:heading>0</osmand:heading>
        </extensions>
      </trkpt>
      <trkpt lat="48.0054141" lon="0.1932343">
        <ele>97.2</ele>
        <time>2023-04-07T13:56:49Z</time>
        <hdop>3.8</hdop>
        <extensions>
          <osmand:bearing>131,8</osmand:bearing>
          <osmand:speed>1.3</osmand:speed>
          <osmand:heading>0</osmand:heading>
        </extensions>
      </trkpt>
      <trkpt lat="48.0053847" lon="0.1933098">
        <ele>95.2</ele>
        <time>2023-04-07T13:56:54Z</time>
        <hdop>3.8</hdop>
        <extensions>
          <osmand:bearing>125,8</osmand:bearing>
          <osmand:speed>1.4</osmand:speed>
          <osmand:heading>0</osmand:heading>
        </extensions>
      </trkpt>
      <trkpt lat="48.0053462" lon="0.1933875">
        <ele>95.9</ele>
        <time>2023-04-07T13:57:00Z</time>
        <hdop>9.9</hdop>
        <extensions>
          <osmand:bearing>127,3</osmand:bearing>
          <osmand:speed>1.3</osmand:speed>
          <osmand:heading>0</osmand:heading>
        </extensions>
      </trkpt>
      <trkpt lat="48.0053167" lon="0.1934811">
        <ele>93.4</ele>
        <time>2023-04-07T13:57:06Z</time>
        <hdop>9.9</hdop>
        <extensions>
          <osmand:bearing>121,5</osmand:bearing>
          <osmand:speed>1.3</osmand:speed>
          <osmand:heading>0</osmand:heading>
        </extensions>
      </trkpt>
      <trkpt lat="48.0052974" lon="0.1935607">
        <ele>94.2</ele>
        <time>2023-04-07T13:57:11Z</time>
        <hdop>9.9</hdop>
        <extensions>
          <osmand:bearing>112,5</osmand:bearing>
          <osmand:speed>1.3</osmand:speed>
          <osmand:heading>0</osmand:heading>
        </extensions>
      </trkpt>
      <trkpt lat="48.0052771" lon="0.1936149">
        <ele>100.7</ele>
        <time>2023-04-07T13:57:16Z</time>
        <hdop>9.9</hdop>
        <extensions>
          <osmand:bearing>110,4</osmand:bearing>
          <osmand:speed>1</osmand:speed>
          <osmand:heading>0</osmand:heading>
        </extensions>
      </trkpt>
      <trkpt lat="48.0052642" lon="0.1936869">
        <ele>102.9</ele>
        <time>2023-04-07T13:57:22Z</time>
        <hdop>3.8</hdop>
        <extensions>
          <osmand:bearing>89,7</osmand:bearing>
          <osmand:speed>1.2</osmand:speed>
          <osmand:heading>0</osmand:heading>
        </extensions>
      </trkpt>
      <trkpt lat="48.005203" lon="0.1937674">
        <ele>101.8</ele>
        <time>2023-04-07T13:57:28Z</time>
        <hdop>3.8</hdop>
        <extensions>
          <osmand:bearing>136,0</osmand:bearing>
          <osmand:speed>0.9</osmand:speed>
          <osmand:heading>0</osmand:heading>
        </extensions>
      </trkpt>
      <trkpt lat="48.0051776" lon="0.1937472">
        <ele>101.7</ele>
        <time>2023-04-07T13:57:33Z</time>
        <hdop>3.8</hdop>
        <extensions>
          <osmand:heading>0</osmand:heading>
        </extensions>
      </trkpt>
      <trkpt lat="48.0051752" lon="0.1937456">
        <ele>101.8</ele>
        <time>2023-04-07T13:57:38Z</time>
        <hdop>3.8</hdop>
        <extensions>
          <osmand:heading>0</osmand:heading>
        </extensions>
      </trkpt>
      <trkpt lat="48.0051702" lon="0.1937455">
        <ele>101.3</ele>
        <time>2023-04-07T13:57:44Z</time>
        <hdop>3.8</hdop>
        <extensions>
          <osmand:heading>0</osmand:heading>
        </extensions>
      </trkpt>
      <trkpt lat="48.0051698" lon="0.1937455">
        <ele>101.3</ele>
        <time>2023-04-07T13:57:49Z</time>
        <hdop>3.8</hdop>
        <extensions>
          <osmand:heading>0</osmand:heading>
        </extensions>
      </trkpt>
      <trkpt lat="48.0051549" lon="0.1937138">
        <ele>100.5</ele>
        <time>2023-04-07T13:57:55Z</time>
        <hdop>3.8</hdop>
        <extensions>
          <osmand:bearing>215,1</osmand:bearing>
          <osmand:speed>1.1</osmand:speed>
          <osmand:heading>0</osmand:heading>
        </extensions>
      </trkpt>
      <trkpt lat="48.0051412" lon="0.1936355">
        <ele>102.9</ele>
        <time>2023-04-07T13:58:00Z</time>
        <hdop>3.8</hdop>
        <extensions>
          <osmand:bearing>264,0</osmand:bearing>
          <osmand:speed>1</osmand:speed>
          <osmand:heading>0</osmand:heading>
        </extensions>
      </trkpt>
      <trkpt lat="48.0051786" lon="0.193608">
        <ele>103.6</ele>
        <time>2023-04-07T13:58:06Z</time>
        <hdop>3.8</hdop>
        <extensions>
          <osmand:heading>0</osmand:heading>
        </extensions>
      </trkpt>
      <trkpt lat="48.0051918" lon="0.1935915">
        <ele>103.4</ele>
        <time>2023-04-07T13:58:12Z</time>
        <hdop>3.8</hdop>
        <extensions>
          <osmand:heading>0</osmand:heading>
        </extensions>
      </trkpt>
      <trkpt lat="48.0051928" lon="0.1935918">
        <ele>103.5</ele>
        <time>2023-04-07T13:58:18Z</time>
        <hdop>3.8</hdop>
        <extensions>
          <osmand:heading>0</osmand:heading>
        </extensions>
      </trkpt>
      <trkpt lat="48.005178" lon="0.1936285">
        <ele>103.1</ele>
        <time>2023-04-07T13:58:24Z</time>
        <hdop>9.9</hdop>
        <extensions>
          <osmand:bearing>110,4</osmand:bearing>
          <osmand:speed>0.6</osmand:speed>
          <osmand:heading>0</osmand:heading>
        </extensions>
      </trkpt>
      <trkpt lat="48.0051731" lon="0.1936505">
        <ele>102.6</ele>
        <time>2023-04-07T13:58:29Z</time>
        <hdop>9.9</hdop>
        <extensions>
          <osmand:bearing>112,4</osmand:bearing>
          <osmand:speed>0.2</osmand:speed>
          <osmand:heading>0</osmand:heading>
        </extensions>
      </trkpt>
      <trkpt lat="48.0051754" lon="0.1936516">
        <ele>102.5</ele>
        <time>2023-04-07T13:58:35Z</time>
        <hdop>9.9</hdop>
        <extensions>
          <osmand:heading>0</osmand:heading>
        </extensions>
      </trkpt>
      <trkpt lat="48.0051757" lon="0.1936547">
        <ele>102.7</ele>
        <time>2023-04-07T13:58:41Z</time>
        <hdop>9.9</hdop>
        <extensions>
          <osmand:heading>0</osmand:heading>
        </extensions>
      </trkpt>
      <trkpt lat="48.0051757" lon="0.1936548">
        <ele>102.7</ele>
        <time>2023-04-07T13:58:46Z</time>
        <hdop>9.9</hdop>
        <extensions>
          <osmand:heading>0</osmand:heading>
        </extensions>
      </trkpt>
      <trkpt lat="48.0051852" lon="0.193684">
        <ele>103.4</ele>
        <time>2023-04-07T13:58:51Z</time>
        <hdop>9.9</hdop>
        <extensions>
          <osmand:bearing>110,2</osmand:bearing>
          <osmand:speed>0.6</osmand:speed>
          <osmand:heading>0</osmand:heading>
        </extensions>
      </trkpt>
      <trkpt lat="48.0051506" lon="0.1937879">
        <ele>101.5</ele>
        <time>2023-04-07T13:58:57Z</time>
        <hdop>9.9</hdop>
        <extensions>
          <osmand:heading>0</osmand:heading>
        </extensions>
      </trkpt>
      <trkpt lat="48.0050341" lon="0.1941111">
        <ele>110.5</ele>
        <time>2023-04-07T13:59:02Z</time>
        <hdop>5.3</hdop>
        <extensions>
          <osmand:bearing>124,6</osmand:bearing>
          <osmand:speed>4.5</osmand:speed>
          <osmand:heading>0</osmand:heading>
        </extensions>
      </trkpt>
      <trkpt lat="48.0048964" lon="0.1944831">
        <ele>112.6</ele>
        <time>2023-04-07T13:59:07Z</time>
        <hdop>10.6</hdop>
        <extensions>
          <osmand:bearing>116,5</osmand:bearing>
          <osmand:speed>6.3</osmand:speed>
          <osmand:heading>0</osmand:heading>
        </extensions>
      </trkpt>
      <trkpt lat="48.0047505" lon="0.1948855">
        <ele>111.9</ele>
        <time>2023-04-07T13:59:12Z</time>
        <hdop>10.7</hdop>
        <extensions>
          <osmand:bearing>121,7</osmand:bearing>
          <osmand:speed>6.7</osmand:speed>
          <osmand:heading>0</osmand:heading>
        </extensions>
      </trkpt>
      <trkpt lat="48.0046045" lon="0.1952763">
        <ele>112.6</ele>
        <time>2023-04-07T13:59:17Z</time>
        <hdop>11</hdop>
        <extensions>
          <osmand:bearing>121,9</osmand:bearing>
          <osmand:speed>6.3</osmand:speed>
          <osmand:heading>0</osmand:heading>
        </extensions>
      </trkpt>
      <trkpt lat="48.0043414" lon="0.1956977">
        <ele>110.5</ele>
        <time>2023-04-07T13:59:23Z</time>
        <hdop>10.6</hdop>
        <extensions>
          <osmand:bearing>124,7</osmand:bearing>
          <osmand:speed>7</osmand:speed>
          <osmand:heading>0</osmand:heading>
        </extensions>
      </trkpt>
      <trkpt lat="48.0041571" lon="0.1961232">
        <ele>105.2</ele>
        <time>2023-04-07T13:59:29Z</time>
        <hdop>9.9</hdop>
        <extensions>
          <osmand:bearing>122,0</osmand:bearing>
          <osmand:speed>5.1</osmand:speed>
          <osmand:heading>0</osmand:heading>
        </extensions>
      </trkpt>
      <trkpt lat="48.0040099" lon="0.1964199">
        <ele>107.1</ele>
        <time>2023-04-07T13:59:34Z</time>
        <hdop>11.2</hdop>
        <extensions>
          <osmand:bearing>125,8</osmand:bearing>
          <osmand:speed>5.1</osmand:speed>
          <osmand:heading>0</osmand:heading>
        </extensions>
      </trkpt>
      <trkpt lat="48.0039594" lon="0.1965337">
        <ele>107.8</ele>
        <time>2023-04-07T13:59:40Z</time>
        <hdop>9.9</hdop>
        <extensions>
          <osmand:bearing>101,5</osmand:bearing>
          <osmand:speed>0.2</osmand:speed>
          <osmand:heading>0</osmand:heading>
        </extensions>
      </trkpt>
      <trkpt lat="48.0039598" lon="0.196525">
        <ele>108.2</ele>
        <time>2023-04-07T13:59:46Z</time>
        <hdop>11.1</hdop>
        <extensions>
          <osmand:heading>0</osmand:heading>
        </extensions>
      </trkpt>
      <trkpt lat="48.0039684" lon="0.1965415">
        <ele>107</ele>
        <time>2023-04-07T13:59:51Z</time>
        <hdop>10.6</hdop>
        <extensions>
          <osmand:heading>0</osmand:heading>
        </extensions>
      </trkpt>
      <trkpt lat="48.0039677" lon="0.196545">
        <ele>106.1</ele>
        <time>2023-04-07T13:59:56Z</time>
        <hdop>10.5</hdop>
        <extensions>
          <osmand:heading>0</osmand:heading>
        </extensions>
      </trkpt>
      <trkpt lat="48.0039679" lon="0.196545">
        <ele>106.1</ele>
        <time>2023-04-07T14:00:02Z</time>
        <hdop>10.7</hdop>
        <extensions>
          <osmand:heading>0</osmand:heading>
        </extensions>
      </trkpt>
      <trkpt lat="48.0039676" lon="0.1965458">
        <ele>106.1</ele>
        <time>2023-04-07T14:00:08Z</time>
        <hdop>10.8</hdop>
        <extensions>
          <osmand:heading>0</osmand:heading>
        </extensions>
      </trkpt>
      <trkpt lat="48.0039674" lon="0.1965462">
        <ele>106.1</ele>
        <time>2023-04-07T14:00:13Z</time>
        <hdop>10.8</hdop>
        <extensions>
          <osmand:heading>0</osmand:heading>
        </extensions>
      </trkpt>
      <trkpt lat="48.0039672" lon="0.1965463">
        <ele>106.1</ele>
        <time>2023-04-07T14:00:19Z</time>
        <hdop>10.4</hdop>
        <extensions>
          <osmand:heading>0</osmand:heading>
        </extensions>
      </trkpt>
      <trkpt lat="48.003967" lon="0.1965463">
        <ele>106.2</ele>
        <time>2023-04-07T14:00:25Z</time>
        <hdop>10.7</hdop>
        <extensions>
          <osmand:heading>0</osmand:heading>
        </extensions>
      </trkpt>
      <trkpt lat="48.0039062" lon="0.1966931">
        <ele>107.7</ele>
        <time>2023-04-07T14:00:31Z</time>
        <hdop>10.6</hdop>
        <extensions>
          <osmand:bearing>123,6</osmand:bearing>
          <osmand:speed>4.2</osmand:speed>
          <osmand:heading>0</osmand:heading>
        </extensions>
      </trkpt>
      <trkpt lat="48.0037422" lon="0.1970352">
        <ele>109.2</ele>
        <time>2023-04-07T14:00:36Z</time>
        <hdop>10.8</hdop>
        <extensions>
          <osmand:bearing>137,1</osmand:bearing>
          <osmand:speed>5</osmand:speed>
          <osmand:heading>0</osmand:heading>
        </extensions>
      </trkpt>
      <trkpt lat="48.003494" lon="0.1973636">
        <ele>110.5</ele>
        <time>2023-04-07T14:00:42Z</time>
        <hdop>12.4</hdop>
        <extensions>
          <osmand:bearing>139,0</osmand:bearing>
          <osmand:speed>5.8</osmand:speed>
          <osmand:heading>0</osmand:heading>
        </extensions>
      </trkpt>
      <trkpt lat="48.003322" lon="0.1976499">
        <ele>112.8</ele>
        <time>2023-04-07T14:00:48Z</time>
        <hdop>13.1</hdop>
        <extensions>
          <osmand:bearing>139,0</osmand:bearing>
          <osmand:speed>5.1</osmand:speed>
          <osmand:heading>0</osmand:heading>
        </extensions>
      </trkpt>
      <trkpt lat="48.0029743" lon="0.1980153">
        <ele>113.8</ele>
        <time>2023-04-07T14:00:54Z</time>
        <hdop>13.4</hdop>
        <extensions>
          <osmand:bearing>142,6</osmand:bearing>
          <osmand:speed>7</osmand:speed>
          <osmand:heading>0</osmand:heading>
        </extensions>
      </trkpt>
      <trkpt lat="48.0026927" lon="0.198154">
        <ele>112.3</ele>
        <time>2023-04-07T14:01:00Z</time>
        <hdop>12.2</hdop>
        <extensions>
          <osmand:bearing>147,4</osmand:bearing>
          <osmand:speed>5.3</osmand:speed>
          <osmand:heading>0</osmand:heading>
        </extensions>
      </trkpt>
      <trkpt lat="48.0023883" lon="0.1984988">
        <ele>119.1</ele>
        <time>2023-04-07T14:01:07Z</time>
        <hdop>9.9</hdop>
        <extensions>
          <osmand:bearing>137,0</osmand:bearing>
          <osmand:speed>3.7</osmand:speed>
          <osmand:heading>0</osmand:heading>
        </extensions>
      </trkpt>
      <trkpt lat="48.0021649" lon="0.198532">
        <ele>118.3</ele>
        <time>2023-04-07T14:01:13Z</time>
        <hdop>9.9</hdop>
        <extensions>
          <osmand:bearing>178,6</osmand:bearing>
          <osmand:speed>4.1</osmand:speed>
          <osmand:heading>0</osmand:heading>
        </extensions>
      </trkpt>
      <trkpt lat="48.0019777" lon="0.1983828">
        <ele>112</ele>
        <time>2023-04-07T14:01:19Z</time>
        <hdop>9.9</hdop>
        <extensions>
          <osmand:bearing>210,8</osmand:bearing>
          <osmand:speed>3.9</osmand:speed>
          <osmand:heading>0</osmand:heading>
        </extensions>
      </trkpt>
      <trkpt lat="48.0018079" lon="0.1981879">
        <ele>112</ele>
        <time>2023-04-07T14:01:25Z</time>
        <hdop>9.9</hdop>
        <extensions>
          <osmand:bearing>220,9</osmand:bearing>
          <osmand:speed>3.7</osmand:speed>
          <osmand:heading>0</osmand:heading>
        </extensions>
      </trkpt>
      <trkpt lat="48.0017032" lon="0.19806">
        <ele>113.5</ele>
        <time>2023-04-07T14:01:30Z</time>
        <hdop>10</hdop>
        <extensions>
          <osmand:bearing>236,8</osmand:bearing>
          <osmand:speed>3.8</osmand:speed>
          <osmand:heading>0</osmand:heading>
        </extensions>
      </trkpt>
      <trkpt lat="48.0014832" lon="0.197902">
        <ele>111.3</ele>
        <time>2023-04-07T14:01:36Z</time>
        <hdop>10.7</hdop>
        <extensions>
          <osmand:bearing>193,9</osmand:bearing>
          <osmand:speed>3.8</osmand:speed>
          <osmand:heading>0</osmand:heading>
        </extensions>
      </trkpt>
      <trkpt lat="48.0013339" lon="0.1977643">
        <ele>110.3</ele>
        <time>2023-04-07T14:01:41Z</time>
        <hdop>9.9</hdop>
        <extensions>
          <osmand:bearing>212,1</osmand:bearing>
          <osmand:speed>4.3</osmand:speed>
          <osmand:heading>0</osmand:heading>
        </extensions>
      </trkpt>
      <trkpt lat="48.0011321" lon="0.1975744">
        <ele>111.7</ele>
        <time>2023-04-07T14:01:47Z</time>
        <hdop>10.2</hdop>
        <extensions>
          <osmand:bearing>209,7</osmand:bearing>
          <osmand:speed>4.3</osmand:speed>
          <osmand:heading>0</osmand:heading>
        </extensions>
      </trkpt>
      <trkpt lat="48.0009013" lon="0.1974458">
        <ele>113.7</ele>
        <time>2023-04-07T14:01:52Z</time>
        <hdop>10.2</hdop>
        <extensions>
          <osmand:bearing>202,3</osmand:bearing>
          <osmand:speed>5.4</osmand:speed>
          <osmand:heading>0</osmand:heading>
        </extensions>
      </trkpt>
      <trkpt lat="48.0007512" lon="0.1973576">
        <ele>113.5</ele>
        <time>2023-04-07T14:01:58Z</time>
        <hdop>10.2</hdop>
        <extensions>
          <osmand:bearing>228,3</osmand:bearing>
          <osmand:speed>2.7</osmand:speed>
          <osmand:heading>0</osmand:heading>
        </extensions>
      </trkpt>
      <trkpt lat="48.0007532" lon="0.1973189">
        <ele>115.7</ele>
        <time>2023-04-07T14:02:03Z</time>
        <hdop>10.1</hdop>
        <extensions>
          <osmand:heading>0</osmand:heading>
        </extensions>
      </trkpt>
      <trkpt lat="48.0007647" lon="0.1973153">
        <ele>116.1</ele>
        <time>2023-04-07T14:02:09Z</time>
        <hdop>10.3</hdop>
        <extensions>
          <osmand:heading>0</osmand:heading>
        </extensions>
      </trkpt>
      <trkpt lat="48.000772" lon="0.1973097">
        <ele>115.9</ele>
        <time>2023-04-07T14:02:15Z</time>
        <hdop>10.8</hdop>
        <extensions>
          <osmand:heading>0</osmand:heading>
        </extensions>
      </trkpt>
      <trkpt lat="48.0007791" lon="0.1973162">
        <ele>114.4</ele>
        <time>2023-04-07T14:02:21Z</time>
        <hdop>10.4</hdop>
        <extensions>
          <osmand:heading>0</osmand:heading>
        </extensions>
      </trkpt>
      <trkpt lat="48.0007862" lon="0.1973142">
        <ele>114.2</ele>
        <time>2023-04-07T14:02:27Z</time>
        <hdop>10.5</hdop>
        <extensions>
          <osmand:heading>0</osmand:heading>
        </extensions>
      </trkpt>
      <trkpt lat="48.0007898" lon="0.1973109">
        <ele>114.4</ele>
        <time>2023-04-07T14:02:32Z</time>
        <hdop>10.5</hdop>
        <extensions>
          <osmand:heading>0</osmand:heading>
        </extensions>
      </trkpt>
      <trkpt lat="48.0006637" lon="0.1971779">
        <ele>108.7</ele>
        <time>2023-04-07T14:02:37Z</time>
        <hdop>9.9</hdop>
        <extensions>
          <osmand:bearing>210,2</osmand:bearing>
          <osmand:speed>5.7</osmand:speed>
          <osmand:heading>0</osmand:heading>
        </extensions>
      </trkpt>
      <trkpt lat="48.0003219" lon="0.1968172">
        <ele>109.3</ele>
        <time>2023-04-07T14:02:43Z</time>
        <hdop>9.9</hdop>
        <extensions>
          <osmand:bearing>209,4</osmand:bearing>
          <osmand:speed>7.5</osmand:speed>
          <osmand:heading>0</osmand:heading>
        </extensions>
      </trkpt>
      <trkpt lat="47.9999513" lon="0.1964856">
        <ele>108.3</ele>
        <time>2023-04-07T14:02:49Z</time>
        <hdop>9.9</hdop>
        <extensions>
          <osmand:bearing>211,5</osmand:bearing>
          <osmand:speed>8.1</osmand:speed>
          <osmand:heading>0</osmand:heading>
        </extensions>
      </trkpt>
      <trkpt lat="47.9995815" lon="0.1961404">
        <ele>109.1</ele>
        <time>2023-04-07T14:02:55Z</time>
        <hdop>10.6</hdop>
        <extensions>
          <osmand:bearing>213,4</osmand:bearing>
          <osmand:speed>7.9</osmand:speed>
          <osmand:heading>0</osmand:heading>
        </extensions>
      </trkpt>
      <trkpt lat="47.9992263" lon="0.195883">
        <ele>109.5</ele>
        <time>2023-04-07T14:03:00Z</time>
        <hdop>10.6</hdop>
        <extensions>
          <osmand:bearing>210,5</osmand:bearing>
          <osmand:speed>8.5</osmand:speed>
          <osmand:heading>0</osmand:heading>
        </extensions>
      </trkpt>
      <trkpt lat="47.9988994" lon="0.1956027">
        <ele>111.4</ele>
        <time>2023-04-07T14:03:05Z</time>
        <hdop>10</hdop>
        <extensions>
          <osmand:bearing>213,0</osmand:bearing>
          <osmand:speed>8</osmand:speed>
          <osmand:heading>0</osmand:heading>
        </extensions>
      </trkpt>
      <trkpt lat="47.9985444" lon="0.1952451">
        <ele>107</ele>
        <time>2023-04-07T14:03:11Z</time>
        <hdop>10.9</hdop>
        <extensions>
          <osmand:bearing>212,3</osmand:bearing>
          <osmand:speed>6.8</osmand:speed>
          <osmand:heading>0</osmand:heading>
        </extensions>
      </trkpt>
      <trkpt lat="47.9983468" lon="0.1950404">
        <ele>107.3</ele>
        <time>2023-04-07T14:03:16Z</time>
        <hdop>10.1</hdop>
        <extensions>
          <osmand:bearing>211,5</osmand:bearing>
          <osmand:speed>4.7</osmand:speed>
          <osmand:heading>0</osmand:heading>
        </extensions>
      </trkpt>
      <trkpt lat="47.9982026" lon="0.1949308">
        <ele>110</ele>
        <time>2023-04-07T14:03:22Z</time>
        <hdop>10.9</hdop>
        <extensions>
          <osmand:bearing>211,6</osmand:bearing>
          <osmand:speed>2.7</osmand:speed>
          <osmand:heading>0</osmand:heading>
        </extensions>
      </trkpt>
      <trkpt lat="47.9982262" lon="0.194941">
        <ele>109.8</ele>
        <time>2023-04-07T14:03:28Z</time>
        <hdop>9.9</hdop>
        <extensions>
          <osmand:heading>0</osmand:heading>
        </extensions>
      </trkpt>
      <trkpt lat="47.9982283" lon="0.1949339">
        <ele>109.7</ele>
        <time>2023-04-07T14:03:33Z</time>
        <hdop>10.1</hdop>
        <extensions>
          <osmand:bearing>210,2</osmand:bearing>
          <osmand:speed>0.2</osmand:speed>
          <osmand:heading>0</osmand:heading>
        </extensions>
      </trkpt>
      <trkpt lat="47.9982218" lon="0.1949491">
        <ele>110.3</ele>
        <time>2023-04-07T14:03:39Z</time>
        <hdop>11</hdop>
        <extensions>
          <osmand:heading>0</osmand:heading>
        </extensions>
      </trkpt>
      <trkpt lat="47.9982231" lon="0.1949493">
        <ele>111.6</ele>
        <time>2023-04-07T14:03:44Z</time>
        <hdop>10.6</hdop>
        <extensions>
          <osmand:heading>0</osmand:heading>
        </extensions>
      </trkpt>
      <trkpt lat="47.9982303" lon="0.1949499">
        <ele>113.6</ele>
        <time>2023-04-07T14:03:49Z</time>
        <hdop>10.1</hdop>
        <extensions>
          <osmand:heading>0</osmand:heading>
        </extensions>
      </trkpt>
      <trkpt lat="47.998194" lon="0.1949155">
        <ele>114.2</ele>
        <time>2023-04-07T14:03:55Z</time>
        <hdop>10.2</hdop>
        <extensions>
          <osmand:bearing>206,6</osmand:bearing>
          <osmand:speed>4.4</osmand:speed>
          <osmand:heading>0</osmand:heading>
        </extensions>
      </trkpt>
      <trkpt lat="47.9978341" lon="0.1945827">
        <ele>106.6</ele>
        <time>2023-04-07T14:04:01Z</time>
        <hdop>10.7</hdop>
        <extensions>
          <osmand:bearing>210,2</osmand:bearing>
          <osmand:speed>6.8</osmand:speed>
          <osmand:heading>0</osmand:heading>
        </extensions>
      </trkpt>
      <trkpt lat="47.9975776" lon="0.1943276">
        <ele>103.2</ele>
        <time>2023-04-07T14:04:06Z</time>
        <hdop>10</hdop>
        <extensions>
          <osmand:bearing>209,8</osmand:bearing>
          <osmand:speed>7.4</osmand:speed>
          <osmand:heading>0</osmand:heading>
        </extensions>
      </trkpt>
      <trkpt lat="47.9971867" lon="0.1940368">
        <ele>102.2</ele>
        <time>2023-04-07T14:04:12Z</time>
        <hdop>10.2</hdop>
        <extensions>
          <osmand:bearing>208,6</osmand:bearing>
          <osmand:speed>8.1</osmand:speed>
          <osmand:heading>0</osmand:heading>
        </extensions>
      </trkpt>
      <trkpt lat="47.9968203" lon="0.1936853">
        <ele>101.7</ele>
        <time>2023-04-07T14:04:18Z</time>
        <hdop>10.6</hdop>
        <extensions>
          <osmand:bearing>209,6</osmand:bearing>
          <osmand:speed>7.8</osmand:speed>
          <osmand:heading>0</osmand:heading>
        </extensions>
      </trkpt>
      <trkpt lat="47.9964907" lon="0.1934113">
        <ele>105.9</ele>
        <time>2023-04-07T14:04:24Z</time>
        <hdop>10.6</hdop>
        <extensions>
          <osmand:bearing>211,4</osmand:bearing>
          <osmand:speed>7.8</osmand:speed>
          <osmand:heading>0</osmand:heading>
        </extensions>
      </trkpt>
      <trkpt lat="47.9962411" lon="0.1931658">
        <ele>109.6</ele>
        <time>2023-04-07T14:04:29Z</time>
        <hdop>10.4</hdop>
        <extensions>
          <osmand:bearing>213,1</osmand:bearing>
          <osmand:speed>6.4</osmand:speed>
          <osmand:heading>0</osmand:heading>
        </extensions>
      </trkpt>
      <trkpt lat="47.9959795" lon="0.1929881">
        <ele>102.3</ele>
        <time>2023-04-07T14:04:34Z</time>
        <hdop>10.1</hdop>
        <extensions>
          <osmand:bearing>211,7</osmand:bearing>
          <osmand:speed>5.1</osmand:speed>
          <osmand:heading>0</osmand:heading>
        </extensions>
      </trkpt>
      <trkpt lat="47.9957513" lon="0.1929214">
        <ele>95.8</ele>
        <time>2023-04-07T14:04:40Z</time>
        <hdop>9.9</hdop>
        <extensions>
          <osmand:bearing>176,8</osmand:bearing>
          <osmand:speed>5.5</osmand:speed>
          <osmand:heading>0</osmand:heading>
        </extensions>
      </trkpt>
      <trkpt lat="47.9955583" lon="0.1931889">
        <ele>93.6</ele>
        <time>2023-04-07T14:04:46Z</time>
        <hdop>10.4</hdop>
        <extensions>
          <osmand:bearing>117,4</osmand:bearing>
          <osmand:speed>4.9</osmand:speed>
          <osmand:heading>0</osmand:heading>
        </extensions>
      </trkpt>
      <trkpt lat="47.9954456" lon="0.1935391">
        <ele>91.7</ele>
        <time>2023-04-07T14:04:52Z</time>
        <hdop>10.6</hdop>
        <extensions>
          <osmand:bearing>117,8</osmand:bearing>
          <osmand:speed>4.4</osmand:speed>
          <osmand:heading>0</osmand:heading>
        </extensions>
      </trkpt>
      <trkpt lat="47.9953826" lon="0.1937616">
        <ele>91.8</ele>
        <time>2023-04-07T14:04:58Z</time>
        <hdop>10.3</hdop>
        <extensions>
          <osmand:bearing>115,1</osmand:bearing>
          <osmand:speed>1.5</osmand:speed>
          <osmand:heading>0</osmand:heading>
        </extensions>
      </trkpt>
      <trkpt lat="47.9953864" lon="0.1937568">
        <ele>92.2</ele>
        <time>2023-04-07T14:05:03Z</time>
        <hdop>10.4</hdop>
        <extensions>
          <osmand:bearing>111,6</osmand:bearing>
          <osmand:speed>0.2</osmand:speed>
          <osmand:heading>0</osmand:heading>
        </extensions>
      </trkpt>
      <trkpt lat="47.9953854" lon="0.1937679">
        <ele>94.9</ele>
        <time>2023-04-07T14:05:09Z</time>
        <hdop>10.2</hdop>
        <extensions>
          <osmand:heading>0</osmand:heading>
        </extensions>
      </trkpt>
      <trkpt lat="47.9953772" lon="0.1937427">
        <ele>94.6</ele>
        <time>2023-04-07T14:05:14Z</time>
        <hdop>11.2</hdop>
        <extensions>
          <osmand:heading>0</osmand:heading>
        </extensions>
      </trkpt>
      <trkpt lat="47.9953711" lon="0.1936927">
        <ele>98.6</ele>
        <time>2023-04-07T14:05:19Z</time>
        <hdop>3.8</hdop>
        <extensions>
          <osmand:bearing>276,3</osmand:bearing>
          <osmand:speed>0.5</osmand:speed>
          <osmand:heading>0</osmand:heading>
        </extensions>
      </trkpt>
      <trkpt lat="47.99538" lon="0.1936482">
        <ele>99.1</ele>
        <time>2023-04-07T14:05:24Z</time>
        <hdop>3.8</hdop>
        <extensions>
          <osmand:bearing>290,7</osmand:bearing>
          <osmand:speed>0.6</osmand:speed>
          <osmand:heading>0</osmand:heading>
        </extensions>
      </trkpt>
      <trkpt lat="47.9954111" lon="0.1935641">
        <ele>99.6</ele>
        <time>2023-04-07T14:05:30Z</time>
        <hdop>3.8</hdop>
        <extensions>
          <osmand:bearing>285,9</osmand:bearing>
          <osmand:speed>0.8</osmand:speed>
          <osmand:heading>0</osmand:heading>
        </extensions>
      </trkpt>
      <trkpt lat="47.9954437" lon="0.1934739">
        <ele>99.8</ele>
        <time>2023-04-07T14:05:36Z</time>
        <hdop>3.8</hdop>
        <extensions>
          <osmand:bearing>296,1</osmand:bearing>
          <osmand:speed>1.3</osmand:speed>
          <osmand:heading>0</osmand:heading>
        </extensions>
      </trkpt>
      <trkpt lat="47.9954722" lon="0.1934228">
        <ele>101.4</ele>
        <time>2023-04-07T14:05:41Z</time>
        <hdop>3.8</hdop>
        <extensions>
          <osmand:bearing>308,5</osmand:bearing>
          <osmand:speed>0.9</osmand:speed>
          <osmand:heading>0</osmand:heading>
        </extensions>
      </trkpt>
      <trkpt lat="47.9955063" lon="0.1933629">
        <ele>100.4</ele>
        <time>2023-04-07T14:05:47Z</time>
        <hdop>3.8</hdop>
        <extensions>
          <osmand:bearing>300,2</osmand:bearing>
          <osmand:speed>1.1</osmand:speed>
          <osmand:heading>0</osmand:heading>
        </extensions>
      </trkpt>
      <trkpt lat="47.9955351" lon="0.1933024">
        <ele>99.8</ele>
        <time>2023-04-07T14:05:52Z</time>
        <hdop>3.8</hdop>
        <extensions>
          <osmand:bearing>300,0</osmand:bearing>
          <osmand:speed>0.4</osmand:speed>
          <osmand:heading>0</osmand:heading>
        </extensions>
      </trkpt>
      <trkpt lat="47.9955311" lon="0.1933002">
        <ele>99.9</ele>
        <time>2023-04-07T14:05:57Z</time>
        <hdop>3.8</hdop>
        <extensions>
          <osmand:heading>0</osmand:heading>
        </extensions>
      </trkpt>
    </trkseg>
  </trk>
</gpx>