<?xml version='1.0' encoding='UTF-8' standalone='yes' ?>
<gpx version="1.1" creator="OsmAnd~ 4.4.7" xmlns="http://www.topografix.com/GPX/1/1" xmlns:osmand="https://osmand.net" xmlns:xsi="http://www.w3.org/2001/XMLSchema-instance" xsi:schemaLocation="http://www.topografix.com/GPX/1/1 http://www.topografix.com/GPX/1/1/gpx.xsd">
  <metadata>
    <name>2023-09-11_11-15_Mon</name>
    <time>2023-09-11T10:43:24Z</time>
  </metadata>
  <trk>
    <trkseg>
      <trkpt lat="38.5694248" lon="-7.9093437">
        <ele>326.8</ele>
        <time>2023-09-11T10:15:41Z</time>
        <hdop>3.8</hdop>
        <extensions>
          <osmand:bearing>0.8</osmand:bearing>
          <osmand:speed>1</osmand:speed>
          <osmand:heading>0</osmand:heading>
        </extensions>
      </trkpt>
      <trkpt lat="38.5694943" lon="-7.9093483">
        <ele>328.7</ele>
        <time>2023-09-11T10:15:47Z</time>
        <hdop>3.8</hdop>
        <extensions>
          <osmand:bearing>338.2</osmand:bearing>
          <osmand:speed>1.2</osmand:speed>
          <osmand:heading>0</osmand:heading>
        </extensions>
      </trkpt>
      <trkpt lat="38.5695596" lon="-7.9094037">
        <ele>329.7</ele>
        <time>2023-09-11T10:15:53Z</time>
        <hdop>3.8</hdop>
        <extensions>
          <osmand:bearing>329.7</osmand:bearing>
          <osmand:speed>1.7</osmand:speed>
          <osmand:heading>0</osmand:heading>
        </extensions>
      </trkpt>
      <trkpt lat="38.5696282" lon="-7.909445">
        <ele>332.7</ele>
        <time>2023-09-11T10:15:59Z</time>
        <hdop>3.8</hdop>
        <extensions>
          <osmand:bearing>347.8</osmand:bearing>
          <osmand:speed>0.7</osmand:speed>
          <osmand:heading>0</osmand:heading>
        </extensions>
      </trkpt>
      <trkpt lat="38.5696423" lon="-7.909442">
        <ele>333</ele>
        <time>2023-09-11T10:16:05Z</time>
        <hdop>3.9</hdop>
        <extensions>
          <osmand:bearing>20.1</osmand:bearing>
          <osmand:speed>0.2</osmand:speed>
          <osmand:heading>0</osmand:heading>
        </extensions>
      </trkpt>
      <trkpt lat="38.5696532" lon="-7.9094495">
        <ele>334.1</ele>
        <time>2023-09-11T10:16:11Z</time>
        <hdop>3.8</hdop>
        <extensions>
          <osmand:heading>0</osmand:heading>
        </extensions>
      </trkpt>
      <trkpt lat="38.5696891" lon="-7.9094249">
        <ele>336.6</ele>
        <time>2023-09-11T10:16:17Z</time>
        <hdop>3.8</hdop>
        <extensions>
          <osmand:heading>0</osmand:heading>
        </extensions>
      </trkpt>
      <trkpt lat="38.5696979" lon="-7.9094202">
        <ele>336.7</ele>
        <time>2023-09-11T10:16:23Z</time>
        <hdop>3.8</hdop>
        <extensions>
          <osmand:heading>0</osmand:heading>
        </extensions>
      </trkpt>
      <trkpt lat="38.5696975" lon="-7.9094195">
        <ele>336.7</ele>
        <time>2023-09-11T10:16:29Z</time>
        <hdop>3.8</hdop>
        <extensions>
          <osmand:heading>0</osmand:heading>
        </extensions>
      </trkpt>
      <trkpt lat="38.5697206" lon="-7.909417">
        <ele>336.8</ele>
        <time>2023-09-11T10:16:34Z</time>
        <hdop>3.8</hdop>
        <extensions>
          <osmand:bearing>2.4</osmand:bearing>
          <osmand:speed>1</osmand:speed>
          <osmand:heading>0</osmand:heading>
        </extensions>
      </trkpt>
      <trkpt lat="38.5697632" lon="-7.9094087">
        <ele>338.4</ele>
        <time>2023-09-11T10:16:40Z</time>
        <hdop>3.8</hdop>
        <extensions>
          <osmand:bearing>22.3</osmand:bearing>
          <osmand:speed>1.3</osmand:speed>
          <osmand:heading>0</osmand:heading>
        </extensions>
      </trkpt>
      <trkpt lat="38.5698025" lon="-7.9093871">
        <ele>339</ele>
        <time>2023-09-11T10:16:45Z</time>
        <hdop>3.8</hdop>
        <extensions>
          <osmand:bearing>21</osmand:bearing>
          <osmand:speed>1.3</osmand:speed>
          <osmand:heading>0</osmand:heading>
        </extensions>
      </trkpt>
      <trkpt lat="38.5698478" lon="-7.9093671">
        <ele>339.8</ele>
        <time>2023-09-11T10:16:50Z</time>
        <hdop>3.8</hdop>
        <extensions>
          <osmand:bearing>20.6</osmand:bearing>
          <osmand:speed>1.3</osmand:speed>
          <osmand:heading>0</osmand:heading>
        </extensions>
      </trkpt>
      <trkpt lat="38.5699048" lon="-7.9093477">
        <ele>341.7</ele>
        <time>2023-09-11T10:16:56Z</time>
        <hdop>3.8</hdop>
        <extensions>
          <osmand:bearing>19.5</osmand:bearing>
          <osmand:speed>1.3</osmand:speed>
          <osmand:heading>0</osmand:heading>
        </extensions>
      </trkpt>
      <trkpt lat="38.5699545" lon="-7.9093293">
        <ele>342.2</ele>
        <time>2023-09-11T10:17:01Z</time>
        <hdop>3.8</hdop>
        <extensions>
          <osmand:bearing>22.9</osmand:bearing>
          <osmand:speed>1.3</osmand:speed>
          <osmand:heading>0</osmand:heading>
        </extensions>
      </trkpt>
      <trkpt lat="38.5700024" lon="-7.9093012">
        <ele>342.1</ele>
        <time>2023-09-11T10:17:07Z</time>
        <hdop>3.8</hdop>
        <extensions>
          <osmand:bearing>24.6</osmand:bearing>
          <osmand:speed>1.2</osmand:speed>
          <osmand:heading>0</osmand:heading>
        </extensions>
      </trkpt>
      <trkpt lat="38.5700519" lon="-7.9092651">
        <ele>343.3</ele>
        <time>2023-09-11T10:17:13Z</time>
        <hdop>3.8</hdop>
        <extensions>
          <osmand:bearing>24.1</osmand:bearing>
          <osmand:speed>1.2</osmand:speed>
          <osmand:heading>0</osmand:heading>
        </extensions>
      </trkpt>
      <trkpt lat="38.5700935" lon="-7.9092404">
        <ele>344.1</ele>
        <time>2023-09-11T10:17:18Z</time>
        <hdop>3.8</hdop>
        <extensions>
          <osmand:bearing>21.7</osmand:bearing>
          <osmand:speed>1.2</osmand:speed>
          <osmand:heading>0</osmand:heading>
        </extensions>
      </trkpt>
      <trkpt lat="38.5701418" lon="-7.9092089">
        <ele>344.8</ele>
        <time>2023-09-11T10:17:24Z</time>
        <hdop>3.8</hdop>
        <extensions>
          <osmand:bearing>25</osmand:bearing>
          <osmand:speed>1.1</osmand:speed>
          <osmand:heading>0</osmand:heading>
        </extensions>
      </trkpt>
      <trkpt lat="38.5701795" lon="-7.9091854">
        <ele>346.7</ele>
        <time>2023-09-11T10:17:29Z</time>
        <hdop>3.8</hdop>
        <extensions>
          <osmand:bearing>18.5</osmand:bearing>
          <osmand:speed>1</osmand:speed>
          <osmand:heading>0</osmand:heading>
        </extensions>
      </trkpt>
      <trkpt lat="38.5702262" lon="-7.9091477">
        <ele>349</ele>
        <time>2023-09-11T10:17:35Z</time>
        <hdop>3.8</hdop>
        <extensions>
          <osmand:bearing>36.1</osmand:bearing>
          <osmand:speed>1.1</osmand:speed>
          <osmand:heading>0</osmand:heading>
        </extensions>
      </trkpt>
      <trkpt lat="38.5702727" lon="-7.9091313">
        <ele>349.6</ele>
        <time>2023-09-11T10:17:40Z</time>
        <hdop>9.9</hdop>
        <extensions>
          <osmand:bearing>10.9</osmand:bearing>
          <osmand:speed>1.1</osmand:speed>
          <osmand:heading>0</osmand:heading>
        </extensions>
      </trkpt>
      <trkpt lat="38.5703286" lon="-7.9091134">
        <ele>350.2</ele>
        <time>2023-09-11T10:17:46Z</time>
        <hdop>9.9</hdop>
        <extensions>
          <osmand:bearing>31.3</osmand:bearing>
          <osmand:speed>1</osmand:speed>
          <osmand:heading>0</osmand:heading>
        </extensions>
      </trkpt>
      <trkpt lat="38.5703787" lon="-7.909099">
        <ele>349.3</ele>
        <time>2023-09-11T10:17:52Z</time>
        <hdop>3.8</hdop>
        <extensions>
          <osmand:bearing>2.5</osmand:bearing>
          <osmand:speed>1.1</osmand:speed>
          <osmand:heading>0</osmand:heading>
        </extensions>
      </trkpt>
      <trkpt lat="38.5704247" lon="-7.9091254">
        <ele>350.6</ele>
        <time>2023-09-11T10:17:57Z</time>
        <hdop>3.8</hdop>
        <extensions>
          <osmand:bearing>342.8</osmand:bearing>
          <osmand:speed>1.1</osmand:speed>
          <osmand:heading>0</osmand:heading>
        </extensions>
      </trkpt>
      <trkpt lat="38.5704619" lon="-7.9091565">
        <ele>350.6</ele>
        <time>2023-09-11T10:18:02Z</time>
        <hdop>3.8</hdop>
        <extensions>
          <osmand:bearing>331.9</osmand:bearing>
          <osmand:speed>1</osmand:speed>
          <osmand:heading>0</osmand:heading>
        </extensions>
      </trkpt>
      <trkpt lat="38.5704808" lon="-7.9091588">
        <ele>352</ele>
        <time>2023-09-11T10:18:07Z</time>
        <hdop>3.8</hdop>
        <extensions>
          <osmand:heading>0</osmand:heading>
        </extensions>
      </trkpt>
      <trkpt lat="38.5704934" lon="-7.9091637">
        <ele>351.3</ele>
        <time>2023-09-11T10:18:13Z</time>
        <hdop>3.8</hdop>
        <extensions>
          <osmand:bearing>334.1</osmand:bearing>
          <osmand:speed>1</osmand:speed>
          <osmand:heading>0</osmand:heading>
        </extensions>
      </trkpt>
      <trkpt lat="38.5705517" lon="-7.9091848">
        <ele>349.1</ele>
        <time>2023-09-11T10:18:19Z</time>
        <hdop>3.8</hdop>
        <extensions>
          <osmand:bearing>341.4</osmand:bearing>
          <osmand:speed>1</osmand:speed>
          <osmand:heading>0</osmand:heading>
        </extensions>
      </trkpt>
      <trkpt lat="38.5706033" lon="-7.9092033">
        <ele>349.1</ele>
        <time>2023-09-11T10:18:25Z</time>
        <hdop>3.8</hdop>
        <extensions>
          <osmand:bearing>343.8</osmand:bearing>
          <osmand:speed>0.6</osmand:speed>
          <osmand:heading>0</osmand:heading>
        </extensions>
      </trkpt>
      <trkpt lat="38.570652" lon="-7.909222">
        <ele>349.9</ele>
        <time>2023-09-11T10:18:31Z</time>
        <hdop>3.8</hdop>
        <extensions>
          <osmand:bearing>336.9</osmand:bearing>
          <osmand:speed>0.9</osmand:speed>
          <osmand:heading>0</osmand:heading>
        </extensions>
      </trkpt>
      <trkpt lat="38.5706605" lon="-7.9092422">
        <ele>349.1</ele>
        <time>2023-09-11T10:18:37Z</time>
        <hdop>3.8</hdop>
        <extensions>
          <osmand:heading>0</osmand:heading>
        </extensions>
      </trkpt>
      <trkpt lat="38.5707004" lon="-7.9092635">
        <ele>349.9</ele>
        <time>2023-09-11T10:18:42Z</time>
        <hdop>3.8</hdop>
        <extensions>
          <osmand:bearing>355.8</osmand:bearing>
          <osmand:speed>1.4</osmand:speed>
          <osmand:heading>0</osmand:heading>
        </extensions>
      </trkpt>
      <trkpt lat="38.5707735" lon="-7.9092242">
        <ele>347.9</ele>
        <time>2023-09-11T10:18:48Z</time>
        <hdop>3.8</hdop>
        <extensions>
          <osmand:bearing>25.3</osmand:bearing>
          <osmand:speed>1.1</osmand:speed>
          <osmand:heading>0</osmand:heading>
        </extensions>
      </trkpt>
      <trkpt lat="38.5708106" lon="-7.9091795">
        <ele>348.3</ele>
        <time>2023-09-11T10:18:53Z</time>
        <hdop>3.8</hdop>
        <extensions>
          <osmand:bearing>60.3</osmand:bearing>
          <osmand:speed>0.6</osmand:speed>
          <osmand:heading>0</osmand:heading>
        </extensions>
      </trkpt>
      <trkpt lat="38.5708399" lon="-7.9091151">
        <ele>348.9</ele>
        <time>2023-09-11T10:18:59Z</time>
        <hdop>10.1</hdop>
        <extensions>
          <osmand:bearing>57.1</osmand:bearing>
          <osmand:speed>1.3</osmand:speed>
          <osmand:heading>0</osmand:heading>
        </extensions>
      </trkpt>
      <trkpt lat="38.5708835" lon="-7.9090528">
        <ele>345.9</ele>
        <time>2023-09-11T10:19:04Z</time>
        <hdop>11.9</hdop>
        <extensions>
          <osmand:bearing>53.8</osmand:bearing>
          <osmand:speed>1</osmand:speed>
          <osmand:heading>0</osmand:heading>
        </extensions>
      </trkpt>
      <trkpt lat="38.5709319" lon="-7.9090252">
        <ele>344.5</ele>
        <time>2023-09-11T10:19:10Z</time>
        <hdop>11.5</hdop>
        <extensions>
          <osmand:bearing>42.6</osmand:bearing>
          <osmand:speed>1.8</osmand:speed>
          <osmand:heading>0</osmand:heading>
        </extensions>
      </trkpt>
      <trkpt lat="38.5709516" lon="-7.9089166">
        <ele>343.9</ele>
        <time>2023-09-11T10:19:15Z</time>
        <hdop>10.9</hdop>
        <extensions>
          <osmand:bearing>59.6</osmand:bearing>
          <osmand:speed>1.1</osmand:speed>
          <osmand:heading>0</osmand:heading>
        </extensions>
      </trkpt>
      <trkpt lat="38.5709624" lon="-7.9088876">
        <ele>347.9</ele>
        <time>2023-09-11T10:19:21Z</time>
        <hdop>10.2</hdop>
        <extensions>
          <osmand:heading>0</osmand:heading>
        </extensions>
      </trkpt>
      <trkpt lat="38.570983" lon="-7.9089352">
        <ele>348.7</ele>
        <time>2023-09-11T10:19:27Z</time>
        <hdop>9.9</hdop>
        <extensions>
          <osmand:bearing>340.1</osmand:bearing>
          <osmand:speed>0.5</osmand:speed>
          <osmand:heading>0</osmand:heading>
        </extensions>
      </trkpt>
      <trkpt lat="38.5710223" lon="-7.9089455">
        <ele>353.3</ele>
        <time>2023-09-11T10:19:32Z</time>
        <hdop>9.9</hdop>
        <extensions>
          <osmand:bearing>351.2</osmand:bearing>
          <osmand:speed>1.4</osmand:speed>
          <osmand:heading>0</osmand:heading>
        </extensions>
      </trkpt>
      <trkpt lat="38.5710661" lon="-7.9090065">
        <ele>356.8</ele>
        <time>2023-09-11T10:19:37Z</time>
        <hdop>9.9</hdop>
        <extensions>
          <osmand:bearing>338.9</osmand:bearing>
          <osmand:speed>1.3</osmand:speed>
          <osmand:heading>0</osmand:heading>
        </extensions>
      </trkpt>
      <trkpt lat="38.5710816" lon="-7.9090294">
        <ele>356.9</ele>
        <time>2023-09-11T10:19:43Z</time>
        <hdop>9.9</hdop>
        <extensions>
          <osmand:heading>0</osmand:heading>
        </extensions>
      </trkpt>
      <trkpt lat="38.5711369" lon="-7.9090486">
        <ele>356.1</ele>
        <time>2023-09-11T10:19:49Z</time>
        <hdop>9.9</hdop>
        <extensions>
          <osmand:bearing>350</osmand:bearing>
          <osmand:speed>1.1</osmand:speed>
          <osmand:heading>0</osmand:heading>
        </extensions>
      </trkpt>
      <trkpt lat="38.5711992" lon="-7.9090741">
        <ele>357.1</ele>
        <time>2023-09-11T10:19:55Z</time>
        <hdop>9.9</hdop>
        <extensions>
          <osmand:bearing>322.1</osmand:bearing>
          <osmand:speed>1.4</osmand:speed>
          <osmand:heading>0</osmand:heading>
        </extensions>
      </trkpt>
      <trkpt lat="38.57126" lon="-7.9091057">
        <ele>355.3</ele>
        <time>2023-09-11T10:20:01Z</time>
        <hdop>9.9</hdop>
        <extensions>
          <osmand:bearing>355.2</osmand:bearing>
          <osmand:speed>1.6</osmand:speed>
          <osmand:heading>0</osmand:heading>
        </extensions>
      </trkpt>
      <trkpt lat="38.571303" lon="-7.909107">
        <ele>356.4</ele>
        <time>2023-09-11T10:20:07Z</time>
        <hdop>9.9</hdop>
        <extensions>
          <osmand:bearing>11.1</osmand:bearing>
          <osmand:speed>0.6</osmand:speed>
          <osmand:heading>0</osmand:heading>
        </extensions>
      </trkpt>
      <trkpt lat="38.5712967" lon="-7.9090968">
        <ele>355.5</ele>
        <time>2023-09-11T10:20:13Z</time>
        <hdop>9.9</hdop>
        <extensions>
          <osmand:bearing>122.1</osmand:bearing>
          <osmand:speed>0.5</osmand:speed>
          <osmand:heading>0</osmand:heading>
        </extensions>
      </trkpt>
      <trkpt lat="38.5713299" lon="-7.9091176">
        <ele>355</ele>
        <time>2023-09-11T10:20:19Z</time>
        <hdop>9.9</hdop>
        <extensions>
          <osmand:bearing>326.6</osmand:bearing>
          <osmand:speed>1.1</osmand:speed>
          <osmand:heading>0</osmand:heading>
        </extensions>
      </trkpt>
      <trkpt lat="38.5713759" lon="-7.9091653">
        <ele>354.8</ele>
        <time>2023-09-11T10:20:25Z</time>
        <hdop>9.9</hdop>
        <extensions>
          <osmand:bearing>314.4</osmand:bearing>
          <osmand:speed>0.7</osmand:speed>
          <osmand:heading>0</osmand:heading>
        </extensions>
      </trkpt>
      <trkpt lat="38.5713717" lon="-7.9091746">
        <ele>355.4</ele>
        <time>2023-09-11T10:20:31Z</time>
        <hdop>10.1</hdop>
        <extensions>
          <osmand:heading>0</osmand:heading>
        </extensions>
      </trkpt>
      <trkpt lat="38.5713623" lon="-7.9091932">
        <ele>355.9</ele>
        <time>2023-09-11T10:20:37Z</time>
        <hdop>9.9</hdop>
        <extensions>
          <osmand:heading>0</osmand:heading>
        </extensions>
      </trkpt>
      <trkpt lat="38.5713828" lon="-7.9092262">
        <ele>355.7</ele>
        <time>2023-09-11T10:20:43Z</time>
        <hdop>9.9</hdop>
        <extensions>
          <osmand:bearing>311.4</osmand:bearing>
          <osmand:speed>1.2</osmand:speed>
          <osmand:heading>0</osmand:heading>
        </extensions>
      </trkpt>
      <trkpt lat="38.571426" lon="-7.9092654">
        <ele>357.1</ele>
        <time>2023-09-11T10:20:49Z</time>
        <hdop>9.9</hdop>
        <extensions>
          <osmand:bearing>328.2</osmand:bearing>
          <osmand:speed>1</osmand:speed>
          <osmand:heading>0</osmand:heading>
        </extensions>
      </trkpt>
      <trkpt lat="38.5714606" lon="-7.9093013">
        <ele>356.5</ele>
        <time>2023-09-11T10:20:55Z</time>
        <hdop>9.9</hdop>
        <extensions>
          <osmand:bearing>321.9</osmand:bearing>
          <osmand:speed>1.4</osmand:speed>
          <osmand:heading>0</osmand:heading>
        </extensions>
      </trkpt>
      <trkpt lat="38.5715109" lon="-7.9093773">
        <ele>355.8</ele>
        <time>2023-09-11T10:21:01Z</time>
        <hdop>9.9</hdop>
        <extensions>
          <osmand:bearing>321.1</osmand:bearing>
          <osmand:speed>1.3</osmand:speed>
          <osmand:heading>0</osmand:heading>
        </extensions>
      </trkpt>
      <trkpt lat="38.5715603" lon="-7.9094081">
        <ele>356.2</ele>
        <time>2023-09-11T10:21:06Z</time>
        <hdop>9.9</hdop>
        <extensions>
          <osmand:bearing>321.6</osmand:bearing>
          <osmand:speed>1.3</osmand:speed>
          <osmand:heading>0</osmand:heading>
        </extensions>
      </trkpt>
      <trkpt lat="38.571625" lon="-7.9094346">
        <ele>355</ele>
        <time>2023-09-11T10:21:12Z</time>
        <hdop>9.9</hdop>
        <extensions>
          <osmand:bearing>344.2</osmand:bearing>
          <osmand:speed>1.5</osmand:speed>
          <osmand:heading>0</osmand:heading>
        </extensions>
      </trkpt>
      <trkpt lat="38.5716696" lon="-7.9094598">
        <ele>356.5</ele>
        <time>2023-09-11T10:21:17Z</time>
        <hdop>3.8</hdop>
        <extensions>
          <osmand:bearing>309.3</osmand:bearing>
          <osmand:speed>0.6</osmand:speed>
          <osmand:heading>0</osmand:heading>
        </extensions>
      </trkpt>
      <trkpt lat="38.5716739" lon="-7.9094566">
        <ele>356.7</ele>
        <time>2023-09-11T10:21:23Z</time>
        <hdop>3.8</hdop>
        <extensions>
          <osmand:heading>0</osmand:heading>
        </extensions>
      </trkpt>
      <trkpt lat="38.571679" lon="-7.9094549">
        <ele>357.2</ele>
        <time>2023-09-11T10:21:30Z</time>
        <hdop>3.8</hdop>
        <extensions>
          <osmand:heading>0</osmand:heading>
        </extensions>
      </trkpt>
      <trkpt lat="38.5716975" lon="-7.9094588">
        <ele>358.2</ele>
        <time>2023-09-11T10:21:36Z</time>
        <hdop>3.8</hdop>
        <extensions>
          <osmand:bearing>7.9</osmand:bearing>
          <osmand:speed>1.2</osmand:speed>
          <osmand:heading>0</osmand:heading>
        </extensions>
      </trkpt>
      <trkpt lat="38.5717153" lon="-7.9094659">
        <ele>358.5</ele>
        <time>2023-09-11T10:21:41Z</time>
        <hdop>3.8</hdop>
        <extensions>
          <osmand:heading>0</osmand:heading>
        </extensions>
      </trkpt>
      <trkpt lat="38.5717215" lon="-7.9094616">
        <ele>358.3</ele>
        <time>2023-09-11T10:21:46Z</time>
        <hdop>3.8</hdop>
        <extensions>
          <osmand:heading>0</osmand:heading>
        </extensions>
      </trkpt>
      <trkpt lat="38.5717182" lon="-7.9094568">
        <ele>357.8</ele>
        <time>2023-09-11T10:21:52Z</time>
        <hdop>3.8</hdop>
        <extensions>
          <osmand:bearing>82.4</osmand:bearing>
          <osmand:speed>0.4</osmand:speed>
          <osmand:heading>0</osmand:heading>
        </extensions>
      </trkpt>
      <trkpt lat="38.5717119" lon="-7.9094561">
        <ele>359.7</ele>
        <time>2023-09-11T10:21:57Z</time>
        <hdop>3.8</hdop>
        <extensions>
          <osmand:bearing>227.5</osmand:bearing>
          <osmand:speed>0.5</osmand:speed>
          <osmand:heading>0</osmand:heading>
        </extensions>
      </trkpt>
      <trkpt lat="38.571706" lon="-7.9094607">
        <ele>359.5</ele>
        <time>2023-09-11T10:22:03Z</time>
        <hdop>3.8</hdop>
        <extensions>
          <osmand:bearing>195.3</osmand:bearing>
          <osmand:speed>0.3</osmand:speed>
          <osmand:heading>0</osmand:heading>
        </extensions>
      </trkpt>
      <trkpt lat="38.5716929" lon="-7.9094582">
        <ele>359.4</ele>
        <time>2023-09-11T10:22:09Z</time>
        <hdop>3.8</hdop>
        <extensions>
          <osmand:bearing>154.9</osmand:bearing>
          <osmand:speed>0.2</osmand:speed>
          <osmand:heading>0</osmand:heading>
        </extensions>
      </trkpt>
      <trkpt lat="38.5717074" lon="-7.9094642">
        <ele>359.4</ele>
        <time>2023-09-11T10:22:17Z</time>
        <hdop>3.8</hdop>
        <extensions>
          <osmand:heading>0</osmand:heading>
        </extensions>
      </trkpt>
      <trkpt lat="38.5717071" lon="-7.909466">
        <ele>359.4</ele>
        <time>2023-09-11T10:22:23Z</time>
        <hdop>3.8</hdop>
        <extensions>
          <osmand:heading>0</osmand:heading>
        </extensions>
      </trkpt>
      <trkpt lat="38.5717072" lon="-7.9094659">
        <ele>359.5</ele>
        <time>2023-09-11T10:22:28Z</time>
        <hdop>3.8</hdop>
        <extensions>
          <osmand:heading>0</osmand:heading>
        </extensions>
      </trkpt>
      <trkpt lat="38.5717075" lon="-7.909469">
        <ele>359.5</ele>
        <time>2023-09-11T10:22:33Z</time>
        <hdop>3.8</hdop>
        <extensions>
          <osmand:bearing>349.3</osmand:bearing>
          <osmand:speed>0.6</osmand:speed>
          <osmand:heading>0</osmand:heading>
        </extensions>
      </trkpt>
      <trkpt lat="38.5717038" lon="-7.9094926">
        <ele>358.9</ele>
        <time>2023-09-11T10:22:38Z</time>
        <hdop>9.9</hdop>
        <extensions>
          <osmand:bearing>266</osmand:bearing>
          <osmand:speed>0.2</osmand:speed>
          <osmand:heading>0</osmand:heading>
        </extensions>
      </trkpt>
      <trkpt lat="38.5717031" lon="-7.9094907">
        <ele>357.5</ele>
        <time>2023-09-11T10:22:44Z</time>
        <hdop>9.9</hdop>
        <extensions>
          <osmand:heading>0</osmand:heading>
        </extensions>
      </trkpt>
      <trkpt lat="38.5717026" lon="-7.9094936">
        <ele>358</ele>
        <time>2023-09-11T10:22:50Z</time>
        <hdop>9.9</hdop>
        <extensions>
          <osmand:heading>0</osmand:heading>
        </extensions>
      </trkpt>
      <trkpt lat="38.5717003" lon="-7.9095035">
        <ele>358.6</ele>
        <time>2023-09-11T10:22:56Z</time>
        <hdop>9.9</hdop>
        <extensions>
          <osmand:heading>0</osmand:heading>
        </extensions>
      </trkpt>
      <trkpt lat="38.5717025" lon="-7.9095035">
        <ele>358.3</ele>
        <time>2023-09-11T10:23:01Z</time>
        <hdop>9.9</hdop>
        <extensions>
          <osmand:heading>0</osmand:heading>
        </extensions>
      </trkpt>
      <trkpt lat="38.5717145" lon="-7.9095179">
        <ele>358.4</ele>
        <time>2023-09-11T10:23:07Z</time>
        <hdop>9.9</hdop>
        <extensions>
          <osmand:bearing>314.7</osmand:bearing>
          <osmand:speed>1.1</osmand:speed>
          <osmand:heading>0</osmand:heading>
        </extensions>
      </trkpt>
      <trkpt lat="38.5717588" lon="-7.9095713">
        <ele>358.8</ele>
        <time>2023-09-11T10:23:12Z</time>
        <hdop>9.9</hdop>
        <extensions>
          <osmand:bearing>313</osmand:bearing>
          <osmand:speed>1.4</osmand:speed>
          <osmand:heading>0</osmand:heading>
        </extensions>
      </trkpt>
      <trkpt lat="38.5718106" lon="-7.9096164">
        <ele>359.2</ele>
        <time>2023-09-11T10:23:17Z</time>
        <hdop>9.9</hdop>
        <extensions>
          <osmand:bearing>322.5</osmand:bearing>
          <osmand:speed>1.4</osmand:speed>
          <osmand:heading>0</osmand:heading>
        </extensions>
      </trkpt>
      <trkpt lat="38.5718693" lon="-7.9096686">
        <ele>359.5</ele>
        <time>2023-09-11T10:23:23Z</time>
        <hdop>9.9</hdop>
        <extensions>
          <osmand:bearing>317.1</osmand:bearing>
          <osmand:speed>1.4</osmand:speed>
          <osmand:heading>0</osmand:heading>
        </extensions>
      </trkpt>
      <trkpt lat="38.5719044" lon="-7.9096996">
        <ele>358.6</ele>
        <time>2023-09-11T10:23:28Z</time>
        <hdop>3.8</hdop>
        <extensions>
          <osmand:bearing>316.3</osmand:bearing>
          <osmand:speed>0.3</osmand:speed>
          <osmand:heading>0</osmand:heading>
        </extensions>
      </trkpt>
      <trkpt lat="38.5719389" lon="-7.9097284">
        <ele>356.7</ele>
        <time>2023-09-11T10:23:34Z</time>
        <hdop>3.8</hdop>
        <extensions>
          <osmand:bearing>324.1</osmand:bearing>
          <osmand:speed>1.5</osmand:speed>
          <osmand:heading>0</osmand:heading>
        </extensions>
      </trkpt>
      <trkpt lat="38.5719981" lon="-7.9097508">
        <ele>356.5</ele>
        <time>2023-09-11T10:23:40Z</time>
        <hdop>3.8</hdop>
        <extensions>
          <osmand:bearing>351.8</osmand:bearing>
          <osmand:speed>1.1</osmand:speed>
          <osmand:heading>0</osmand:heading>
        </extensions>
      </trkpt>
      <trkpt lat="38.5720549" lon="-7.9097822">
        <ele>356.5</ele>
        <time>2023-09-11T10:23:46Z</time>
        <hdop>3.8</hdop>
        <extensions>
          <osmand:bearing>346.1</osmand:bearing>
          <osmand:speed>1.3</osmand:speed>
          <osmand:heading>0</osmand:heading>
        </extensions>
      </trkpt>
      <trkpt lat="38.5721095" lon="-7.9097799">
        <ele>356.1</ele>
        <time>2023-09-11T10:23:52Z</time>
        <hdop>3.8</hdop>
        <extensions>
          <osmand:bearing>10.5</osmand:bearing>
          <osmand:speed>1.2</osmand:speed>
          <osmand:heading>0</osmand:heading>
        </extensions>
      </trkpt>
      <trkpt lat="38.5721588" lon="-7.9097825">
        <ele>354.2</ele>
        <time>2023-09-11T10:23:57Z</time>
        <hdop>3.8</hdop>
        <extensions>
          <osmand:bearing>349.9</osmand:bearing>
          <osmand:speed>1.2</osmand:speed>
          <osmand:heading>0</osmand:heading>
        </extensions>
      </trkpt>
      <trkpt lat="38.5722158" lon="-7.9098174">
        <ele>354</ele>
        <time>2023-09-11T10:24:03Z</time>
        <hdop>3.8</hdop>
        <extensions>
          <osmand:bearing>338.9</osmand:bearing>
          <osmand:speed>1.2</osmand:speed>
          <osmand:heading>0</osmand:heading>
        </extensions>
      </trkpt>
      <trkpt lat="38.5722627" lon="-7.9098444">
        <ele>354.3</ele>
        <time>2023-09-11T10:24:08Z</time>
        <hdop>3.8</hdop>
        <extensions>
          <osmand:bearing>342.2</osmand:bearing>
          <osmand:speed>1.2</osmand:speed>
          <osmand:heading>0</osmand:heading>
        </extensions>
      </trkpt>
      <trkpt lat="38.5723296" lon="-7.9098567">
        <ele>354.1</ele>
        <time>2023-09-11T10:24:14Z</time>
        <hdop>3.8</hdop>
        <extensions>
          <osmand:bearing>354.8</osmand:bearing>
          <osmand:speed>1.3</osmand:speed>
          <osmand:heading>0</osmand:heading>
        </extensions>
      </trkpt>
      <trkpt lat="38.5724053" lon="-7.9098424">
        <ele>354.5</ele>
        <time>2023-09-11T10:24:20Z</time>
        <hdop>3.8</hdop>
        <extensions>
          <osmand:bearing>356.5</osmand:bearing>
          <osmand:speed>1.3</osmand:speed>
          <osmand:heading>0</osmand:heading>
        </extensions>
      </trkpt>
      <trkpt lat="38.5724575" lon="-7.9098375">
        <ele>355.4</ele>
        <time>2023-09-11T10:24:26Z</time>
        <hdop>3.8</hdop>
        <extensions>
          <osmand:bearing>348.7</osmand:bearing>
          <osmand:speed>1.1</osmand:speed>
          <osmand:heading>0</osmand:heading>
        </extensions>
      </trkpt>
      <trkpt lat="38.5725081" lon="-7.9098369">
        <ele>355</ele>
        <time>2023-09-11T10:24:31Z</time>
        <hdop>3.8</hdop>
        <extensions>
          <osmand:bearing>353.4</osmand:bearing>
          <osmand:speed>1.1</osmand:speed>
          <osmand:heading>0</osmand:heading>
        </extensions>
      </trkpt>
      <trkpt lat="38.5725409" lon="-7.9098847">
        <ele>355.6</ele>
        <time>2023-09-11T10:24:37Z</time>
        <hdop>3.8</hdop>
        <extensions>
          <osmand:bearing>312.3</osmand:bearing>
          <osmand:speed>0.8</osmand:speed>
          <osmand:heading>0</osmand:heading>
        </extensions>
      </trkpt>
      <trkpt lat="38.5725662" lon="-7.9099293">
        <ele>355.5</ele>
        <time>2023-09-11T10:24:43Z</time>
        <hdop>3.8</hdop>
        <extensions>
          <osmand:bearing>302.3</osmand:bearing>
          <osmand:speed>1</osmand:speed>
          <osmand:heading>0</osmand:heading>
        </extensions>
      </trkpt>
      <trkpt lat="38.5725736" lon="-7.9099371">
        <ele>356</ele>
        <time>2023-09-11T10:24:49Z</time>
        <hdop>3.8</hdop>
        <extensions>
          <osmand:bearing>54.7</osmand:bearing>
          <osmand:speed>0.4</osmand:speed>
          <osmand:heading>0</osmand:heading>
        </extensions>
      </trkpt>
      <trkpt lat="38.5725848" lon="-7.9098576">
        <ele>357</ele>
        <time>2023-09-11T10:24:55Z</time>
        <hdop>3.8</hdop>
        <extensions>
          <osmand:bearing>73.2</osmand:bearing>
          <osmand:speed>1.2</osmand:speed>
          <osmand:heading>0</osmand:heading>
        </extensions>
      </trkpt>
      <trkpt lat="38.5726022" lon="-7.9097854">
        <ele>357.9</ele>
        <time>2023-09-11T10:25:01Z</time>
        <hdop>3.8</hdop>
        <extensions>
          <osmand:bearing>77.1</osmand:bearing>
          <osmand:speed>1.1</osmand:speed>
          <osmand:heading>0</osmand:heading>
        </extensions>
      </trkpt>
      <trkpt lat="38.572612" lon="-7.9097329">
        <ele>357</ele>
        <time>2023-09-11T10:25:07Z</time>
        <hdop>3.8</hdop>
        <extensions>
          <osmand:bearing>63.9</osmand:bearing>
          <osmand:speed>0.2</osmand:speed>
          <osmand:heading>0</osmand:heading>
        </extensions>
      </trkpt>
      <trkpt lat="38.5726173" lon="-7.9097406">
        <ele>357</ele>
        <time>2023-09-11T10:25:12Z</time>
        <hdop>3.8</hdop>
        <extensions>
          <osmand:heading>0</osmand:heading>
        </extensions>
      </trkpt>
      <trkpt lat="38.5726104" lon="-7.909756">
        <ele>357.8</ele>
        <time>2023-09-11T10:25:18Z</time>
        <hdop>3.8</hdop>
        <extensions>
          <osmand:bearing>245.4</osmand:bearing>
          <osmand:speed>0.2</osmand:speed>
          <osmand:heading>0</osmand:heading>
        </extensions>
      </trkpt>
      <trkpt lat="38.5726411" lon="-7.9096751">
        <ele>356.6</ele>
        <time>2023-09-11T10:25:24Z</time>
        <hdop>3.8</hdop>
        <extensions>
          <osmand:bearing>76.8</osmand:bearing>
          <osmand:speed>1.1</osmand:speed>
          <osmand:heading>0</osmand:heading>
        </extensions>
      </trkpt>
      <trkpt lat="38.5726308" lon="-7.9095476">
        <ele>356.9</ele>
        <time>2023-09-11T10:25:30Z</time>
        <hdop>4.3</hdop>
        <extensions>
          <osmand:bearing>75.4</osmand:bearing>
          <osmand:speed>1.4</osmand:speed>
          <osmand:heading>0</osmand:heading>
        </extensions>
      </trkpt>
      <trkpt lat="38.5726403" lon="-7.9094564">
        <ele>356</ele>
        <time>2023-09-11T10:25:35Z</time>
        <hdop>3.8</hdop>
        <extensions>
          <osmand:bearing>56.7</osmand:bearing>
          <osmand:speed>1.1</osmand:speed>
          <osmand:heading>0</osmand:heading>
        </extensions>
      </trkpt>
      <trkpt lat="38.5726636" lon="-7.9093683">
        <ele>352.9</ele>
        <time>2023-09-11T10:25:41Z</time>
        <hdop>10.3</hdop>
        <extensions>
          <osmand:bearing>63</osmand:bearing>
          <osmand:speed>1.5</osmand:speed>
          <osmand:heading>0</osmand:heading>
        </extensions>
      </trkpt>
      <trkpt lat="38.5726793" lon="-7.9093073">
        <ele>351.2</ele>
        <time>2023-09-11T10:25:46Z</time>
        <hdop>9.9</hdop>
        <extensions>
          <osmand:bearing>60.1</osmand:bearing>
          <osmand:speed>1.1</osmand:speed>
          <osmand:heading>0</osmand:heading>
        </extensions>
      </trkpt>
      <trkpt lat="38.5727016" lon="-7.909241">
        <ele>351.5</ele>
        <time>2023-09-11T10:25:51Z</time>
        <hdop>9.9</hdop>
        <extensions>
          <osmand:bearing>71</osmand:bearing>
          <osmand:speed>0.9</osmand:speed>
          <osmand:heading>0</osmand:heading>
        </extensions>
      </trkpt>
      <trkpt lat="38.5727196" lon="-7.9091653">
        <ele>354.7</ele>
        <time>2023-09-11T10:25:56Z</time>
        <hdop>9.9</hdop>
        <extensions>
          <osmand:bearing>62.2</osmand:bearing>
          <osmand:speed>1.2</osmand:speed>
          <osmand:heading>0</osmand:heading>
        </extensions>
      </trkpt>
      <trkpt lat="38.5727703" lon="-7.9091354">
        <ele>361.1</ele>
        <time>2023-09-11T10:26:02Z</time>
        <hdop>9.9</hdop>
        <extensions>
          <osmand:heading>0</osmand:heading>
        </extensions>
      </trkpt>
      <trkpt lat="38.5728001" lon="-7.9091733">
        <ele>362.9</ele>
        <time>2023-09-11T10:26:08Z</time>
        <hdop>9.9</hdop>
        <extensions>
          <osmand:heading>0</osmand:heading>
        </extensions>
      </trkpt>
      <trkpt lat="38.5728086" lon="-7.9091862">
        <ele>363.1</ele>
        <time>2023-09-11T10:26:14Z</time>
        <hdop>9.9</hdop>
        <extensions>
          <osmand:heading>0</osmand:heading>
        </extensions>
      </trkpt>
      <trkpt lat="38.5728156" lon="-7.9091897">
        <ele>363.6</ele>
        <time>2023-09-11T10:26:21Z</time>
        <hdop>9.9</hdop>
        <extensions>
          <osmand:heading>0</osmand:heading>
        </extensions>
      </trkpt>
      <trkpt lat="38.5728224" lon="-7.9091966">
        <ele>362.5</ele>
        <time>2023-09-11T10:26:26Z</time>
        <hdop>9.9</hdop>
        <extensions>
          <osmand:heading>0</osmand:heading>
        </extensions>
      </trkpt>
      <trkpt lat="38.5728356" lon="-7.9092047">
        <ele>359.2</ele>
        <time>2023-09-11T10:26:32Z</time>
        <hdop>9.9</hdop>
        <extensions>
          <osmand:bearing>349.2</osmand:bearing>
          <osmand:speed>1</osmand:speed>
          <osmand:heading>0</osmand:heading>
        </extensions>
      </trkpt>
      <trkpt lat="38.5729067" lon="-7.9092382">
        <ele>355.7</ele>
        <time>2023-09-11T10:26:38Z</time>
        <hdop>9.9</hdop>
        <extensions>
          <osmand:bearing>325.4</osmand:bearing>
          <osmand:speed>1.1</osmand:speed>
          <osmand:heading>0</osmand:heading>
        </extensions>
      </trkpt>
      <trkpt lat="38.5729575" lon="-7.9092543">
        <ele>352.4</ele>
        <time>2023-09-11T10:26:47Z</time>
        <hdop>9.9</hdop>
        <extensions>
          <osmand:heading>0</osmand:heading>
        </extensions>
      </trkpt>
      <trkpt lat="38.5729574" lon="-7.9092563">
        <ele>352.2</ele>
        <time>2023-09-11T10:26:52Z</time>
        <hdop>9.9</hdop>
        <extensions>
          <osmand:heading>0</osmand:heading>
        </extensions>
      </trkpt>
      <trkpt lat="38.5729548" lon="-7.9092587">
        <ele>353.1</ele>
        <time>2023-09-11T10:26:58Z</time>
        <hdop>9.9</hdop>
        <extensions>
          <osmand:bearing>151.9</osmand:bearing>
          <osmand:speed>0.2</osmand:speed>
          <osmand:heading>0</osmand:heading>
        </extensions>
      </trkpt>
      <trkpt lat="38.5729555" lon="-7.9092732">
        <ele>353</ele>
        <time>2023-09-11T10:27:04Z</time>
        <hdop>9.9</hdop>
        <extensions>
          <osmand:heading>0</osmand:heading>
        </extensions>
      </trkpt>
      <trkpt lat="38.572956" lon="-7.9092734">
        <ele>352.1</ele>
        <time>2023-09-11T10:27:10Z</time>
        <hdop>9.9</hdop>
        <extensions>
          <osmand:bearing>95.7</osmand:bearing>
          <osmand:speed>0.3</osmand:speed>
          <osmand:heading>0</osmand:heading>
        </extensions>
      </trkpt>
      <trkpt lat="38.5729626" lon="-7.9092755">
        <ele>351.4</ele>
        <time>2023-09-11T10:27:16Z</time>
        <hdop>9.9</hdop>
        <extensions>
          <osmand:bearing>5.4</osmand:bearing>
          <osmand:speed>0.7</osmand:speed>
          <osmand:heading>0</osmand:heading>
        </extensions>
      </trkpt>
      <trkpt lat="38.5729964" lon="-7.9092587">
        <ele>351.7</ele>
        <time>2023-09-11T10:27:21Z</time>
        <hdop>9.9</hdop>
        <extensions>
          <osmand:bearing>30</osmand:bearing>
          <osmand:speed>1.3</osmand:speed>
          <osmand:heading>0</osmand:heading>
        </extensions>
      </trkpt>
      <trkpt lat="38.5730533" lon="-7.9092374">
        <ele>351.4</ele>
        <time>2023-09-11T10:27:27Z</time>
        <hdop>3.8</hdop>
        <extensions>
          <osmand:bearing>1.5</osmand:bearing>
          <osmand:speed>1.2</osmand:speed>
          <osmand:heading>0</osmand:heading>
        </extensions>
      </trkpt>
      <trkpt lat="38.5731042" lon="-7.9092314">
        <ele>350.5</ele>
        <time>2023-09-11T10:27:32Z</time>
        <hdop>3.8</hdop>
        <extensions>
          <osmand:bearing>19.7</osmand:bearing>
          <osmand:speed>1.2</osmand:speed>
          <osmand:heading>0</osmand:heading>
        </extensions>
      </trkpt>
      <trkpt lat="38.5731403" lon="-7.9091925">
        <ele>350.7</ele>
        <time>2023-09-11T10:27:37Z</time>
        <hdop>3.8</hdop>
        <extensions>
          <osmand:bearing>42.7</osmand:bearing>
          <osmand:speed>1.3</osmand:speed>
          <osmand:heading>0</osmand:heading>
        </extensions>
      </trkpt>
      <trkpt lat="38.573168" lon="-7.9091145">
        <ele>350.4</ele>
        <time>2023-09-11T10:27:43Z</time>
        <hdop>3.8</hdop>
        <extensions>
          <osmand:bearing>73.6</osmand:bearing>
          <osmand:speed>1.2</osmand:speed>
          <osmand:heading>0</osmand:heading>
        </extensions>
      </trkpt>
      <trkpt lat="38.5731857" lon="-7.9090465">
        <ele>350.3</ele>
        <time>2023-09-11T10:27:48Z</time>
        <hdop>3.8</hdop>
        <extensions>
          <osmand:bearing>72.9</osmand:bearing>
          <osmand:speed>1.3</osmand:speed>
          <osmand:heading>0</osmand:heading>
        </extensions>
      </trkpt>
      <trkpt lat="38.5732015" lon="-7.9089619">
        <ele>350.5</ele>
        <time>2023-09-11T10:27:54Z</time>
        <hdop>3.8</hdop>
        <extensions>
          <osmand:bearing>72.6</osmand:bearing>
          <osmand:speed>1.3</osmand:speed>
          <osmand:heading>0</osmand:heading>
        </extensions>
      </trkpt>
      <trkpt lat="38.5732157" lon="-7.9089104">
        <ele>350.9</ele>
        <time>2023-09-11T10:28:00Z</time>
        <hdop>3.8</hdop>
        <extensions>
          <osmand:bearing>74.2</osmand:bearing>
          <osmand:speed>0.8</osmand:speed>
          <osmand:heading>0</osmand:heading>
        </extensions>
      </trkpt>
      <trkpt lat="38.5732336" lon="-7.9088334">
        <ele>351.5</ele>
        <time>2023-09-11T10:28:06Z</time>
        <hdop>3.8</hdop>
        <extensions>
          <osmand:bearing>72.2</osmand:bearing>
          <osmand:speed>1.3</osmand:speed>
          <osmand:heading>0</osmand:heading>
        </extensions>
      </trkpt>
      <trkpt lat="38.5732553" lon="-7.9087738">
        <ele>350.9</ele>
        <time>2023-09-11T10:28:11Z</time>
        <hdop>3.8</hdop>
        <extensions>
          <osmand:bearing>61.9</osmand:bearing>
          <osmand:speed>1.4</osmand:speed>
          <osmand:heading>0</osmand:heading>
        </extensions>
      </trkpt>
      <trkpt lat="38.5732772" lon="-7.9086947">
        <ele>350.9</ele>
        <time>2023-09-11T10:28:17Z</time>
        <hdop>3.8</hdop>
        <extensions>
          <osmand:bearing>68.3</osmand:bearing>
          <osmand:speed>1.4</osmand:speed>
          <osmand:heading>0</osmand:heading>
        </extensions>
      </trkpt>
      <trkpt lat="38.5732984" lon="-7.9086107">
        <ele>351.5</ele>
        <time>2023-09-11T10:28:23Z</time>
        <hdop>3.8</hdop>
        <extensions>
          <osmand:bearing>70.8</osmand:bearing>
          <osmand:speed>1.3</osmand:speed>
          <osmand:heading>0</osmand:heading>
        </extensions>
      </trkpt>
      <trkpt lat="38.5733173" lon="-7.9085347">
        <ele>351.9</ele>
        <time>2023-09-11T10:28:29Z</time>
        <hdop>3.8</hdop>
        <extensions>
          <osmand:bearing>74.9</osmand:bearing>
          <osmand:speed>1.2</osmand:speed>
          <osmand:heading>0</osmand:heading>
        </extensions>
      </trkpt>
      <trkpt lat="38.5733284" lon="-7.9084712">
        <ele>351.9</ele>
        <time>2023-09-11T10:28:34Z</time>
        <hdop>3.8</hdop>
        <extensions>
          <osmand:bearing>79.7</osmand:bearing>
          <osmand:speed>1.1</osmand:speed>
          <osmand:heading>0</osmand:heading>
        </extensions>
      </trkpt>
      <trkpt lat="38.5733257" lon="-7.9084579">
        <ele>352</ele>
        <time>2023-09-11T10:28:39Z</time>
        <hdop>3.8</hdop>
        <extensions>
          <osmand:bearing>90.9</osmand:bearing>
          <osmand:speed>0.7</osmand:speed>
          <osmand:heading>0</osmand:heading>
        </extensions>
      </trkpt>
      <trkpt lat="38.5733242" lon="-7.9084246">
        <ele>352.3</ele>
        <time>2023-09-11T10:28:45Z</time>
        <hdop>3.8</hdop>
        <extensions>
          <osmand:heading>0</osmand:heading>
        </extensions>
      </trkpt>
      <trkpt lat="38.5733208" lon="-7.9084105">
        <ele>352.4</ele>
        <time>2023-09-11T10:28:50Z</time>
        <hdop>3.8</hdop>
        <extensions>
          <osmand:bearing>104.9</osmand:bearing>
          <osmand:speed>1.1</osmand:speed>
          <osmand:heading>0</osmand:heading>
        </extensions>
      </trkpt>
      <trkpt lat="38.5733085" lon="-7.9083461">
        <ele>352.7</ele>
        <time>2023-09-11T10:28:56Z</time>
        <hdop>3.8</hdop>
        <extensions>
          <osmand:bearing>122.8</osmand:bearing>
          <osmand:speed>0.9</osmand:speed>
          <osmand:heading>0</osmand:heading>
        </extensions>
      </trkpt>
      <trkpt lat="38.5733028" lon="-7.9083385">
        <ele>352.8</ele>
        <time>2023-09-11T10:29:01Z</time>
        <hdop>3.8</hdop>
        <extensions>
          <osmand:bearing>126.4</osmand:bearing>
          <osmand:speed>0.3</osmand:speed>
          <osmand:heading>0</osmand:heading>
        </extensions>
      </trkpt>
      <trkpt lat="38.5732823" lon="-7.9083158">
        <ele>352.6</ele>
        <time>2023-09-11T10:29:07Z</time>
        <hdop>3.8</hdop>
        <extensions>
          <osmand:heading>0</osmand:heading>
        </extensions>
      </trkpt>
      <trkpt lat="38.573284" lon="-7.908318">
        <ele>352.7</ele>
        <time>2023-09-11T10:29:13Z</time>
        <hdop>3.8</hdop>
        <extensions>
          <osmand:heading>0</osmand:heading>
        </extensions>
      </trkpt>
      <trkpt lat="38.5732788" lon="-7.9083013">
        <ele>353.1</ele>
        <time>2023-09-11T10:29:19Z</time>
        <hdop>3.8</hdop>
        <extensions>
          <osmand:heading>0</osmand:heading>
        </extensions>
      </trkpt>
      <trkpt lat="38.5732786" lon="-7.9083013">
        <ele>353.1</ele>
        <time>2023-09-11T10:29:24Z</time>
        <hdop>3.8</hdop>
        <extensions>
          <osmand:heading>0</osmand:heading>
        </extensions>
      </trkpt>
      <trkpt lat="38.5732684" lon="-7.9082944">
        <ele>353.3</ele>
        <time>2023-09-11T10:29:30Z</time>
        <hdop>3.8</hdop>
        <extensions>
          <osmand:heading>0</osmand:heading>
        </extensions>
      </trkpt>
      <trkpt lat="38.5732711" lon="-7.9082777">
        <ele>353.9</ele>
        <time>2023-09-11T10:29:35Z</time>
        <hdop>3.8</hdop>
        <extensions>
          <osmand:heading>0</osmand:heading>
        </extensions>
      </trkpt>
      <trkpt lat="38.5732416" lon="-7.908267">
        <ele>354.6</ele>
        <time>2023-09-11T10:29:40Z</time>
        <hdop>3.8</hdop>
        <extensions>
          <osmand:bearing>167</osmand:bearing>
          <osmand:speed>1.3</osmand:speed>
          <osmand:heading>0</osmand:heading>
        </extensions>
      </trkpt>
      <trkpt lat="38.5731777" lon="-7.9082483">
        <ele>355.4</ele>
        <time>2023-09-11T10:29:46Z</time>
        <hdop>3.8</hdop>
        <extensions>
          <osmand:bearing>166.2</osmand:bearing>
          <osmand:speed>1.3</osmand:speed>
          <osmand:heading>0</osmand:heading>
        </extensions>
      </trkpt>
      <trkpt lat="38.5731284" lon="-7.9082261">
        <ele>357.8</ele>
        <time>2023-09-11T10:29:51Z</time>
        <hdop>3.8</hdop>
        <extensions>
          <osmand:bearing>160.6</osmand:bearing>
          <osmand:speed>1.1</osmand:speed>
          <osmand:heading>0</osmand:heading>
        </extensions>
      </trkpt>
      <trkpt lat="38.5730781" lon="-7.9082002">
        <ele>358.6</ele>
        <time>2023-09-11T10:29:57Z</time>
        <hdop>3.8</hdop>
        <extensions>
          <osmand:bearing>150.1</osmand:bearing>
          <osmand:speed>1.2</osmand:speed>
          <osmand:heading>0</osmand:heading>
        </extensions>
      </trkpt>
      <trkpt lat="38.5730177" lon="-7.9081635">
        <ele>360.4</ele>
        <time>2023-09-11T10:30:02Z</time>
        <hdop>3.8</hdop>
        <extensions>
          <osmand:bearing>153.6</osmand:bearing>
          <osmand:speed>1.5</osmand:speed>
          <osmand:heading>0</osmand:heading>
        </extensions>
      </trkpt>
      <trkpt lat="38.5729472" lon="-7.9081429">
        <ele>359.8</ele>
        <time>2023-09-11T10:30:08Z</time>
        <hdop>3.8</hdop>
        <extensions>
          <osmand:bearing>160.5</osmand:bearing>
          <osmand:speed>1.2</osmand:speed>
          <osmand:heading>0</osmand:heading>
        </extensions>
      </trkpt>
      <trkpt lat="38.5729352" lon="-7.9081321">
        <ele>361</ele>
        <time>2023-09-11T10:30:13Z</time>
        <hdop>3.8</hdop>
        <extensions>
          <osmand:bearing>166.8</osmand:bearing>
          <osmand:speed>0.2</osmand:speed>
          <osmand:heading>0</osmand:heading>
        </extensions>
      </trkpt>
      <trkpt lat="38.5729441" lon="-7.90813">
        <ele>360.7</ele>
        <time>2023-09-11T10:30:19Z</time>
        <hdop>3.8</hdop>
        <extensions>
          <osmand:heading>0</osmand:heading>
        </extensions>
      </trkpt>
      <trkpt lat="38.5729132" lon="-7.9081097">
        <ele>361.4</ele>
        <time>2023-09-11T10:30:24Z</time>
        <hdop>3.8</hdop>
        <extensions>
          <osmand:bearing>153.1</osmand:bearing>
          <osmand:speed>1.3</osmand:speed>
          <osmand:heading>0</osmand:heading>
        </extensions>
      </trkpt>
      <trkpt lat="38.5728525" lon="-7.9080691">
        <ele>362.3</ele>
        <time>2023-09-11T10:30:30Z</time>
        <hdop>3.8</hdop>
        <extensions>
          <osmand:bearing>157.6</osmand:bearing>
          <osmand:speed>1.4</osmand:speed>
          <osmand:heading>0</osmand:heading>
        </extensions>
      </trkpt>
      <trkpt lat="38.5727955" lon="-7.9080325">
        <ele>363.1</ele>
        <time>2023-09-11T10:30:36Z</time>
        <hdop>3.8</hdop>
        <extensions>
          <osmand:bearing>146.6</osmand:bearing>
          <osmand:speed>1.1</osmand:speed>
          <osmand:heading>0</osmand:heading>
        </extensions>
      </trkpt>
      <trkpt lat="38.5727588" lon="-7.9079903">
        <ele>363.5</ele>
        <time>2023-09-11T10:30:41Z</time>
        <hdop>3.8</hdop>
        <extensions>
          <osmand:bearing>130.5</osmand:bearing>
          <osmand:speed>1.2</osmand:speed>
          <osmand:heading>0</osmand:heading>
        </extensions>
      </trkpt>
      <trkpt lat="38.5727346" lon="-7.9079198">
        <ele>364.6</ele>
        <time>2023-09-11T10:30:47Z</time>
        <hdop>3.8</hdop>
        <extensions>
          <osmand:bearing>103.3</osmand:bearing>
          <osmand:speed>1</osmand:speed>
          <osmand:heading>0</osmand:heading>
        </extensions>
      </trkpt>
      <trkpt lat="38.5727446" lon="-7.9078586">
        <ele>364.2</ele>
        <time>2023-09-11T10:30:52Z</time>
        <hdop>3.8</hdop>
        <extensions>
          <osmand:bearing>73.3</osmand:bearing>
          <osmand:speed>1</osmand:speed>
          <osmand:heading>0</osmand:heading>
        </extensions>
      </trkpt>
      <trkpt lat="38.572771" lon="-7.9077993">
        <ele>363.4</ele>
        <time>2023-09-11T10:30:57Z</time>
        <hdop>3.8</hdop>
        <extensions>
          <osmand:bearing>67.7</osmand:bearing>
          <osmand:speed>1</osmand:speed>
          <osmand:heading>0</osmand:heading>
        </extensions>
      </trkpt>
      <trkpt lat="38.5727774" lon="-7.9077403">
        <ele>362.6</ele>
        <time>2023-09-11T10:31:03Z</time>
        <hdop>3.8</hdop>
        <extensions>
          <osmand:bearing>94.4</osmand:bearing>
          <osmand:speed>0.4</osmand:speed>
          <osmand:heading>0</osmand:heading>
        </extensions>
      </trkpt>
      <trkpt lat="38.5727745" lon="-7.9077381">
        <ele>362.7</ele>
        <time>2023-09-11T10:31:09Z</time>
        <hdop>3.8</hdop>
        <extensions>
          <osmand:heading>0</osmand:heading>
        </extensions>
      </trkpt>
      <trkpt lat="38.5727744" lon="-7.9077383">
        <ele>362.7</ele>
        <time>2023-09-11T10:31:14Z</time>
        <hdop>3.8</hdop>
        <extensions>
          <osmand:heading>0</osmand:heading>
        </extensions>
      </trkpt>
      <trkpt lat="38.5727729" lon="-7.9077377">
        <ele>362.4</ele>
        <time>2023-09-11T10:31:20Z</time>
        <hdop>3.8</hdop>
        <extensions>
          <osmand:bearing>224.2</osmand:bearing>
          <osmand:speed>0.3</osmand:speed>
          <osmand:heading>0</osmand:heading>
        </extensions>
      </trkpt>
      <trkpt lat="38.5727794" lon="-7.9077419">
        <ele>362.8</ele>
        <time>2023-09-11T10:31:25Z</time>
        <hdop>3.8</hdop>
        <extensions>
          <osmand:bearing>318.8</osmand:bearing>
          <osmand:speed>0.7</osmand:speed>
          <osmand:heading>0</osmand:heading>
        </extensions>
      </trkpt>
      <trkpt lat="38.5728392" lon="-7.9077536">
        <ele>363.5</ele>
        <time>2023-09-11T10:31:30Z</time>
        <hdop>3.8</hdop>
        <extensions>
          <osmand:bearing>359.5</osmand:bearing>
          <osmand:speed>1.5</osmand:speed>
          <osmand:heading>0</osmand:heading>
        </extensions>
      </trkpt>
      <trkpt lat="38.5729184" lon="-7.9077549">
        <ele>364.1</ele>
        <time>2023-09-11T10:31:36Z</time>
        <hdop>3.8</hdop>
        <extensions>
          <osmand:bearing>345.6</osmand:bearing>
          <osmand:speed>1.4</osmand:speed>
          <osmand:heading>0</osmand:heading>
        </extensions>
      </trkpt>
      <trkpt lat="38.5729917" lon="-7.9077848">
        <ele>364.4</ele>
        <time>2023-09-11T10:31:45Z</time>
        <hdop>3.8</hdop>
        <extensions>
          <osmand:bearing>349.1</osmand:bearing>
          <osmand:speed>1.5</osmand:speed>
          <osmand:heading>0</osmand:heading>
        </extensions>
      </trkpt>
      <trkpt lat="38.5730893" lon="-7.9078418">
        <ele>366.3</ele>
        <time>2023-09-11T10:31:50Z</time>
        <hdop>3.8</hdop>
        <extensions>
          <osmand:bearing>333</osmand:bearing>
          <osmand:speed>1.4</osmand:speed>
          <osmand:heading>0</osmand:heading>
        </extensions>
      </trkpt>
      <trkpt lat="38.5731428" lon="-7.9078766">
        <ele>367.6</ele>
        <time>2023-09-11T10:31:56Z</time>
        <hdop>3.8</hdop>
        <extensions>
          <osmand:bearing>329.6</osmand:bearing>
          <osmand:speed>1.3</osmand:speed>
          <osmand:heading>0</osmand:heading>
        </extensions>
      </trkpt>
      <trkpt lat="38.5731878" lon="-7.9079277">
        <ele>366.5</ele>
        <time>2023-09-11T10:32:01Z</time>
        <hdop>3.8</hdop>
        <extensions>
          <osmand:bearing>318.9</osmand:bearing>
          <osmand:speed>1.4</osmand:speed>
          <osmand:heading>0</osmand:heading>
        </extensions>
      </trkpt>
      <trkpt lat="38.5732596" lon="-7.9079724">
        <ele>366.9</ele>
        <time>2023-09-11T10:32:07Z</time>
        <hdop>3.8</hdop>
        <extensions>
          <osmand:bearing>338.3</osmand:bearing>
          <osmand:speed>1.4</osmand:speed>
          <osmand:heading>0</osmand:heading>
        </extensions>
      </trkpt>
      <trkpt lat="38.5733053" lon="-7.9079922">
        <ele>366.5</ele>
        <time>2023-09-11T10:32:12Z</time>
        <hdop>3.8</hdop>
        <extensions>
          <osmand:bearing>345.4</osmand:bearing>
          <osmand:speed>0.9</osmand:speed>
          <osmand:heading>0</osmand:heading>
        </extensions>
      </trkpt>
      <trkpt lat="38.573316" lon="-7.9079927">
        <ele>366.7</ele>
        <time>2023-09-11T10:32:18Z</time>
        <hdop>3.8</hdop>
        <extensions>
          <osmand:heading>0</osmand:heading>
        </extensions>
      </trkpt>
      <trkpt lat="38.5733166" lon="-7.9079902">
        <ele>367.1</ele>
        <time>2023-09-11T10:32:23Z</time>
        <hdop>3.8</hdop>
        <extensions>
          <osmand:heading>0</osmand:heading>
        </extensions>
      </trkpt>
      <trkpt lat="38.5733194" lon="-7.9079884">
        <ele>367.3</ele>
        <time>2023-09-11T10:32:28Z</time>
        <hdop>3.8</hdop>
        <extensions>
          <osmand:heading>0</osmand:heading>
        </extensions>
      </trkpt>
      <trkpt lat="38.5733197" lon="-7.9079876">
        <ele>367.3</ele>
        <time>2023-09-11T10:32:34Z</time>
        <hdop>3.8</hdop>
        <extensions>
          <osmand:heading>0</osmand:heading>
        </extensions>
      </trkpt>
      <trkpt lat="38.5733206" lon="-7.9079878">
        <ele>367.3</ele>
        <time>2023-09-11T10:32:39Z</time>
        <hdop>3.8</hdop>
        <extensions>
          <osmand:heading>0</osmand:heading>
        </extensions>
      </trkpt>
      <trkpt lat="38.5733227" lon="-7.9079915">
        <ele>366.2</ele>
        <time>2023-09-11T10:32:45Z</time>
        <hdop>3.8</hdop>
        <extensions>
          <osmand:heading>0</osmand:heading>
        </extensions>
      </trkpt>
      <trkpt lat="38.5733228" lon="-7.9079916">
        <ele>366.2</ele>
        <time>2023-09-11T10:32:50Z</time>
        <hdop>3.8</hdop>
        <extensions>
          <osmand:heading>0</osmand:heading>
        </extensions>
      </trkpt>
      <trkpt lat="38.5733228" lon="-7.9079915">
        <ele>366.2</ele>
        <time>2023-09-11T10:32:55Z</time>
        <hdop>3.8</hdop>
        <extensions>
          <osmand:heading>0</osmand:heading>
        </extensions>
      </trkpt>
      <trkpt lat="38.5733228" lon="-7.9079915">
        <ele>366.2</ele>
        <time>2023-09-11T10:33:00Z</time>
        <hdop>3.8</hdop>
        <extensions>
          <osmand:heading>0</osmand:heading>
        </extensions>
      </trkpt>
      <trkpt lat="38.5733228" lon="-7.9079916">
        <ele>366.2</ele>
        <time>2023-09-11T10:33:05Z</time>
        <hdop>3.8</hdop>
        <extensions>
          <osmand:heading>0</osmand:heading>
        </extensions>
      </trkpt>
      <trkpt lat="38.5733007" lon="-7.9079795">
        <ele>365.8</ele>
        <time>2023-09-11T10:33:11Z</time>
        <hdop>3.8</hdop>
        <extensions>
          <osmand:bearing>171.3</osmand:bearing>
          <osmand:speed>0.8</osmand:speed>
          <osmand:heading>0</osmand:heading>
        </extensions>
      </trkpt>
      <trkpt lat="38.5732344" lon="-7.9079737">
        <ele>365.6</ele>
        <time>2023-09-11T10:33:17Z</time>
        <hdop>3.8</hdop>
        <extensions>
          <osmand:bearing>178.8</osmand:bearing>
          <osmand:speed>1.4</osmand:speed>
          <osmand:heading>0</osmand:heading>
        </extensions>
      </trkpt>
      <trkpt lat="38.5731659" lon="-7.9079339">
        <ele>367.1</ele>
        <time>2023-09-11T10:33:23Z</time>
        <hdop>3.8</hdop>
        <extensions>
          <osmand:bearing>160.2</osmand:bearing>
          <osmand:speed>1.3</osmand:speed>
          <osmand:heading>0</osmand:heading>
        </extensions>
      </trkpt>
      <trkpt lat="38.5731118" lon="-7.9078996">
        <ele>365</ele>
        <time>2023-09-11T10:33:28Z</time>
        <hdop>3.8</hdop>
        <extensions>
          <osmand:bearing>149.3</osmand:bearing>
          <osmand:speed>1</osmand:speed>
          <osmand:heading>0</osmand:heading>
        </extensions>
      </trkpt>
      <trkpt lat="38.573058" lon="-7.9078595">
        <ele>365.3</ele>
        <time>2023-09-11T10:33:34Z</time>
        <hdop>3.8</hdop>
        <extensions>
          <osmand:bearing>162.8</osmand:bearing>
          <osmand:speed>1.5</osmand:speed>
          <osmand:heading>0</osmand:heading>
        </extensions>
      </trkpt>
      <trkpt lat="38.5729859" lon="-7.9078086">
        <ele>366.4</ele>
        <time>2023-09-11T10:33:40Z</time>
        <hdop>3.8</hdop>
        <extensions>
          <osmand:bearing>150.8</osmand:bearing>
          <osmand:speed>1.3</osmand:speed>
          <osmand:heading>0</osmand:heading>
        </extensions>
      </trkpt>
      <trkpt lat="38.5729231" lon="-7.9077559">
        <ele>367</ele>
        <time>2023-09-11T10:33:46Z</time>
        <hdop>9.9</hdop>
        <extensions>
          <osmand:bearing>146.9</osmand:bearing>
          <osmand:speed>1.4</osmand:speed>
          <osmand:heading>0</osmand:heading>
        </extensions>
      </trkpt>
      <trkpt lat="38.5728649" lon="-7.9077152">
        <ele>366.1</ele>
        <time>2023-09-11T10:33:51Z</time>
        <hdop>9.9</hdop>
        <extensions>
          <osmand:bearing>145.6</osmand:bearing>
          <osmand:speed>1.4</osmand:speed>
          <osmand:heading>0</osmand:heading>
        </extensions>
      </trkpt>
      <trkpt lat="38.5727979" lon="-7.9076557">
        <ele>365</ele>
        <time>2023-09-11T10:33:57Z</time>
        <hdop>3.8</hdop>
        <extensions>
          <osmand:bearing>141.3</osmand:bearing>
          <osmand:speed>1.5</osmand:speed>
          <osmand:heading>0</osmand:heading>
        </extensions>
      </trkpt>
      <trkpt lat="38.57275" lon="-7.9076032">
        <ele>361.9</ele>
        <time>2023-09-11T10:34:02Z</time>
        <hdop>3.8</hdop>
        <extensions>
          <osmand:bearing>143.8</osmand:bearing>
          <osmand:speed>1.4</osmand:speed>
          <osmand:heading>0</osmand:heading>
        </extensions>
      </trkpt>
      <trkpt lat="38.5726948" lon="-7.907541">
        <ele>360.1</ele>
        <time>2023-09-11T10:34:08Z</time>
        <hdop>3.8</hdop>
        <extensions>
          <osmand:bearing>142</osmand:bearing>
          <osmand:speed>1.4</osmand:speed>
          <osmand:heading>0</osmand:heading>
        </extensions>
      </trkpt>
      <trkpt lat="38.5726474" lon="-7.9074938">
        <ele>360</ele>
        <time>2023-09-11T10:34:13Z</time>
        <hdop>3.8</hdop>
        <extensions>
          <osmand:bearing>150.8</osmand:bearing>
          <osmand:speed>1.4</osmand:speed>
          <osmand:heading>0</osmand:heading>
        </extensions>
      </trkpt>
      <trkpt lat="38.572595" lon="-7.9074588">
        <ele>360.6</ele>
        <time>2023-09-11T10:34:18Z</time>
        <hdop>3.8</hdop>
        <extensions>
          <osmand:bearing>153.2</osmand:bearing>
          <osmand:speed>1.4</osmand:speed>
          <osmand:heading>0</osmand:heading>
        </extensions>
      </trkpt>
      <trkpt lat="38.5725363" lon="-7.9074186">
        <ele>360.8</ele>
        <time>2023-09-11T10:34:24Z</time>
        <hdop>3.8</hdop>
        <extensions>
          <osmand:bearing>147</osmand:bearing>
          <osmand:speed>0.9</osmand:speed>
          <osmand:heading>0</osmand:heading>
        </extensions>
      </trkpt>
      <trkpt lat="38.5725389" lon="-7.9074274">
        <ele>360.6</ele>
        <time>2023-09-11T10:34:29Z</time>
        <hdop>3.8</hdop>
        <extensions>
          <osmand:heading>0</osmand:heading>
        </extensions>
      </trkpt>
      <trkpt lat="38.5725392" lon="-7.9074279">
        <ele>360.6</ele>
        <time>2023-09-11T10:34:35Z</time>
        <hdop>3.8</hdop>
        <extensions>
          <osmand:heading>0</osmand:heading>
        </extensions>
      </trkpt>
      <trkpt lat="38.572534" lon="-7.9074226">
        <ele>360.6</ele>
        <time>2023-09-11T10:34:41Z</time>
        <hdop>3.8</hdop>
        <extensions>
          <osmand:bearing>140.8</osmand:bearing>
          <osmand:speed>1.1</osmand:speed>
          <osmand:heading>0</osmand:heading>
        </extensions>
      </trkpt>
      <trkpt lat="38.5724763" lon="-7.9073621">
        <ele>361.7</ele>
        <time>2023-09-11T10:34:47Z</time>
        <hdop>3.8</hdop>
        <extensions>
          <osmand:bearing>139.1</osmand:bearing>
          <osmand:speed>1.3</osmand:speed>
          <osmand:heading>0</osmand:heading>
        </extensions>
      </trkpt>
      <trkpt lat="38.5724521" lon="-7.907318">
        <ele>361.5</ele>
        <time>2023-09-11T10:34:53Z</time>
        <hdop>3.8</hdop>
        <extensions>
          <osmand:bearing>121.1</osmand:bearing>
          <osmand:speed>0.6</osmand:speed>
          <osmand:heading>0</osmand:heading>
        </extensions>
      </trkpt>
      <trkpt lat="38.5724497" lon="-7.907323">
        <ele>362.5</ele>
        <time>2023-09-11T10:34:58Z</time>
        <hdop>3.8</hdop>
        <extensions>
          <osmand:heading>0</osmand:heading>
        </extensions>
      </trkpt>
      <trkpt lat="38.5724502" lon="-7.9073247">
        <ele>362.5</ele>
        <time>2023-09-11T10:35:04Z</time>
        <hdop>3.8</hdop>
        <extensions>
          <osmand:heading>0</osmand:heading>
        </extensions>
      </trkpt>
      <trkpt lat="38.5724478" lon="-7.9073193">
        <ele>362.6</ele>
        <time>2023-09-11T10:35:10Z</time>
        <hdop>3.8</hdop>
        <extensions>
          <osmand:bearing>136.5</osmand:bearing>
          <osmand:speed>0.7</osmand:speed>
          <osmand:heading>0</osmand:heading>
        </extensions>
      </trkpt>
      <trkpt lat="38.5724497" lon="-7.9072822">
        <ele>363.7</ele>
        <time>2023-09-11T10:35:16Z</time>
        <hdop>3.8</hdop>
        <extensions>
          <osmand:heading>0</osmand:heading>
        </extensions>
      </trkpt>
      <trkpt lat="38.5724535" lon="-7.9072832">
        <ele>363.7</ele>
        <time>2023-09-11T10:35:22Z</time>
        <hdop>3.8</hdop>
        <extensions>
          <osmand:heading>0</osmand:heading>
        </extensions>
      </trkpt>
      <trkpt lat="38.5724482" lon="-7.9072656">
        <ele>363.8</ele>
        <time>2023-09-11T10:35:27Z</time>
        <hdop>3.8</hdop>
        <extensions>
          <osmand:bearing>120.8</osmand:bearing>
          <osmand:speed>1.3</osmand:speed>
          <osmand:heading>0</osmand:heading>
        </extensions>
      </trkpt>
      <trkpt lat="38.5723975" lon="-7.9072097">
        <ele>364.1</ele>
        <time>2023-09-11T10:35:32Z</time>
        <hdop>3.8</hdop>
        <extensions>
          <osmand:bearing>132.6</osmand:bearing>
          <osmand:speed>1.5</osmand:speed>
          <osmand:heading>0</osmand:heading>
        </extensions>
      </trkpt>
      <trkpt lat="38.5723666" lon="-7.9071338">
        <ele>365.2</ele>
        <time>2023-09-11T10:35:38Z</time>
        <hdop>3.8</hdop>
        <extensions>
          <osmand:bearing>116.1</osmand:bearing>
          <osmand:speed>0.9</osmand:speed>
          <osmand:heading>0</osmand:heading>
        </extensions>
      </trkpt>
      <trkpt lat="38.5723666" lon="-7.9071282">
        <ele>365.8</ele>
        <time>2023-09-11T10:35:44Z</time>
        <hdop>3.8</hdop>
        <extensions>
          <osmand:heading>0</osmand:heading>
        </extensions>
      </trkpt>
      <trkpt lat="38.5723672" lon="-7.9071287">
        <ele>365.8</ele>
        <time>2023-09-11T10:35:50Z</time>
        <hdop>3.8</hdop>
        <extensions>
          <osmand:heading>0</osmand:heading>
        </extensions>
      </trkpt>
      <trkpt lat="38.5723483" lon="-7.9070818">
        <ele>366</ele>
        <time>2023-09-11T10:35:56Z</time>
        <hdop>3.8</hdop>
        <extensions>
          <osmand:bearing>128.9</osmand:bearing>
          <osmand:speed>2</osmand:speed>
          <osmand:heading>0</osmand:heading>
        </extensions>
      </trkpt>
      <trkpt lat="38.5723104" lon="-7.9069916">
        <ele>366.4</ele>
        <time>2023-09-11T10:36:02Z</time>
        <hdop>3.8</hdop>
        <extensions>
          <osmand:bearing>103.3</osmand:bearing>
          <osmand:speed>1.1</osmand:speed>
          <osmand:heading>0</osmand:heading>
        </extensions>
      </trkpt>
      <trkpt lat="38.572257" lon="-7.9069502">
        <ele>367.4</ele>
        <time>2023-09-11T10:36:07Z</time>
        <hdop>3.8</hdop>
        <extensions>
          <osmand:bearing>155.3</osmand:bearing>
          <osmand:speed>1</osmand:speed>
          <osmand:heading>0</osmand:heading>
        </extensions>
      </trkpt>
      <trkpt lat="38.5721902" lon="-7.9069284">
        <ele>366.8</ele>
        <time>2023-09-11T10:36:13Z</time>
        <hdop>4.2</hdop>
        <extensions>
          <osmand:bearing>161.1</osmand:bearing>
          <osmand:speed>1.5</osmand:speed>
          <osmand:heading>0</osmand:heading>
        </extensions>
      </trkpt>
      <trkpt lat="38.5721568" lon="-7.9068583">
        <ele>366.4</ele>
        <time>2023-09-11T10:36:18Z</time>
        <hdop>3.8</hdop>
        <extensions>
          <osmand:bearing>104.6</osmand:bearing>
          <osmand:speed>1.2</osmand:speed>
          <osmand:heading>0</osmand:heading>
        </extensions>
      </trkpt>
      <trkpt lat="38.5721681" lon="-7.9067435">
        <ele>365.3</ele>
        <time>2023-09-11T10:36:24Z</time>
        <hdop>3.8</hdop>
        <extensions>
          <osmand:bearing>92.7</osmand:bearing>
          <osmand:speed>1.3</osmand:speed>
          <osmand:heading>0</osmand:heading>
        </extensions>
      </trkpt>
      <trkpt lat="38.5721702" lon="-7.906702">
        <ele>366.2</ele>
        <time>2023-09-11T10:36:30Z</time>
        <hdop>3.8</hdop>
        <extensions>
          <osmand:heading>0</osmand:heading>
        </extensions>
      </trkpt>
      <trkpt lat="38.5721687" lon="-7.906699">
        <ele>366.6</ele>
        <time>2023-09-11T10:36:35Z</time>
        <hdop>3.8</hdop>
        <extensions>
          <osmand:bearing>75.6</osmand:bearing>
          <osmand:speed>0.2</osmand:speed>
          <osmand:heading>0</osmand:heading>
        </extensions>
      </trkpt>
      <trkpt lat="38.5721845" lon="-7.9066335">
        <ele>368.1</ele>
        <time>2023-09-11T10:36:41Z</time>
        <hdop>3.8</hdop>
        <extensions>
          <osmand:bearing>68</osmand:bearing>
          <osmand:speed>1.3</osmand:speed>
          <osmand:heading>0</osmand:heading>
        </extensions>
      </trkpt>
      <trkpt lat="38.5721905" lon="-7.9065475">
        <ele>367.9</ele>
        <time>2023-09-11T10:36:47Z</time>
        <hdop>3.8</hdop>
        <extensions>
          <osmand:bearing>109.4</osmand:bearing>
          <osmand:speed>1.4</osmand:speed>
          <osmand:heading>0</osmand:heading>
        </extensions>
      </trkpt>
      <trkpt lat="38.5721621" lon="-7.9064744">
        <ele>367.8</ele>
        <time>2023-09-11T10:36:53Z</time>
        <hdop>3.8</hdop>
        <extensions>
          <osmand:bearing>113.7</osmand:bearing>
          <osmand:speed>0.7</osmand:speed>
          <osmand:heading>0</osmand:heading>
        </extensions>
      </trkpt>
      <trkpt lat="38.5721477" lon="-7.9064132">
        <ele>368.9</ele>
        <time>2023-09-11T10:36:58Z</time>
        <hdop>3.8</hdop>
        <extensions>
          <osmand:bearing>102.4</osmand:bearing>
          <osmand:speed>1.1</osmand:speed>
          <osmand:heading>0</osmand:heading>
        </extensions>
      </trkpt>
      <trkpt lat="38.5721442" lon="-7.9063278">
        <ele>368</ele>
        <time>2023-09-11T10:37:04Z</time>
        <hdop>3.8</hdop>
        <extensions>
          <osmand:bearing>97.1</osmand:bearing>
          <osmand:speed>1.2</osmand:speed>
          <osmand:heading>0</osmand:heading>
        </extensions>
      </trkpt>
      <trkpt lat="38.5721246" lon="-7.9062641">
        <ele>368.3</ele>
        <time>2023-09-11T10:37:09Z</time>
        <hdop>3.8</hdop>
        <extensions>
          <osmand:bearing>118.1</osmand:bearing>
          <osmand:speed>1.3</osmand:speed>
          <osmand:heading>0</osmand:heading>
        </extensions>
      </trkpt>
      <trkpt lat="38.5720846" lon="-7.9061998">
        <ele>368.3</ele>
        <time>2023-09-11T10:37:15Z</time>
        <hdop>3.8</hdop>
        <extensions>
          <osmand:bearing>134.8</osmand:bearing>
          <osmand:speed>1.3</osmand:speed>
          <osmand:heading>0</osmand:heading>
        </extensions>
      </trkpt>
      <trkpt lat="38.5720352" lon="-7.9061742">
        <ele>369.9</ele>
        <time>2023-09-11T10:37:21Z</time>
        <hdop>3.8</hdop>
        <extensions>
          <osmand:bearing>191</osmand:bearing>
          <osmand:speed>0.9</osmand:speed>
          <osmand:heading>0</osmand:heading>
        </extensions>
      </trkpt>
      <trkpt lat="38.5720209" lon="-7.9061864">
        <ele>369.7</ele>
        <time>2023-09-11T10:37:26Z</time>
        <hdop>3.8</hdop>
        <extensions>
          <osmand:heading>0</osmand:heading>
        </extensions>
      </trkpt>
      <trkpt lat="38.5720208" lon="-7.9061873">
        <ele>369.7</ele>
        <time>2023-09-11T10:37:31Z</time>
        <hdop>3.8</hdop>
        <extensions>
          <osmand:heading>0</osmand:heading>
        </extensions>
      </trkpt>
      <trkpt lat="38.5720207" lon="-7.9061875">
        <ele>369.7</ele>
        <time>2023-09-11T10:37:37Z</time>
        <hdop>9.9</hdop>
        <extensions>
          <osmand:heading>0</osmand:heading>
        </extensions>
      </trkpt>
      <trkpt lat="38.5720207" lon="-7.9061876">
        <ele>369.7</ele>
        <time>2023-09-11T10:37:42Z</time>
        <hdop>9.9</hdop>
        <extensions>
          <osmand:heading>0</osmand:heading>
        </extensions>
      </trkpt>
      <trkpt lat="38.5720121" lon="-7.9061859">
        <ele>370.8</ele>
        <time>2023-09-11T10:37:48Z</time>
        <hdop>9.9</hdop>
        <extensions>
          <osmand:heading>0</osmand:heading>
        </extensions>
      </trkpt>
      <trkpt lat="38.5720115" lon="-7.9061852">
        <ele>370.8</ele>
        <time>2023-09-11T10:37:53Z</time>
        <hdop>9.9</hdop>
        <extensions>
          <osmand:heading>0</osmand:heading>
        </extensions>
      </trkpt>
      <trkpt lat="38.5720344" lon="-7.9061778">
        <ele>372</ele>
        <time>2023-09-11T10:37:58Z</time>
        <hdop>9.9</hdop>
        <extensions>
          <osmand:heading>0</osmand:heading>
        </extensions>
      </trkpt>
      <trkpt lat="38.5720333" lon="-7.9061827">
        <ele>371.7</ele>
        <time>2023-09-11T10:38:04Z</time>
        <hdop>9.9</hdop>
        <extensions>
          <osmand:heading>0</osmand:heading>
        </extensions>
      </trkpt>
      <trkpt lat="38.5720483" lon="-7.9061888">
        <ele>370.1</ele>
        <time>2023-09-11T10:38:10Z</time>
        <hdop>9.9</hdop>
        <extensions>
          <osmand:heading>0</osmand:heading>
        </extensions>
      </trkpt>
      <trkpt lat="38.57205" lon="-7.9061926">
        <ele>369.8</ele>
        <time>2023-09-11T10:38:15Z</time>
        <hdop>9.9</hdop>
        <extensions>
          <osmand:bearing>343</osmand:bearing>
          <osmand:speed>0.9</osmand:speed>
          <osmand:heading>0</osmand:heading>
        </extensions>
      </trkpt>
      <trkpt lat="38.5721068" lon="-7.9062438">
        <ele>368.2</ele>
        <time>2023-09-11T10:38:21Z</time>
        <hdop>9.9</hdop>
        <extensions>
          <osmand:bearing>316.4</osmand:bearing>
          <osmand:speed>1.3</osmand:speed>
          <osmand:heading>0</osmand:heading>
        </extensions>
      </trkpt>
      <trkpt lat="38.5721226" lon="-7.9063109">
        <ele>368.2</ele>
        <time>2023-09-11T10:38:26Z</time>
        <hdop>3.8</hdop>
        <extensions>
          <osmand:bearing>280.5</osmand:bearing>
          <osmand:speed>1.2</osmand:speed>
          <osmand:heading>0</osmand:heading>
        </extensions>
      </trkpt>
      <trkpt lat="38.5721368" lon="-7.9064031">
        <ele>368.8</ele>
        <time>2023-09-11T10:38:32Z</time>
        <hdop>3.8</hdop>
        <extensions>
          <osmand:bearing>295</osmand:bearing>
          <osmand:speed>1.3</osmand:speed>
          <osmand:heading>0</osmand:heading>
        </extensions>
      </trkpt>
      <trkpt lat="38.5721588" lon="-7.9064852">
        <ele>369.4</ele>
        <time>2023-09-11T10:38:38Z</time>
        <hdop>3.8</hdop>
        <extensions>
          <osmand:bearing>284.3</osmand:bearing>
          <osmand:speed>1.4</osmand:speed>
          <osmand:heading>0</osmand:heading>
        </extensions>
      </trkpt>
      <trkpt lat="38.5721805" lon="-7.9065496">
        <ele>369.1</ele>
        <time>2023-09-11T10:38:44Z</time>
        <hdop>3.8</hdop>
        <extensions>
          <osmand:bearing>303.2</osmand:bearing>
          <osmand:speed>0.5</osmand:speed>
          <osmand:heading>0</osmand:heading>
        </extensions>
      </trkpt>
      <trkpt lat="38.5721993" lon="-7.9065968">
        <ele>368.8</ele>
        <time>2023-09-11T10:38:49Z</time>
        <hdop>3.8</hdop>
        <extensions>
          <osmand:bearing>284.8</osmand:bearing>
          <osmand:speed>1.1</osmand:speed>
          <osmand:heading>0</osmand:heading>
        </extensions>
      </trkpt>
      <trkpt lat="38.5722008" lon="-7.9066462">
        <ele>367.8</ele>
        <time>2023-09-11T10:38:55Z</time>
        <hdop>3.8</hdop>
        <extensions>
          <osmand:bearing>269.6</osmand:bearing>
          <osmand:speed>1.3</osmand:speed>
          <osmand:heading>0</osmand:heading>
        </extensions>
      </trkpt>
      <trkpt lat="38.5721883" lon="-7.9067019">
        <ele>369.8</ele>
        <time>2023-09-11T10:39:00Z</time>
        <hdop>3.8</hdop>
        <extensions>
          <osmand:bearing>250.4</osmand:bearing>
          <osmand:speed>1.1</osmand:speed>
          <osmand:heading>0</osmand:heading>
        </extensions>
      </trkpt>
      <trkpt lat="38.5721732" lon="-7.906779">
        <ele>369.9</ele>
        <time>2023-09-11T10:39:06Z</time>
        <hdop>3.8</hdop>
        <extensions>
          <osmand:bearing>263.4</osmand:bearing>
          <osmand:speed>1.3</osmand:speed>
          <osmand:heading>0</osmand:heading>
        </extensions>
      </trkpt>
      <trkpt lat="38.5721764" lon="-7.9068535">
        <ele>369.4</ele>
        <time>2023-09-11T10:39:11Z</time>
        <hdop>3.8</hdop>
        <extensions>
          <osmand:bearing>282.6</osmand:bearing>
          <osmand:speed>1.3</osmand:speed>
          <osmand:heading>0</osmand:heading>
        </extensions>
      </trkpt>
      <trkpt lat="38.5722355" lon="-7.9068893">
        <ele>369.3</ele>
        <time>2023-09-11T10:39:17Z</time>
        <hdop>3.8</hdop>
        <extensions>
          <osmand:bearing>358.4</osmand:bearing>
          <osmand:speed>1.3</osmand:speed>
          <osmand:heading>0</osmand:heading>
        </extensions>
      </trkpt>
      <trkpt lat="38.57224" lon="-7.9068868">
        <ele>369.2</ele>
        <time>2023-09-11T10:39:22Z</time>
        <hdop>3.8</hdop>
        <extensions>
          <osmand:heading>0</osmand:heading>
        </extensions>
      </trkpt>
      <trkpt lat="38.5722665" lon="-7.9069161">
        <ele>369.8</ele>
        <time>2023-09-11T10:39:28Z</time>
        <hdop>3.8</hdop>
        <extensions>
          <osmand:bearing>311.6</osmand:bearing>
          <osmand:speed>1.5</osmand:speed>
          <osmand:heading>0</osmand:heading>
        </extensions>
      </trkpt>
      <trkpt lat="38.5723136" lon="-7.9069892">
        <ele>369.1</ele>
        <time>2023-09-11T10:39:34Z</time>
        <hdop>3.8</hdop>
        <extensions>
          <osmand:bearing>301.4</osmand:bearing>
          <osmand:speed>1.3</osmand:speed>
          <osmand:heading>0</osmand:heading>
        </extensions>
      </trkpt>
      <trkpt lat="38.5723079" lon="-7.9070528">
        <ele>368.4</ele>
        <time>2023-09-11T10:39:39Z</time>
        <hdop>3.8</hdop>
        <extensions>
          <osmand:bearing>255.4</osmand:bearing>
          <osmand:speed>1.3</osmand:speed>
          <osmand:heading>0</osmand:heading>
        </extensions>
      </trkpt>
      <trkpt lat="38.5722814" lon="-7.9071305">
        <ele>368.4</ele>
        <time>2023-09-11T10:39:45Z</time>
        <hdop>3.8</hdop>
        <extensions>
          <osmand:bearing>244.2</osmand:bearing>
          <osmand:speed>1.2</osmand:speed>
          <osmand:heading>0</osmand:heading>
        </extensions>
      </trkpt>
      <trkpt lat="38.5722511" lon="-7.907208">
        <ele>368.2</ele>
        <time>2023-09-11T10:39:51Z</time>
        <hdop>3.8</hdop>
        <extensions>
          <osmand:bearing>243</osmand:bearing>
          <osmand:speed>1.2</osmand:speed>
          <osmand:heading>0</osmand:heading>
        </extensions>
      </trkpt>
      <trkpt lat="38.5722173" lon="-7.9072793">
        <ele>367.4</ele>
        <time>2023-09-11T10:39:57Z</time>
        <hdop>3.8</hdop>
        <extensions>
          <osmand:bearing>237.7</osmand:bearing>
          <osmand:speed>1.2</osmand:speed>
          <osmand:heading>0</osmand:heading>
        </extensions>
      </trkpt>
      <trkpt lat="38.57218" lon="-7.9073328">
        <ele>366.9</ele>
        <time>2023-09-11T10:40:02Z</time>
        <hdop>3.8</hdop>
        <extensions>
          <osmand:bearing>224</osmand:bearing>
          <osmand:speed>1.2</osmand:speed>
          <osmand:heading>0</osmand:heading>
        </extensions>
      </trkpt>
      <trkpt lat="38.5721243" lon="-7.9073794">
        <ele>366.4</ele>
        <time>2023-09-11T10:40:08Z</time>
        <hdop>3.8</hdop>
        <extensions>
          <osmand:bearing>210.1</osmand:bearing>
          <osmand:speed>1.2</osmand:speed>
          <osmand:heading>0</osmand:heading>
        </extensions>
      </trkpt>
      <trkpt lat="38.5720684" lon="-7.9073768">
        <ele>365</ele>
        <time>2023-09-11T10:40:14Z</time>
        <hdop>3.8</hdop>
        <extensions>
          <osmand:bearing>144.2</osmand:bearing>
          <osmand:speed>1.2</osmand:speed>
          <osmand:heading>0</osmand:heading>
        </extensions>
      </trkpt>
      <trkpt lat="38.572018" lon="-7.9073279">
        <ele>364.6</ele>
        <time>2023-09-11T10:40:20Z</time>
        <hdop>3.8</hdop>
        <extensions>
          <osmand:bearing>147.6</osmand:bearing>
          <osmand:speed>0.9</osmand:speed>
          <osmand:heading>0</osmand:heading>
        </extensions>
      </trkpt>
      <trkpt lat="38.5719626" lon="-7.9072936">
        <ele>363.4</ele>
        <time>2023-09-11T10:40:26Z</time>
        <hdop>5.9</hdop>
        <extensions>
          <osmand:bearing>166.2</osmand:bearing>
          <osmand:speed>1.5</osmand:speed>
          <osmand:heading>0</osmand:heading>
        </extensions>
      </trkpt>
      <trkpt lat="38.571909" lon="-7.9072572">
        <ele>362.8</ele>
        <time>2023-09-11T10:40:31Z</time>
        <hdop>5.6</hdop>
        <extensions>
          <osmand:bearing>135</osmand:bearing>
          <osmand:speed>0.8</osmand:speed>
          <osmand:heading>0</osmand:heading>
        </extensions>
      </trkpt>
      <trkpt lat="38.5718961" lon="-7.9072405">
        <ele>362.9</ele>
        <time>2023-09-11T10:40:37Z</time>
        <hdop>4.5</hdop>
        <extensions>
          <osmand:bearing>123.7</osmand:bearing>
          <osmand:speed>0.9</osmand:speed>
          <osmand:heading>0</osmand:heading>
        </extensions>
      </trkpt>
      <trkpt lat="38.571841" lon="-7.9072017">
        <ele>363.6</ele>
        <time>2023-09-11T10:40:42Z</time>
        <hdop>4.1</hdop>
        <extensions>
          <osmand:bearing>146.1</osmand:bearing>
          <osmand:speed>1.1</osmand:speed>
          <osmand:heading>0</osmand:heading>
        </extensions>
      </trkpt>
      <trkpt lat="38.5717826" lon="-7.9071611">
        <ele>362.3</ele>
        <time>2023-09-11T10:40:48Z</time>
        <hdop>3.8</hdop>
        <extensions>
          <osmand:bearing>163.4</osmand:bearing>
          <osmand:speed>1</osmand:speed>
          <osmand:heading>0</osmand:heading>
        </extensions>
      </trkpt>
      <trkpt lat="38.5717771" lon="-7.9071596">
        <ele>362.9</ele>
        <time>2023-09-11T10:40:53Z</time>
        <hdop>3.8</hdop>
        <extensions>
          <osmand:heading>0</osmand:heading>
        </extensions>
      </trkpt>
      <trkpt lat="38.5717642" lon="-7.90716">
        <ele>363</ele>
        <time>2023-09-11T10:40:59Z</time>
        <hdop>3.8</hdop>
        <extensions>
          <osmand:bearing>182.7</osmand:bearing>
          <osmand:speed>1</osmand:speed>
          <osmand:heading>0</osmand:heading>
        </extensions>
      </trkpt>
      <trkpt lat="38.5717164" lon="-7.907179">
        <ele>367.6</ele>
        <time>2023-09-11T10:41:05Z</time>
        <hdop>3.8</hdop>
        <extensions>
          <osmand:heading>0</osmand:heading>
        </extensions>
      </trkpt>
      <trkpt lat="38.5717036" lon="-7.9071806">
        <ele>367.7</ele>
        <time>2023-09-11T10:41:11Z</time>
        <hdop>3.8</hdop>
        <extensions>
          <osmand:bearing>226.1</osmand:bearing>
          <osmand:speed>0.2</osmand:speed>
          <osmand:heading>0</osmand:heading>
        </extensions>
      </trkpt>
      <trkpt lat="38.5716988" lon="-7.9071761">
        <ele>367.3</ele>
        <time>2023-09-11T10:41:16Z</time>
        <hdop>9.9</hdop>
        <extensions>
          <osmand:bearing>180.7</osmand:bearing>
          <osmand:speed>0.5</osmand:speed>
          <osmand:heading>0</osmand:heading>
        </extensions>
      </trkpt>
      <trkpt lat="38.5716916" lon="-7.9071128">
        <ele>367.1</ele>
        <time>2023-09-11T10:41:21Z</time>
        <hdop>9.9</hdop>
        <extensions>
          <osmand:bearing>95.9</osmand:bearing>
          <osmand:speed>1.3</osmand:speed>
          <osmand:heading>0</osmand:heading>
        </extensions>
      </trkpt>
      <trkpt lat="38.5717234" lon="-7.9070308">
        <ele>364.2</ele>
        <time>2023-09-11T10:41:27Z</time>
        <hdop>9.9</hdop>
        <extensions>
          <osmand:bearing>73.4</osmand:bearing>
          <osmand:speed>1.4</osmand:speed>
          <osmand:heading>0</osmand:heading>
        </extensions>
      </trkpt>
      <trkpt lat="38.5717291" lon="-7.9069438">
        <ele>364.7</ele>
        <time>2023-09-11T10:41:33Z</time>
        <hdop>10.5</hdop>
        <extensions>
          <osmand:bearing>107</osmand:bearing>
          <osmand:speed>1.5</osmand:speed>
          <osmand:heading>0</osmand:heading>
        </extensions>
      </trkpt>
      <trkpt lat="38.5717279" lon="-7.9069205">
        <ele>365</ele>
        <time>2023-09-11T10:41:38Z</time>
        <hdop>12.1</hdop>
        <extensions>
          <osmand:bearing>68.1</osmand:bearing>
          <osmand:speed>0.3</osmand:speed>
          <osmand:heading>0</osmand:heading>
        </extensions>
      </trkpt>
      <trkpt lat="38.5717274" lon="-7.9069195">
        <ele>365</ele>
        <time>2023-09-11T10:41:44Z</time>
        <hdop>15.1</hdop>
        <extensions>
          <osmand:heading>0</osmand:heading>
        </extensions>
      </trkpt>
      <trkpt lat="38.5717265" lon="-7.9069234">
        <ele>365.2</ele>
        <time>2023-09-11T10:41:50Z</time>
        <hdop>16.4</hdop>
        <extensions>
          <osmand:heading>0</osmand:heading>
        </extensions>
      </trkpt>
      <trkpt lat="38.5717261" lon="-7.9069244">
        <ele>365.2</ele>
        <time>2023-09-11T10:41:56Z</time>
        <hdop>17.3</hdop>
        <extensions>
          <osmand:heading>0</osmand:heading>
        </extensions>
      </trkpt>
      <trkpt lat="38.5717061" lon="-7.9068408">
        <ele>361.7</ele>
        <time>2023-09-11T10:42:10Z</time>
        <hdop>20</hdop>
        <extensions>
          <osmand:heading>0</osmand:heading>
        </extensions>
      </trkpt>
      <trkpt lat="38.5717056" lon="-7.9068435">
        <ele>361.7</ele>
        <time>2023-09-11T10:42:21Z</time>
        <hdop>20</hdop>
        <extensions>
          <osmand:heading>0</osmand:heading>
        </extensions>
      </trkpt>
      <trkpt lat="38.5717025" lon="-7.9068399">
        <ele>361.7</ele>
        <time>2023-09-11T10:42:36Z</time>
        <hdop>20</hdop>
        <extensions>
          <osmand:heading>0</osmand:heading>
        </extensions>
      </trkpt>
      <trkpt lat="38.5717032" lon="-7.9068446">
        <ele>361.7</ele>
        <time>2023-09-11T10:42:51Z</time>
        <hdop>20</hdop>
        <extensions>
          <osmand:heading>0</osmand:heading>
        </extensions>
      </trkpt>
      <trkpt lat="38.5717025" lon="-7.9068399">
        <ele>361.7</ele>
        <time>2023-09-11T10:43:19Z</time>
        <hdop>20</hdop>
        <extensions>
          <osmand:heading>0</osmand:heading>
        </extensions>
      </trkpt>
    </trkseg>
  </trk>
</gpx>