<?xml version='1.0' encoding='UTF-8' standalone='yes' ?>
<gpx version="1.1" creator="OsmAnd~ 4.4.7" xmlns="http://www.topografix.com/GPX/1/1" xmlns:osmand="https://osmand.net" xmlns:xsi="http://www.w3.org/2001/XMLSchema-instance" xsi:schemaLocation="http://www.topografix.com/GPX/1/1 http://www.topografix.com/GPX/1/1/gpx.xsd">
  <metadata>
    <name>2023-09-18_13-21_Mon</name>
    <time>2023-09-18T11:37:48Z</time>
  </metadata>
  <trk>
    <trkseg>
      <trkpt lat="48.8720331" lon="2.3419769">
        <ele>82.7</ele>
        <time>2023-09-18T11:21:33Z</time>
        <hdop>11.6</hdop>
        <extensions>
          <osmand:bearing>202.7</osmand:bearing>
          <osmand:speed>0.2</osmand:speed>
          <osmand:heading>0</osmand:heading>
        </extensions>
      </trkpt>
      <trkpt lat="48.8717434" lon="2.3418346">
        <ele>92.3</ele>
        <time>2023-09-18T11:25:05Z</time>
        <hdop>21.3</hdop>
        <extensions>
          <osmand:bearing>43.3</osmand:bearing>
          <osmand:speed>2.3</osmand:speed>
          <osmand:heading>0</osmand:heading>
        </extensions>
      </trkpt>
      <trkpt lat="48.8716831" lon="2.3418149">
        <ele>96.9</ele>
        <time>2023-09-18T11:25:35Z</time>
        <hdop>3.8</hdop>
        <extensions>
          <osmand:bearing>179.7</osmand:bearing>
          <osmand:speed>1.3</osmand:speed>
          <osmand:heading>0</osmand:heading>
        </extensions>
      </trkpt>
      <trkpt lat="48.8716186" lon="2.3418943">
        <ele>83.6</ele>
        <time>2023-09-18T11:26:13Z</time>
        <hdop>5</hdop>
        <extensions>
          <osmand:bearing>9.4</osmand:bearing>
          <osmand:speed>0.4</osmand:speed>
          <osmand:heading>0</osmand:heading>
        </extensions>
      </trkpt>
      <trkpt lat="48.8717549" lon="2.3416268">
        <ele>85</ele>
        <time>2023-09-18T11:26:43Z</time>
        <hdop>5</hdop>
        <extensions>
          <osmand:bearing>293.2</osmand:bearing>
          <osmand:speed>1</osmand:speed>
          <osmand:heading>0</osmand:heading>
        </extensions>
      </trkpt>
      <trkpt lat="48.8719012" lon="2.34111">
        <ele>93.8</ele>
        <time>2023-09-18T11:27:13Z</time>
        <hdop>11.1</hdop>
        <extensions>
          <osmand:bearing>285.3</osmand:bearing>
          <osmand:speed>1.6</osmand:speed>
          <osmand:heading>0</osmand:heading>
        </extensions>
      </trkpt>
      <trkpt lat="48.872058" lon="2.3406152">
        <ele>99.5</ele>
        <time>2023-09-18T11:27:43Z</time>
        <hdop>10.6</hdop>
        <extensions>
          <osmand:bearing>265.6</osmand:bearing>
          <osmand:speed>1.3</osmand:speed>
          <osmand:heading>0</osmand:heading>
        </extensions>
      </trkpt>
      <trkpt lat="48.8720212" lon="2.3401134">
        <ele>84.3</ele>
        <time>2023-09-18T11:28:17Z</time>
        <hdop>10.4</hdop>
        <extensions>
          <osmand:bearing>137.4</osmand:bearing>
          <osmand:speed>0.4</osmand:speed>
          <osmand:heading>0</osmand:heading>
        </extensions>
      </trkpt>
      <trkpt lat="48.871804" lon="2.3395425">
        <ele>79.5</ele>
        <time>2023-09-18T11:28:48Z</time>
        <hdop>10.3</hdop>
        <extensions>
          <osmand:bearing>254.3</osmand:bearing>
          <osmand:speed>1.5</osmand:speed>
          <osmand:heading>0</osmand:heading>
        </extensions>
      </trkpt>
      <trkpt lat="48.8716263" lon="2.339025">
        <ele>76.1</ele>
        <time>2023-09-18T11:29:18Z</time>
        <hdop>10.2</hdop>
        <extensions>
          <osmand:bearing>248.7</osmand:bearing>
          <osmand:speed>1.3</osmand:speed>
          <osmand:heading>0</osmand:heading>
        </extensions>
      </trkpt>
      <trkpt lat="48.8714936" lon="2.3384651">
        <ele>77.2</ele>
        <time>2023-09-18T11:29:49Z</time>
        <hdop>10.9</hdop>
        <extensions>
          <osmand:bearing>252.5</osmand:bearing>
          <osmand:speed>1.4</osmand:speed>
          <osmand:heading>0</osmand:heading>
        </extensions>
      </trkpt>
      <trkpt lat="48.8712238" lon="2.338216">
        <ele>89.3</ele>
        <time>2023-09-18T11:30:20Z</time>
        <hdop>10.5</hdop>
        <extensions>
          <osmand:bearing>181.5</osmand:bearing>
          <osmand:speed>1.5</osmand:speed>
          <osmand:heading>0</osmand:heading>
        </extensions>
      </trkpt>
      <trkpt lat="48.8708964" lon="2.3380399">
        <ele>95.1</ele>
        <time>2023-09-18T11:30:50Z</time>
        <hdop>10.8</hdop>
        <extensions>
          <osmand:bearing>197.1</osmand:bearing>
          <osmand:speed>1.5</osmand:speed>
          <osmand:heading>0</osmand:heading>
        </extensions>
      </trkpt>
      <trkpt lat="48.8705657" lon="2.3379654">
        <ele>90.5</ele>
        <time>2023-09-18T11:31:21Z</time>
        <hdop>9.9</hdop>
        <extensions>
          <osmand:bearing>194.6</osmand:bearing>
          <osmand:speed>1.5</osmand:speed>
          <osmand:heading>0</osmand:heading>
        </extensions>
      </trkpt>
      <trkpt lat="48.870232" lon="2.3377166">
        <ele>97.2</ele>
        <time>2023-09-18T11:31:52Z</time>
        <hdop>9.9</hdop>
        <extensions>
          <osmand:bearing>265.6</osmand:bearing>
          <osmand:speed>1.5</osmand:speed>
          <osmand:heading>0</osmand:heading>
        </extensions>
      </trkpt>
      <trkpt lat="48.8704284" lon="2.3372424">
        <ele>90.4</ele>
        <time>2023-09-18T11:32:22Z</time>
        <hdop>10.7</hdop>
        <extensions>
          <osmand:bearing>294.3</osmand:bearing>
          <osmand:speed>1.3</osmand:speed>
          <osmand:heading>0</osmand:heading>
        </extensions>
      </trkpt>
      <trkpt lat="48.8702282" lon="2.3369469">
        <ele>81.4</ele>
        <time>2023-09-18T11:32:52Z</time>
        <hdop>9.9</hdop>
        <extensions>
          <osmand:bearing>194.8</osmand:bearing>
          <osmand:speed>1.4</osmand:speed>
          <osmand:heading>0</osmand:heading>
        </extensions>
      </trkpt>
      <trkpt lat="48.8697697" lon="2.336669">
        <ele>97.5</ele>
        <time>2023-09-18T11:33:22Z</time>
        <hdop>9.9</hdop>
        <extensions>
          <osmand:bearing>208.2</osmand:bearing>
          <osmand:speed>0.2</osmand:speed>
          <osmand:heading>0</osmand:heading>
        </extensions>
      </trkpt>
      <trkpt lat="48.8695449" lon="2.3365688">
        <ele>101.1</ele>
        <time>2023-09-18T11:33:53Z</time>
        <hdop>9.9</hdop>
        <extensions>
          <osmand:bearing>266.3</osmand:bearing>
          <osmand:speed>1.7</osmand:speed>
          <osmand:heading>0</osmand:heading>
        </extensions>
      </trkpt>
      <trkpt lat="48.8696282" lon="2.3362499">
        <ele>107.7</ele>
        <time>2023-09-18T11:34:23Z</time>
        <hdop>10.1</hdop>
        <extensions>
          <osmand:bearing>324.4</osmand:bearing>
          <osmand:speed>0.7</osmand:speed>
          <osmand:heading>0</osmand:heading>
        </extensions>
      </trkpt>
      <trkpt lat="48.869569" lon="2.336131">
        <ele>100.9</ele>
        <time>2023-09-18T11:34:54Z</time>
        <hdop>9.9</hdop>
        <extensions>
          <osmand:bearing>181.4</osmand:bearing>
          <osmand:speed>1.4</osmand:speed>
          <osmand:heading>0</osmand:heading>
        </extensions>
      </trkpt>
      <trkpt lat="48.8694291" lon="2.3358912">
        <ele>106.1</ele>
        <time>2023-09-18T11:35:24Z</time>
        <hdop>4.6</hdop>
        <extensions>
          <osmand:bearing>184</osmand:bearing>
          <osmand:speed>1.5</osmand:speed>
          <osmand:heading>0</osmand:heading>
        </extensions>
      </trkpt>
      <trkpt lat="48.8690374" lon="2.3357632">
        <ele>106.8</ele>
        <time>2023-09-18T11:35:54Z</time>
        <hdop>4.2</hdop>
        <extensions>
          <osmand:bearing>195.7</osmand:bearing>
          <osmand:speed>1.8</osmand:speed>
          <osmand:heading>0</osmand:heading>
        </extensions>
      </trkpt>
      <trkpt lat="48.8689076" lon="2.335531">
        <ele>95.8</ele>
        <time>2023-09-18T11:36:25Z</time>
        <hdop>9.9</hdop>
        <extensions>
          <osmand:bearing>210.8</osmand:bearing>
          <osmand:speed>0.6</osmand:speed>
          <osmand:heading>0</osmand:heading>
        </extensions>
      </trkpt>
      <trkpt lat="48.8688751" lon="2.3349162">
        <ele>94.7</ele>
        <time>2023-09-18T11:36:56Z</time>
        <hdop>9.9</hdop>
        <extensions>
          <osmand:bearing>271.3</osmand:bearing>
          <osmand:speed>1.5</osmand:speed>
          <osmand:heading>0</osmand:heading>
        </extensions>
      </trkpt>
      <trkpt lat="48.8688211" lon="2.3344158">
        <ele>87.3</ele>
        <time>2023-09-18T11:37:28Z</time>
        <hdop>9.9</hdop>
        <extensions>
          <osmand:bearing>184.8</osmand:bearing>
          <osmand:speed>0.6</osmand:speed>
          <osmand:heading>0</osmand:heading>
        </extensions>
      </trkpt>
    </trkseg>
  </trk>
</gpx>