<?xml version='1.0' encoding='UTF-8' standalone='yes' ?>
<gpx version="1.1" creator="OsmAnd~ 4.4.7" xmlns="http://www.topografix.com/GPX/1/1" xmlns:osmand="https://osmand.net" xmlns:xsi="http://www.w3.org/2001/XMLSchema-instance" xsi:schemaLocation="http://www.topografix.com/GPX/1/1 http://www.topografix.com/GPX/1/1/gpx.xsd">
  <metadata>
    <name>2023-09-11_14-21_Mon</name>
    <time>2023-09-11T13:47:54Z</time>
  </metadata>
  <trk>
    <trkseg>
      <trkpt lat="38.5717358" lon="-7.907188">
        <ele>359</ele>
        <time>2023-09-11T13:21:34Z</time>
        <hdop>4.3</hdop>
        <extensions>
          <osmand:heading>0</osmand:heading>
        </extensions>
      </trkpt>
      <trkpt lat="38.5717449" lon="-7.9071829">
        <ele>363.3</ele>
        <time>2023-09-11T13:21:39Z</time>
        <hdop>4.1</hdop>
        <extensions>
          <osmand:heading>0</osmand:heading>
        </extensions>
      </trkpt>
      <trkpt lat="38.5717499" lon="-7.9071715">
        <ele>365.4</ele>
        <time>2023-09-11T13:21:45Z</time>
        <hdop>3.8</hdop>
        <extensions>
          <osmand:bearing>324.8</osmand:bearing>
          <osmand:speed>0.2</osmand:speed>
          <osmand:heading>0</osmand:heading>
        </extensions>
      </trkpt>
      <trkpt lat="38.5717853" lon="-7.9071668">
        <ele>363.4</ele>
        <time>2023-09-11T13:21:50Z</time>
        <hdop>3.8</hdop>
        <extensions>
          <osmand:heading>0</osmand:heading>
        </extensions>
      </trkpt>
      <trkpt lat="38.5717871" lon="-7.9071656">
        <ele>361.9</ele>
        <time>2023-09-11T13:21:56Z</time>
        <hdop>3.8</hdop>
        <extensions>
          <osmand:heading>0</osmand:heading>
        </extensions>
      </trkpt>
      <trkpt lat="38.5717864" lon="-7.9071605">
        <ele>362.8</ele>
        <time>2023-09-11T13:22:02Z</time>
        <hdop>3.8</hdop>
        <extensions>
          <osmand:heading>0</osmand:heading>
        </extensions>
      </trkpt>
      <trkpt lat="38.5717928" lon="-7.9071662">
        <ele>362.9</ele>
        <time>2023-09-11T13:22:07Z</time>
        <hdop>3.8</hdop>
        <extensions>
          <osmand:bearing>327.1</osmand:bearing>
          <osmand:speed>0.6</osmand:speed>
          <osmand:heading>0</osmand:heading>
        </extensions>
      </trkpt>
      <trkpt lat="38.5718273" lon="-7.9071936">
        <ele>361.8</ele>
        <time>2023-09-11T13:22:12Z</time>
        <hdop>3.8</hdop>
        <extensions>
          <osmand:bearing>324</osmand:bearing>
          <osmand:speed>0.9</osmand:speed>
          <osmand:heading>0</osmand:heading>
        </extensions>
      </trkpt>
      <trkpt lat="38.5718716" lon="-7.9072267">
        <ele>363.9</ele>
        <time>2023-09-11T13:22:17Z</time>
        <hdop>3.8</hdop>
        <extensions>
          <osmand:bearing>322</osmand:bearing>
          <osmand:speed>0.9</osmand:speed>
          <osmand:heading>0</osmand:heading>
        </extensions>
      </trkpt>
      <trkpt lat="38.5719148" lon="-7.907272">
        <ele>364.9</ele>
        <time>2023-09-11T13:22:23Z</time>
        <hdop>3.8</hdop>
        <extensions>
          <osmand:bearing>326.5</osmand:bearing>
          <osmand:speed>0.9</osmand:speed>
          <osmand:heading>0</osmand:heading>
        </extensions>
      </trkpt>
      <trkpt lat="38.5719451" lon="-7.9073109">
        <ele>365.7</ele>
        <time>2023-09-11T13:22:28Z</time>
        <hdop>3.8</hdop>
        <extensions>
          <osmand:bearing>319.4</osmand:bearing>
          <osmand:speed>0.9</osmand:speed>
          <osmand:heading>0</osmand:heading>
        </extensions>
      </trkpt>
      <trkpt lat="38.5719903" lon="-7.9073562">
        <ele>364.4</ele>
        <time>2023-09-11T13:22:34Z</time>
        <hdop>3.8</hdop>
        <extensions>
          <osmand:bearing>316.6</osmand:bearing>
          <osmand:speed>1.1</osmand:speed>
          <osmand:heading>0</osmand:heading>
        </extensions>
      </trkpt>
      <trkpt lat="38.572037" lon="-7.9073952">
        <ele>365</ele>
        <time>2023-09-11T13:22:40Z</time>
        <hdop>3.8</hdop>
        <extensions>
          <osmand:bearing>324.4</osmand:bearing>
          <osmand:speed>1</osmand:speed>
          <osmand:heading>0</osmand:heading>
        </extensions>
      </trkpt>
      <trkpt lat="38.5720848" lon="-7.9074124">
        <ele>364.6</ele>
        <time>2023-09-11T13:22:45Z</time>
        <hdop>3.8</hdop>
        <extensions>
          <osmand:bearing>344.4</osmand:bearing>
          <osmand:speed>0.8</osmand:speed>
          <osmand:heading>0</osmand:heading>
        </extensions>
      </trkpt>
      <trkpt lat="38.5721052" lon="-7.9074155">
        <ele>364.2</ele>
        <time>2023-09-11T13:22:50Z</time>
        <hdop>3.8</hdop>
        <extensions>
          <osmand:heading>0</osmand:heading>
        </extensions>
      </trkpt>
      <trkpt lat="38.5721006" lon="-7.9074103">
        <ele>364.4</ele>
        <time>2023-09-11T13:22:55Z</time>
        <hdop>3.8</hdop>
        <extensions>
          <osmand:heading>0</osmand:heading>
        </extensions>
      </trkpt>
      <trkpt lat="38.5721005" lon="-7.9074102">
        <ele>364.4</ele>
        <time>2023-09-11T13:23:00Z</time>
        <hdop>3.8</hdop>
        <extensions>
          <osmand:heading>0</osmand:heading>
        </extensions>
      </trkpt>
      <trkpt lat="38.5721231" lon="-7.9074296">
        <ele>364.6</ele>
        <time>2023-09-11T13:23:06Z</time>
        <hdop>3.8</hdop>
        <extensions>
          <osmand:bearing>335.4</osmand:bearing>
          <osmand:speed>0.6</osmand:speed>
          <osmand:heading>0</osmand:heading>
        </extensions>
      </trkpt>
      <trkpt lat="38.5721293" lon="-7.90744">
        <ele>364.6</ele>
        <time>2023-09-11T13:23:11Z</time>
        <hdop>3.8</hdop>
        <extensions>
          <osmand:bearing>307</osmand:bearing>
          <osmand:speed>0.6</osmand:speed>
          <osmand:heading>0</osmand:heading>
        </extensions>
      </trkpt>
      <trkpt lat="38.5721417" lon="-7.9074992">
        <ele>365.1</ele>
        <time>2023-09-11T13:23:17Z</time>
        <hdop>3.8</hdop>
        <extensions>
          <osmand:bearing>290.3</osmand:bearing>
          <osmand:speed>0.9</osmand:speed>
          <osmand:heading>0</osmand:heading>
        </extensions>
      </trkpt>
      <trkpt lat="38.5721537" lon="-7.9075429">
        <ele>365.1</ele>
        <time>2023-09-11T13:23:22Z</time>
        <hdop>3.8</hdop>
        <extensions>
          <osmand:bearing>282.7</osmand:bearing>
          <osmand:speed>0.8</osmand:speed>
          <osmand:heading>0</osmand:heading>
        </extensions>
      </trkpt>
      <trkpt lat="38.5721619" lon="-7.9075972">
        <ele>363.9</ele>
        <time>2023-09-11T13:23:28Z</time>
        <hdop>3.8</hdop>
        <extensions>
          <osmand:bearing>264.2</osmand:bearing>
          <osmand:speed>0.3</osmand:speed>
          <osmand:heading>0</osmand:heading>
        </extensions>
      </trkpt>
      <trkpt lat="38.5721624" lon="-7.907598">
        <ele>363.9</ele>
        <time>2023-09-11T13:23:34Z</time>
        <hdop>3.8</hdop>
        <extensions>
          <osmand:heading>0</osmand:heading>
        </extensions>
      </trkpt>
      <trkpt lat="38.5721572" lon="-7.907628">
        <ele>364.1</ele>
        <time>2023-09-11T13:23:39Z</time>
        <hdop>3.8</hdop>
        <extensions>
          <osmand:bearing>264.5</osmand:bearing>
          <osmand:speed>0.4</osmand:speed>
          <osmand:heading>0</osmand:heading>
        </extensions>
      </trkpt>
      <trkpt lat="38.5721509" lon="-7.9076361">
        <ele>363.9</ele>
        <time>2023-09-11T13:23:45Z</time>
        <hdop>3.8</hdop>
        <extensions>
          <osmand:heading>0</osmand:heading>
        </extensions>
      </trkpt>
      <trkpt lat="38.5721314" lon="-7.9076572">
        <ele>363.4</ele>
        <time>2023-09-11T13:23:50Z</time>
        <hdop>3.8</hdop>
        <extensions>
          <osmand:bearing>204.2</osmand:bearing>
          <osmand:speed>0.9</osmand:speed>
          <osmand:heading>0</osmand:heading>
        </extensions>
      </trkpt>
      <trkpt lat="38.5721204" lon="-7.9077009">
        <ele>366</ele>
        <time>2023-09-11T13:23:56Z</time>
        <hdop>3.8</hdop>
        <extensions>
          <osmand:bearing>242.3</osmand:bearing>
          <osmand:speed>1</osmand:speed>
          <osmand:heading>0</osmand:heading>
        </extensions>
      </trkpt>
      <trkpt lat="38.5720955" lon="-7.9077637">
        <ele>366</ele>
        <time>2023-09-11T13:24:02Z</time>
        <hdop>3.8</hdop>
        <extensions>
          <osmand:bearing>244.8</osmand:bearing>
          <osmand:speed>1.2</osmand:speed>
          <osmand:heading>0</osmand:heading>
        </extensions>
      </trkpt>
      <trkpt lat="38.5720708" lon="-7.9078506">
        <ele>365.5</ele>
        <time>2023-09-11T13:24:08Z</time>
        <hdop>3.8</hdop>
        <extensions>
          <osmand:bearing>229.6</osmand:bearing>
          <osmand:speed>1.4</osmand:speed>
          <osmand:heading>0</osmand:heading>
        </extensions>
      </trkpt>
      <trkpt lat="38.5720526" lon="-7.907911">
        <ele>364</ele>
        <time>2023-09-11T13:24:13Z</time>
        <hdop>3.8</hdop>
        <extensions>
          <osmand:bearing>231.3</osmand:bearing>
          <osmand:speed>1.2</osmand:speed>
          <osmand:heading>0</osmand:heading>
        </extensions>
      </trkpt>
      <trkpt lat="38.5719988" lon="-7.9079646">
        <ele>365.2</ele>
        <time>2023-09-11T13:24:19Z</time>
        <hdop>3.8</hdop>
        <extensions>
          <osmand:bearing>241.3</osmand:bearing>
          <osmand:speed>0.9</osmand:speed>
          <osmand:heading>0</osmand:heading>
        </extensions>
      </trkpt>
      <trkpt lat="38.5719786" lon="-7.9080412">
        <ele>363.4</ele>
        <time>2023-09-11T13:24:25Z</time>
        <hdop>3.8</hdop>
        <extensions>
          <osmand:bearing>280.2</osmand:bearing>
          <osmand:speed>1.3</osmand:speed>
          <osmand:heading>0</osmand:heading>
        </extensions>
      </trkpt>
      <trkpt lat="38.5719502" lon="-7.908106">
        <ele>363.2</ele>
        <time>2023-09-11T13:24:30Z</time>
        <hdop>3.8</hdop>
        <extensions>
          <osmand:bearing>242.5</osmand:bearing>
          <osmand:speed>1.1</osmand:speed>
          <osmand:heading>0</osmand:heading>
        </extensions>
      </trkpt>
      <trkpt lat="38.5719349" lon="-7.9081775">
        <ele>363.7</ele>
        <time>2023-09-11T13:24:36Z</time>
        <hdop>3.8</hdop>
        <extensions>
          <osmand:bearing>249.2</osmand:bearing>
          <osmand:speed>0.4</osmand:speed>
          <osmand:heading>0</osmand:heading>
        </extensions>
      </trkpt>
      <trkpt lat="38.5719346" lon="-7.908205">
        <ele>363.9</ele>
        <time>2023-09-11T13:24:42Z</time>
        <hdop>3.8</hdop>
        <extensions>
          <osmand:bearing>234.8</osmand:bearing>
          <osmand:speed>0.4</osmand:speed>
          <osmand:heading>0</osmand:heading>
        </extensions>
      </trkpt>
      <trkpt lat="38.571934" lon="-7.9081971">
        <ele>364.4</ele>
        <time>2023-09-11T13:24:48Z</time>
        <hdop>9.9</hdop>
        <extensions>
          <osmand:heading>0</osmand:heading>
        </extensions>
      </trkpt>
      <trkpt lat="38.5719639" lon="-7.9082077">
        <ele>364.3</ele>
        <time>2023-09-11T13:24:53Z</time>
        <hdop>9.9</hdop>
        <extensions>
          <osmand:heading>0</osmand:heading>
        </extensions>
      </trkpt>
      <trkpt lat="38.5719726" lon="-7.9082116">
        <ele>363.9</ele>
        <time>2023-09-11T13:24:59Z</time>
        <hdop>9.9</hdop>
        <extensions>
          <osmand:bearing>312.9</osmand:bearing>
          <osmand:speed>0.5</osmand:speed>
          <osmand:heading>0</osmand:heading>
        </extensions>
      </trkpt>
      <trkpt lat="38.5719716" lon="-7.9082654">
        <ele>362.8</ele>
        <time>2023-09-11T13:25:05Z</time>
        <hdop>9.9</hdop>
        <extensions>
          <osmand:bearing>261.5</osmand:bearing>
          <osmand:speed>0.9</osmand:speed>
          <osmand:heading>0</osmand:heading>
        </extensions>
      </trkpt>
      <trkpt lat="38.5719574" lon="-7.9083101">
        <ele>362.1</ele>
        <time>2023-09-11T13:25:10Z</time>
        <hdop>9.9</hdop>
        <extensions>
          <osmand:bearing>235</osmand:bearing>
          <osmand:speed>0.8</osmand:speed>
          <osmand:heading>0</osmand:heading>
        </extensions>
      </trkpt>
      <trkpt lat="38.5719212" lon="-7.9083323">
        <ele>362.4</ele>
        <time>2023-09-11T13:25:16Z</time>
        <hdop>9.9</hdop>
        <extensions>
          <osmand:bearing>219</osmand:bearing>
          <osmand:speed>0.2</osmand:speed>
          <osmand:heading>0</osmand:heading>
        </extensions>
      </trkpt>
      <trkpt lat="38.5718883" lon="-7.9083672">
        <ele>364.3</ele>
        <time>2023-09-11T13:25:22Z</time>
        <hdop>9.9</hdop>
        <extensions>
          <osmand:bearing>243.7</osmand:bearing>
          <osmand:speed>0.7</osmand:speed>
          <osmand:heading>0</osmand:heading>
        </extensions>
      </trkpt>
      <trkpt lat="38.5718596" lon="-7.9083862">
        <ele>362.9</ele>
        <time>2023-09-11T13:25:27Z</time>
        <hdop>9.9</hdop>
        <extensions>
          <osmand:bearing>220.4</osmand:bearing>
          <osmand:speed>1.4</osmand:speed>
          <osmand:heading>0</osmand:heading>
        </extensions>
      </trkpt>
      <trkpt lat="38.5718187" lon="-7.908435">
        <ele>362.4</ele>
        <time>2023-09-11T13:25:33Z</time>
        <hdop>9.9</hdop>
        <extensions>
          <osmand:bearing>275.1</osmand:bearing>
          <osmand:speed>1.2</osmand:speed>
          <osmand:heading>0</osmand:heading>
        </extensions>
      </trkpt>
      <trkpt lat="38.5717931" lon="-7.9084636">
        <ele>364.5</ele>
        <time>2023-09-11T13:25:39Z</time>
        <hdop>9.9</hdop>
        <extensions>
          <osmand:bearing>210.9</osmand:bearing>
          <osmand:speed>0.6</osmand:speed>
          <osmand:heading>0</osmand:heading>
        </extensions>
      </trkpt>
      <trkpt lat="38.5717787" lon="-7.9084477">
        <ele>364.9</ele>
        <time>2023-09-11T13:25:45Z</time>
        <hdop>9.9</hdop>
        <extensions>
          <osmand:bearing>231.4</osmand:bearing>
          <osmand:speed>0.3</osmand:speed>
          <osmand:heading>0</osmand:heading>
        </extensions>
      </trkpt>
      <trkpt lat="38.571767" lon="-7.9084448">
        <ele>364.1</ele>
        <time>2023-09-11T13:25:50Z</time>
        <hdop>9.9</hdop>
        <extensions>
          <osmand:bearing>222.2</osmand:bearing>
          <osmand:speed>1</osmand:speed>
          <osmand:heading>0</osmand:heading>
        </extensions>
      </trkpt>
      <trkpt lat="38.5717272" lon="-7.908501">
        <ele>363.3</ele>
        <time>2023-09-11T13:25:56Z</time>
        <hdop>9.9</hdop>
        <extensions>
          <osmand:bearing>234.8</osmand:bearing>
          <osmand:speed>1.2</osmand:speed>
          <osmand:heading>0</osmand:heading>
        </extensions>
      </trkpt>
      <trkpt lat="38.5716955" lon="-7.9085552">
        <ele>363.9</ele>
        <time>2023-09-11T13:26:01Z</time>
        <hdop>9.9</hdop>
        <extensions>
          <osmand:bearing>232.8</osmand:bearing>
          <osmand:speed>1.2</osmand:speed>
          <osmand:heading>0</osmand:heading>
        </extensions>
      </trkpt>
      <trkpt lat="38.571657" lon="-7.9086115">
        <ele>362.3</ele>
        <time>2023-09-11T13:26:07Z</time>
        <hdop>9.9</hdop>
        <extensions>
          <osmand:bearing>223.7</osmand:bearing>
          <osmand:speed>1.2</osmand:speed>
          <osmand:heading>0</osmand:heading>
        </extensions>
      </trkpt>
      <trkpt lat="38.5716331" lon="-7.9086835">
        <ele>362.6</ele>
        <time>2023-09-11T13:26:13Z</time>
        <hdop>9.9</hdop>
        <extensions>
          <osmand:bearing>273.6</osmand:bearing>
          <osmand:speed>1.2</osmand:speed>
          <osmand:heading>0</osmand:heading>
        </extensions>
      </trkpt>
      <trkpt lat="38.5716518" lon="-7.9087396">
        <ele>363</ele>
        <time>2023-09-11T13:26:19Z</time>
        <hdop>3.8</hdop>
        <extensions>
          <osmand:bearing>325.4</osmand:bearing>
          <osmand:speed>1</osmand:speed>
          <osmand:heading>0</osmand:heading>
        </extensions>
      </trkpt>
      <trkpt lat="38.5716815" lon="-7.9087901">
        <ele>362.9</ele>
        <time>2023-09-11T13:26:25Z</time>
        <hdop>3.8</hdop>
        <extensions>
          <osmand:bearing>303.9</osmand:bearing>
          <osmand:speed>0.5</osmand:speed>
          <osmand:heading>0</osmand:heading>
        </extensions>
      </trkpt>
      <trkpt lat="38.571683" lon="-7.9088149">
        <ele>363.6</ele>
        <time>2023-09-11T13:26:31Z</time>
        <hdop>3.8</hdop>
        <extensions>
          <osmand:heading>0</osmand:heading>
        </extensions>
      </trkpt>
      <trkpt lat="38.5716958" lon="-7.9088353">
        <ele>363.7</ele>
        <time>2023-09-11T13:26:36Z</time>
        <hdop>3.8</hdop>
        <extensions>
          <osmand:bearing>317.9</osmand:bearing>
          <osmand:speed>1</osmand:speed>
          <osmand:heading>0</osmand:heading>
        </extensions>
      </trkpt>
      <trkpt lat="38.571732" lon="-7.9089007">
        <ele>363.8</ele>
        <time>2023-09-11T13:26:42Z</time>
        <hdop>3.8</hdop>
        <extensions>
          <osmand:bearing>310</osmand:bearing>
          <osmand:speed>1.2</osmand:speed>
          <osmand:heading>0</osmand:heading>
        </extensions>
      </trkpt>
      <trkpt lat="38.5717638" lon="-7.9089522">
        <ele>363.3</ele>
        <time>2023-09-11T13:26:47Z</time>
        <hdop>3.8</hdop>
        <extensions>
          <osmand:bearing>320.9</osmand:bearing>
          <osmand:speed>1.1</osmand:speed>
          <osmand:heading>0</osmand:heading>
        </extensions>
      </trkpt>
      <trkpt lat="38.5718108" lon="-7.9089953">
        <ele>362.7</ele>
        <time>2023-09-11T13:26:53Z</time>
        <hdop>3.8</hdop>
        <extensions>
          <osmand:bearing>325</osmand:bearing>
          <osmand:speed>1.2</osmand:speed>
          <osmand:heading>0</osmand:heading>
        </extensions>
      </trkpt>
      <trkpt lat="38.5718428" lon="-7.9090432">
        <ele>361.8</ele>
        <time>2023-09-11T13:26:58Z</time>
        <hdop>3.8</hdop>
        <extensions>
          <osmand:bearing>300</osmand:bearing>
          <osmand:speed>1.2</osmand:speed>
          <osmand:heading>0</osmand:heading>
        </extensions>
      </trkpt>
      <trkpt lat="38.5718766" lon="-7.9091062">
        <ele>361.9</ele>
        <time>2023-09-11T13:27:04Z</time>
        <hdop>3.8</hdop>
        <extensions>
          <osmand:bearing>303.3</osmand:bearing>
          <osmand:speed>1.2</osmand:speed>
          <osmand:heading>0</osmand:heading>
        </extensions>
      </trkpt>
      <trkpt lat="38.5719031" lon="-7.9091572">
        <ele>362.5</ele>
        <time>2023-09-11T13:27:09Z</time>
        <hdop>3.8</hdop>
        <extensions>
          <osmand:bearing>288.9</osmand:bearing>
          <osmand:speed>1</osmand:speed>
          <osmand:heading>0</osmand:heading>
        </extensions>
      </trkpt>
      <trkpt lat="38.5719257" lon="-7.9092004">
        <ele>362.1</ele>
        <time>2023-09-11T13:27:16Z</time>
        <hdop>3.8</hdop>
        <extensions>
          <osmand:bearing>303.7</osmand:bearing>
          <osmand:speed>0.6</osmand:speed>
          <osmand:heading>0</osmand:heading>
        </extensions>
      </trkpt>
      <trkpt lat="38.5719331" lon="-7.9092064">
        <ele>361.9</ele>
        <time>2023-09-11T13:27:21Z</time>
        <hdop>3.8</hdop>
        <extensions>
          <osmand:bearing>297.3</osmand:bearing>
          <osmand:speed>0.8</osmand:speed>
          <osmand:heading>0</osmand:heading>
        </extensions>
      </trkpt>
      <trkpt lat="38.5719504" lon="-7.9092604">
        <ele>362</ele>
        <time>2023-09-11T13:27:26Z</time>
        <hdop>3.8</hdop>
        <extensions>
          <osmand:bearing>300</osmand:bearing>
          <osmand:speed>1</osmand:speed>
          <osmand:heading>0</osmand:heading>
        </extensions>
      </trkpt>
      <trkpt lat="38.5719898" lon="-7.9092742">
        <ele>362.2</ele>
        <time>2023-09-11T13:27:32Z</time>
        <hdop>3.8</hdop>
        <extensions>
          <osmand:heading>0</osmand:heading>
        </extensions>
      </trkpt>
      <trkpt lat="38.5720248" lon="-7.9093319">
        <ele>363</ele>
        <time>2023-09-11T13:27:38Z</time>
        <hdop>3.8</hdop>
        <extensions>
          <osmand:bearing>308.5</osmand:bearing>
          <osmand:speed>1.3</osmand:speed>
          <osmand:heading>0</osmand:heading>
        </extensions>
      </trkpt>
      <trkpt lat="38.5720628" lon="-7.9093973">
        <ele>363.1</ele>
        <time>2023-09-11T13:27:44Z</time>
        <hdop>3.8</hdop>
        <extensions>
          <osmand:bearing>312.3</osmand:bearing>
          <osmand:speed>1.2</osmand:speed>
          <osmand:heading>0</osmand:heading>
        </extensions>
      </trkpt>
      <trkpt lat="38.5720859" lon="-7.9094781">
        <ele>363.3</ele>
        <time>2023-09-11T13:27:50Z</time>
        <hdop>3.8</hdop>
        <extensions>
          <osmand:bearing>303.2</osmand:bearing>
          <osmand:speed>1.1</osmand:speed>
          <osmand:heading>0</osmand:heading>
        </extensions>
      </trkpt>
      <trkpt lat="38.5721011" lon="-7.9095365">
        <ele>364.3</ele>
        <time>2023-09-11T13:27:55Z</time>
        <hdop>3.8</hdop>
        <extensions>
          <osmand:bearing>280.2</osmand:bearing>
          <osmand:speed>1.1</osmand:speed>
          <osmand:heading>0</osmand:heading>
        </extensions>
      </trkpt>
      <trkpt lat="38.5721037" lon="-7.9095914">
        <ele>364.6</ele>
        <time>2023-09-11T13:28:00Z</time>
        <hdop>3.8</hdop>
        <extensions>
          <osmand:bearing>293.3</osmand:bearing>
          <osmand:speed>0.8</osmand:speed>
          <osmand:heading>0</osmand:heading>
        </extensions>
      </trkpt>
      <trkpt lat="38.5721167" lon="-7.9096318">
        <ele>365.8</ele>
        <time>2023-09-11T13:28:06Z</time>
        <hdop>3.8</hdop>
        <extensions>
          <osmand:bearing>277.9</osmand:bearing>
          <osmand:speed>0.6</osmand:speed>
          <osmand:heading>0</osmand:heading>
        </extensions>
      </trkpt>
      <trkpt lat="38.5721201" lon="-7.9096405">
        <ele>365</ele>
        <time>2023-09-11T13:28:11Z</time>
        <hdop>9.9</hdop>
        <extensions>
          <osmand:heading>0</osmand:heading>
        </extensions>
      </trkpt>
      <trkpt lat="38.5721208" lon="-7.90964">
        <ele>365</ele>
        <time>2023-09-11T13:28:16Z</time>
        <hdop>9.9</hdop>
        <extensions>
          <osmand:heading>0</osmand:heading>
        </extensions>
      </trkpt>
      <trkpt lat="38.5721296" lon="-7.9096456">
        <ele>364.9</ele>
        <time>2023-09-11T13:28:22Z</time>
        <hdop>3.8</hdop>
        <extensions>
          <osmand:heading>0</osmand:heading>
        </extensions>
      </trkpt>
      <trkpt lat="38.5721284" lon="-7.9096458">
        <ele>364.1</ele>
        <time>2023-09-11T13:28:27Z</time>
        <hdop>3.8</hdop>
        <extensions>
          <osmand:bearing>274.5</osmand:bearing>
          <osmand:speed>0.2</osmand:speed>
          <osmand:heading>0</osmand:heading>
        </extensions>
      </trkpt>
      <trkpt lat="38.5721253" lon="-7.9096743">
        <ele>362.5</ele>
        <time>2023-09-11T13:28:33Z</time>
        <hdop>3.8</hdop>
        <extensions>
          <osmand:bearing>239.8</osmand:bearing>
          <osmand:speed>1.1</osmand:speed>
          <osmand:heading>0</osmand:heading>
        </extensions>
      </trkpt>
      <trkpt lat="38.5720924" lon="-7.9097172">
        <ele>362.2</ele>
        <time>2023-09-11T13:28:38Z</time>
        <hdop>3.8</hdop>
        <extensions>
          <osmand:bearing>211.1</osmand:bearing>
          <osmand:speed>1.1</osmand:speed>
          <osmand:heading>0</osmand:heading>
        </extensions>
      </trkpt>
      <trkpt lat="38.57204" lon="-7.9097384">
        <ele>361.1</ele>
        <time>2023-09-11T13:28:44Z</time>
        <hdop>3.8</hdop>
        <extensions>
          <osmand:bearing>205.2</osmand:bearing>
          <osmand:speed>1</osmand:speed>
          <osmand:heading>0</osmand:heading>
        </extensions>
      </trkpt>
      <trkpt lat="38.5719913" lon="-7.9097376">
        <ele>360.8</ele>
        <time>2023-09-11T13:28:49Z</time>
        <hdop>3.8</hdop>
        <extensions>
          <osmand:bearing>167.7</osmand:bearing>
          <osmand:speed>1.2</osmand:speed>
          <osmand:heading>0</osmand:heading>
        </extensions>
      </trkpt>
      <trkpt lat="38.5719704" lon="-7.9097146">
        <ele>360.4</ele>
        <time>2023-09-11T13:28:54Z</time>
        <hdop>3.8</hdop>
        <extensions>
          <osmand:bearing>72.4</osmand:bearing>
          <osmand:speed>0.2</osmand:speed>
          <osmand:heading>0</osmand:heading>
        </extensions>
      </trkpt>
      <trkpt lat="38.5719667" lon="-7.9097079">
        <ele>360.2</ele>
        <time>2023-09-11T13:29:00Z</time>
        <hdop>3.8</hdop>
        <extensions>
          <osmand:bearing>174.7</osmand:bearing>
          <osmand:speed>0.7</osmand:speed>
          <osmand:heading>0</osmand:heading>
        </extensions>
      </trkpt>
      <trkpt lat="38.5719563" lon="-7.9097035">
        <ele>360.4</ele>
        <time>2023-09-11T13:29:05Z</time>
        <hdop>3.8</hdop>
        <extensions>
          <osmand:heading>0</osmand:heading>
        </extensions>
      </trkpt>
      <trkpt lat="38.5719535" lon="-7.909702">
        <ele>360.2</ele>
        <time>2023-09-11T13:29:10Z</time>
        <hdop>3.8</hdop>
        <extensions>
          <osmand:bearing>129.1</osmand:bearing>
          <osmand:speed>0.5</osmand:speed>
          <osmand:heading>0</osmand:heading>
        </extensions>
      </trkpt>
      <trkpt lat="38.5719135" lon="-7.9097113">
        <ele>359.5</ele>
        <time>2023-09-11T13:29:15Z</time>
        <hdop>3.8</hdop>
        <extensions>
          <osmand:bearing>175.1</osmand:bearing>
          <osmand:speed>1</osmand:speed>
          <osmand:heading>0</osmand:heading>
        </extensions>
      </trkpt>
      <trkpt lat="38.5718782" lon="-7.9097005">
        <ele>360.2</ele>
        <time>2023-09-11T13:29:21Z</time>
        <hdop>3.8</hdop>
        <extensions>
          <osmand:bearing>142</osmand:bearing>
          <osmand:speed>0.8</osmand:speed>
          <osmand:heading>0</osmand:heading>
        </extensions>
      </trkpt>
      <trkpt lat="38.5718735" lon="-7.9096931">
        <ele>361.1</ele>
        <time>2023-09-11T13:29:26Z</time>
        <hdop>3.8</hdop>
        <extensions>
          <osmand:heading>0</osmand:heading>
        </extensions>
      </trkpt>
      <trkpt lat="38.571886" lon="-7.9096998">
        <ele>361.3</ele>
        <time>2023-09-11T13:29:32Z</time>
        <hdop>3.8</hdop>
        <extensions>
          <osmand:bearing>358.6</osmand:bearing>
          <osmand:speed>0.6</osmand:speed>
          <osmand:heading>0</osmand:heading>
        </extensions>
      </trkpt>
      <trkpt lat="38.5718953" lon="-7.909705">
        <ele>361.8</ele>
        <time>2023-09-11T13:29:37Z</time>
        <hdop>3.8</hdop>
        <extensions>
          <osmand:heading>0</osmand:heading>
        </extensions>
      </trkpt>
      <trkpt lat="38.5718732" lon="-7.9096958">
        <ele>361.8</ele>
        <time>2023-09-11T13:29:42Z</time>
        <hdop>3.8</hdop>
        <extensions>
          <osmand:bearing>153.7</osmand:bearing>
          <osmand:speed>0.5</osmand:speed>
          <osmand:heading>0</osmand:heading>
        </extensions>
      </trkpt>
      <trkpt lat="38.5718698" lon="-7.9096879">
        <ele>362.1</ele>
        <time>2023-09-11T13:29:47Z</time>
        <hdop>3.8</hdop>
        <extensions>
          <osmand:bearing>147.9</osmand:bearing>
          <osmand:speed>0.3</osmand:speed>
          <osmand:heading>0</osmand:heading>
        </extensions>
      </trkpt>
      <trkpt lat="38.5718855" lon="-7.9096912">
        <ele>362.3</ele>
        <time>2023-09-11T13:29:53Z</time>
        <hdop>9.9</hdop>
        <extensions>
          <osmand:heading>0</osmand:heading>
        </extensions>
      </trkpt>
      <trkpt lat="38.5718643" lon="-7.9096754">
        <ele>362.5</ele>
        <time>2023-09-11T13:29:59Z</time>
        <hdop>9.9</hdop>
        <extensions>
          <osmand:bearing>138.6</osmand:bearing>
          <osmand:speed>1</osmand:speed>
          <osmand:heading>0</osmand:heading>
        </extensions>
      </trkpt>
      <trkpt lat="38.5718263" lon="-7.9096305">
        <ele>361.8</ele>
        <time>2023-09-11T13:30:05Z</time>
        <hdop>9.9</hdop>
        <extensions>
          <osmand:bearing>137.1</osmand:bearing>
          <osmand:speed>0.9</osmand:speed>
          <osmand:heading>0</osmand:heading>
        </extensions>
      </trkpt>
      <trkpt lat="38.5717983" lon="-7.9095883">
        <ele>363</ele>
        <time>2023-09-11T13:30:11Z</time>
        <hdop>9.9</hdop>
        <extensions>
          <osmand:bearing>144.6</osmand:bearing>
          <osmand:speed>0.9</osmand:speed>
          <osmand:heading>0</osmand:heading>
        </extensions>
      </trkpt>
      <trkpt lat="38.5717903" lon="-7.9095684">
        <ele>363.4</ele>
        <time>2023-09-11T13:30:17Z</time>
        <hdop>9.9</hdop>
        <extensions>
          <osmand:heading>0</osmand:heading>
        </extensions>
      </trkpt>
      <trkpt lat="38.5717919" lon="-7.9095671">
        <ele>363.4</ele>
        <time>2023-09-11T13:30:23Z</time>
        <hdop>9.9</hdop>
        <extensions>
          <osmand:heading>0</osmand:heading>
        </extensions>
      </trkpt>
      <trkpt lat="38.571792" lon="-7.909567">
        <ele>363.4</ele>
        <time>2023-09-11T13:30:28Z</time>
        <hdop>9.9</hdop>
        <extensions>
          <osmand:heading>0</osmand:heading>
        </extensions>
      </trkpt>
      <trkpt lat="38.571792" lon="-7.9095622">
        <ele>362.9</ele>
        <time>2023-09-11T13:30:34Z</time>
        <hdop>3.8</hdop>
        <extensions>
          <osmand:bearing>141.3</osmand:bearing>
          <osmand:speed>0.6</osmand:speed>
          <osmand:heading>0</osmand:heading>
        </extensions>
      </trkpt>
      <trkpt lat="38.5717811" lon="-7.909553">
        <ele>362</ele>
        <time>2023-09-11T13:30:41Z</time>
        <hdop>3.8</hdop>
        <extensions>
          <osmand:heading>0</osmand:heading>
        </extensions>
      </trkpt>
      <trkpt lat="38.5717791" lon="-7.9095523">
        <ele>361.8</ele>
        <time>2023-09-11T13:30:46Z</time>
        <hdop>3.8</hdop>
        <extensions>
          <osmand:bearing>173.8</osmand:bearing>
          <osmand:speed>0.3</osmand:speed>
          <osmand:heading>0</osmand:heading>
        </extensions>
      </trkpt>
      <trkpt lat="38.5717795" lon="-7.9095493">
        <ele>361.8</ele>
        <time>2023-09-11T13:30:52Z</time>
        <hdop>3.8</hdop>
        <extensions>
          <osmand:heading>0</osmand:heading>
        </extensions>
      </trkpt>
      <trkpt lat="38.5717739" lon="-7.9095427">
        <ele>362</ele>
        <time>2023-09-11T13:30:57Z</time>
        <hdop>3.8</hdop>
        <extensions>
          <osmand:bearing>141.3</osmand:bearing>
          <osmand:speed>0.2</osmand:speed>
          <osmand:heading>0</osmand:heading>
        </extensions>
      </trkpt>
      <trkpt lat="38.571774" lon="-7.9095407">
        <ele>361.7</ele>
        <time>2023-09-11T13:31:03Z</time>
        <hdop>3.8</hdop>
        <extensions>
          <osmand:bearing>136.4</osmand:bearing>
          <osmand:speed>0.2</osmand:speed>
          <osmand:heading>0</osmand:heading>
        </extensions>
      </trkpt>
      <trkpt lat="38.5717708" lon="-7.9095359">
        <ele>361.4</ele>
        <time>2023-09-11T13:31:09Z</time>
        <hdop>3.8</hdop>
        <extensions>
          <osmand:bearing>151.3</osmand:bearing>
          <osmand:speed>0.3</osmand:speed>
          <osmand:heading>0</osmand:heading>
        </extensions>
      </trkpt>
      <trkpt lat="38.5717323" lon="-7.9094992">
        <ele>360.7</ele>
        <time>2023-09-11T13:31:15Z</time>
        <hdop>3.8</hdop>
        <extensions>
          <osmand:bearing>146.6</osmand:bearing>
          <osmand:speed>1.1</osmand:speed>
          <osmand:heading>0</osmand:heading>
        </extensions>
      </trkpt>
      <trkpt lat="38.5717225" lon="-7.9094779">
        <ele>361.3</ele>
        <time>2023-09-11T13:31:21Z</time>
        <hdop>3.8</hdop>
        <extensions>
          <osmand:heading>0</osmand:heading>
        </extensions>
      </trkpt>
      <trkpt lat="38.5717056" lon="-7.9094567">
        <ele>360.3</ele>
        <time>2023-09-11T13:31:26Z</time>
        <hdop>3.8</hdop>
        <extensions>
          <osmand:bearing>159.1</osmand:bearing>
          <osmand:speed>0.3</osmand:speed>
          <osmand:heading>0</osmand:heading>
        </extensions>
      </trkpt>
      <trkpt lat="38.5717035" lon="-7.9094421">
        <ele>359.6</ele>
        <time>2023-09-11T13:31:32Z</time>
        <hdop>3.8</hdop>
        <extensions>
          <osmand:heading>0</osmand:heading>
        </extensions>
      </trkpt>
      <trkpt lat="38.5716929" lon="-7.9094411">
        <ele>360</ele>
        <time>2023-09-11T13:31:37Z</time>
        <hdop>3.8</hdop>
        <extensions>
          <osmand:bearing>178.4</osmand:bearing>
          <osmand:speed>0.9</osmand:speed>
          <osmand:heading>0</osmand:heading>
        </extensions>
      </trkpt>
      <trkpt lat="38.571658" lon="-7.9094887">
        <ele>360.3</ele>
        <time>2023-09-11T13:31:43Z</time>
        <hdop>3.8</hdop>
        <extensions>
          <osmand:bearing>223.9</osmand:bearing>
          <osmand:speed>1</osmand:speed>
          <osmand:heading>0</osmand:heading>
        </extensions>
      </trkpt>
      <trkpt lat="38.5716307" lon="-7.9095449">
        <ele>358.2</ele>
        <time>2023-09-11T13:31:48Z</time>
        <hdop>9.9</hdop>
        <extensions>
          <osmand:bearing>223</osmand:bearing>
          <osmand:speed>1.4</osmand:speed>
          <osmand:heading>0</osmand:heading>
        </extensions>
      </trkpt>
      <trkpt lat="38.5715895" lon="-7.9096145">
        <ele>358.8</ele>
        <time>2023-09-11T13:31:54Z</time>
        <hdop>9.9</hdop>
        <extensions>
          <osmand:bearing>217.9</osmand:bearing>
          <osmand:speed>1.2</osmand:speed>
          <osmand:heading>0</osmand:heading>
        </extensions>
      </trkpt>
      <trkpt lat="38.571545" lon="-7.9096616">
        <ele>357.6</ele>
        <time>2023-09-11T13:32:00Z</time>
        <hdop>9.9</hdop>
        <extensions>
          <osmand:bearing>206.8</osmand:bearing>
          <osmand:speed>1.3</osmand:speed>
          <osmand:heading>0</osmand:heading>
        </extensions>
      </trkpt>
      <trkpt lat="38.5715063" lon="-7.9097193">
        <ele>356.2</ele>
        <time>2023-09-11T13:32:06Z</time>
        <hdop>10.5</hdop>
        <extensions>
          <osmand:bearing>230.3</osmand:bearing>
          <osmand:speed>1.1</osmand:speed>
          <osmand:heading>0</osmand:heading>
        </extensions>
      </trkpt>
      <trkpt lat="38.5715058" lon="-7.9097047">
        <ele>358.4</ele>
        <time>2023-09-11T13:32:12Z</time>
        <hdop>10.8</hdop>
        <extensions>
          <osmand:bearing>88.4</osmand:bearing>
          <osmand:speed>0.5</osmand:speed>
          <osmand:heading>0</osmand:heading>
        </extensions>
      </trkpt>
      <trkpt lat="38.5715129" lon="-7.9097173">
        <ele>358.5</ele>
        <time>2023-09-11T13:32:20Z</time>
        <hdop>9.9</hdop>
        <extensions>
          <osmand:heading>0</osmand:heading>
        </extensions>
      </trkpt>
      <trkpt lat="38.5715122" lon="-7.909723">
        <ele>358.3</ele>
        <time>2023-09-11T13:32:26Z</time>
        <hdop>9.9</hdop>
        <extensions>
          <osmand:heading>0</osmand:heading>
        </extensions>
      </trkpt>
      <trkpt lat="38.5715154" lon="-7.9097262">
        <ele>358</ele>
        <time>2023-09-11T13:32:31Z</time>
        <hdop>9.9</hdop>
        <extensions>
          <osmand:heading>0</osmand:heading>
        </extensions>
      </trkpt>
      <trkpt lat="38.5714884" lon="-7.909786">
        <ele>357.5</ele>
        <time>2023-09-11T13:32:37Z</time>
        <hdop>9.9</hdop>
        <extensions>
          <osmand:bearing>215.5</osmand:bearing>
          <osmand:speed>1.1</osmand:speed>
          <osmand:heading>0</osmand:heading>
        </extensions>
      </trkpt>
      <trkpt lat="38.5714485" lon="-7.9098163">
        <ele>357.8</ele>
        <time>2023-09-11T13:32:43Z</time>
        <hdop>9.9</hdop>
        <extensions>
          <osmand:bearing>213.7</osmand:bearing>
          <osmand:speed>1</osmand:speed>
          <osmand:heading>0</osmand:heading>
        </extensions>
      </trkpt>
      <trkpt lat="38.5713897" lon="-7.909832">
        <ele>357.4</ele>
        <time>2023-09-11T13:32:49Z</time>
        <hdop>9.9</hdop>
        <extensions>
          <osmand:bearing>175.1</osmand:bearing>
          <osmand:speed>1</osmand:speed>
          <osmand:heading>0</osmand:heading>
        </extensions>
      </trkpt>
      <trkpt lat="38.5713262" lon="-7.9098169">
        <ele>355.5</ele>
        <time>2023-09-11T13:32:55Z</time>
        <hdop>9.9</hdop>
        <extensions>
          <osmand:bearing>166.7</osmand:bearing>
          <osmand:speed>1</osmand:speed>
          <osmand:heading>0</osmand:heading>
        </extensions>
      </trkpt>
      <trkpt lat="38.5712849" lon="-7.9098098">
        <ele>355.2</ele>
        <time>2023-09-11T13:33:00Z</time>
        <hdop>9.9</hdop>
        <extensions>
          <osmand:bearing>163</osmand:bearing>
          <osmand:speed>0.9</osmand:speed>
          <osmand:heading>0</osmand:heading>
        </extensions>
      </trkpt>
      <trkpt lat="38.5712627" lon="-7.909802">
        <ele>355.8</ele>
        <time>2023-09-11T13:33:05Z</time>
        <hdop>9.9</hdop>
        <extensions>
          <osmand:heading>0</osmand:heading>
        </extensions>
      </trkpt>
      <trkpt lat="38.5712358" lon="-7.9097948">
        <ele>356.2</ele>
        <time>2023-09-11T13:33:12Z</time>
        <hdop>9.9</hdop>
        <extensions>
          <osmand:bearing>170.7</osmand:bearing>
          <osmand:speed>0.6</osmand:speed>
          <osmand:heading>0</osmand:heading>
        </extensions>
      </trkpt>
      <trkpt lat="38.5712027" lon="-7.9097841">
        <ele>355.2</ele>
        <time>2023-09-11T13:33:18Z</time>
        <hdop>9.9</hdop>
        <extensions>
          <osmand:bearing>178.8</osmand:bearing>
          <osmand:speed>0.9</osmand:speed>
          <osmand:heading>0</osmand:heading>
        </extensions>
      </trkpt>
      <trkpt lat="38.571161" lon="-7.9097657">
        <ele>354.6</ele>
        <time>2023-09-11T13:33:23Z</time>
        <hdop>9.9</hdop>
        <extensions>
          <osmand:bearing>167</osmand:bearing>
          <osmand:speed>0.9</osmand:speed>
          <osmand:heading>0</osmand:heading>
        </extensions>
      </trkpt>
      <trkpt lat="38.5711012" lon="-7.909762">
        <ele>353.9</ele>
        <time>2023-09-11T13:33:29Z</time>
        <hdop>9.9</hdop>
        <extensions>
          <osmand:bearing>182.2</osmand:bearing>
          <osmand:speed>1.2</osmand:speed>
          <osmand:heading>0</osmand:heading>
        </extensions>
      </trkpt>
      <trkpt lat="38.5710574" lon="-7.9097577">
        <ele>353.7</ele>
        <time>2023-09-11T13:33:34Z</time>
        <hdop>3.8</hdop>
        <extensions>
          <osmand:bearing>159</osmand:bearing>
          <osmand:speed>0.9</osmand:speed>
          <osmand:heading>0</osmand:heading>
        </extensions>
      </trkpt>
      <trkpt lat="38.5709917" lon="-7.9097428">
        <ele>353.2</ele>
        <time>2023-09-11T13:33:40Z</time>
        <hdop>3.8</hdop>
        <extensions>
          <osmand:bearing>178.7</osmand:bearing>
          <osmand:speed>1.3</osmand:speed>
          <osmand:heading>0</osmand:heading>
        </extensions>
      </trkpt>
      <trkpt lat="38.570935" lon="-7.9097403">
        <ele>352.7</ele>
        <time>2023-09-11T13:33:45Z</time>
        <hdop>3.8</hdop>
        <extensions>
          <osmand:bearing>167.5</osmand:bearing>
          <osmand:speed>1</osmand:speed>
          <osmand:heading>0</osmand:heading>
        </extensions>
      </trkpt>
      <trkpt lat="38.5708991" lon="-7.909756">
        <ele>352.4</ele>
        <time>2023-09-11T13:33:51Z</time>
        <hdop>3.8</hdop>
        <extensions>
          <osmand:heading>0</osmand:heading>
        </extensions>
      </trkpt>
      <trkpt lat="38.5708955" lon="-7.9097721">
        <ele>352.7</ele>
        <time>2023-09-11T13:33:56Z</time>
        <hdop>3.8</hdop>
        <extensions>
          <osmand:heading>0</osmand:heading>
        </extensions>
      </trkpt>
      <trkpt lat="38.5709081" lon="-7.9097809">
        <ele>351.5</ele>
        <time>2023-09-11T13:34:02Z</time>
        <hdop>3.9</hdop>
        <extensions>
          <osmand:heading>0</osmand:heading>
        </extensions>
      </trkpt>
      <trkpt lat="38.5709141" lon="-7.9097847">
        <ele>351.5</ele>
        <time>2023-09-11T13:34:08Z</time>
        <hdop>3.9</hdop>
        <extensions>
          <osmand:heading>0</osmand:heading>
        </extensions>
      </trkpt>
      <trkpt lat="38.5709179" lon="-7.9097566">
        <ele>351.6</ele>
        <time>2023-09-11T13:34:13Z</time>
        <hdop>4.5</hdop>
        <extensions>
          <osmand:bearing>58.7</osmand:bearing>
          <osmand:speed>0.8</osmand:speed>
          <osmand:heading>0</osmand:heading>
        </extensions>
      </trkpt>
      <trkpt lat="38.5708774" lon="-7.9096998">
        <ele>349.7</ele>
        <time>2023-09-11T13:34:19Z</time>
        <hdop>4.4</hdop>
        <extensions>
          <osmand:bearing>145.4</osmand:bearing>
          <osmand:speed>1.4</osmand:speed>
          <osmand:heading>0</osmand:heading>
        </extensions>
      </trkpt>
      <trkpt lat="38.5708189" lon="-7.90965">
        <ele>348.7</ele>
        <time>2023-09-11T13:34:25Z</time>
        <hdop>4</hdop>
        <extensions>
          <osmand:bearing>134.6</osmand:bearing>
          <osmand:speed>1.3</osmand:speed>
          <osmand:heading>0</osmand:heading>
        </extensions>
      </trkpt>
      <trkpt lat="38.5707746" lon="-7.9096079">
        <ele>348.5</ele>
        <time>2023-09-11T13:34:31Z</time>
        <hdop>3.8</hdop>
        <extensions>
          <osmand:bearing>155.6</osmand:bearing>
          <osmand:speed>1</osmand:speed>
          <osmand:heading>0</osmand:heading>
        </extensions>
      </trkpt>
      <trkpt lat="38.5707446" lon="-7.9095999">
        <ele>349.2</ele>
        <time>2023-09-11T13:34:37Z</time>
        <hdop>3.8</hdop>
        <extensions>
          <osmand:bearing>168.9</osmand:bearing>
          <osmand:speed>0.2</osmand:speed>
          <osmand:heading>0</osmand:heading>
        </extensions>
      </trkpt>
      <trkpt lat="38.5707586" lon="-7.9095854">
        <ele>348.6</ele>
        <time>2023-09-11T13:34:43Z</time>
        <hdop>3.8</hdop>
        <extensions>
          <osmand:bearing>84.9</osmand:bearing>
          <osmand:speed>0.7</osmand:speed>
          <osmand:heading>0</osmand:heading>
        </extensions>
      </trkpt>
      <trkpt lat="38.5707569" lon="-7.9095457">
        <ele>348.3</ele>
        <time>2023-09-11T13:34:48Z</time>
        <hdop>9.9</hdop>
        <extensions>
          <osmand:bearing>141</osmand:bearing>
          <osmand:speed>0.5</osmand:speed>
          <osmand:heading>0</osmand:heading>
        </extensions>
      </trkpt>
      <trkpt lat="38.5707017" lon="-7.9095137">
        <ele>347</ele>
        <time>2023-09-11T13:34:54Z</time>
        <hdop>9.9</hdop>
        <extensions>
          <osmand:bearing>155.9</osmand:bearing>
          <osmand:speed>1.3</osmand:speed>
          <osmand:heading>0</osmand:heading>
        </extensions>
      </trkpt>
      <trkpt lat="38.5706542" lon="-7.9094997">
        <ele>347.8</ele>
        <time>2023-09-11T13:35:00Z</time>
        <hdop>9.9</hdop>
        <extensions>
          <osmand:bearing>177.7</osmand:bearing>
          <osmand:speed>0.8</osmand:speed>
          <osmand:heading>0</osmand:heading>
        </extensions>
      </trkpt>
      <trkpt lat="38.5706204" lon="-7.909558">
        <ele>348.2</ele>
        <time>2023-09-11T13:35:06Z</time>
        <hdop>10.3</hdop>
        <extensions>
          <osmand:bearing>221.4</osmand:bearing>
          <osmand:speed>1.4</osmand:speed>
          <osmand:heading>0</osmand:heading>
        </extensions>
      </trkpt>
      <trkpt lat="38.5705698" lon="-7.9096325">
        <ele>348.2</ele>
        <time>2023-09-11T13:35:12Z</time>
        <hdop>10.1</hdop>
        <extensions>
          <osmand:bearing>218.3</osmand:bearing>
          <osmand:speed>1.3</osmand:speed>
          <osmand:heading>0</osmand:heading>
        </extensions>
      </trkpt>
      <trkpt lat="38.5705219" lon="-7.9096955">
        <ele>348.7</ele>
        <time>2023-09-11T13:35:18Z</time>
        <hdop>9.9</hdop>
        <extensions>
          <osmand:bearing>223.3</osmand:bearing>
          <osmand:speed>1.3</osmand:speed>
          <osmand:heading>0</osmand:heading>
        </extensions>
      </trkpt>
      <trkpt lat="38.5704708" lon="-7.9097478">
        <ele>350.7</ele>
        <time>2023-09-11T13:35:24Z</time>
        <hdop>9.9</hdop>
        <extensions>
          <osmand:bearing>215.8</osmand:bearing>
          <osmand:speed>1.2</osmand:speed>
          <osmand:heading>0</osmand:heading>
        </extensions>
      </trkpt>
      <trkpt lat="38.57043" lon="-7.9097921">
        <ele>350.9</ele>
        <time>2023-09-11T13:35:29Z</time>
        <hdop>9.9</hdop>
        <extensions>
          <osmand:bearing>231.6</osmand:bearing>
          <osmand:speed>1.2</osmand:speed>
          <osmand:heading>0</osmand:heading>
        </extensions>
      </trkpt>
      <trkpt lat="38.5703952" lon="-7.9098408">
        <ele>349.5</ele>
        <time>2023-09-11T13:35:34Z</time>
        <hdop>9.9</hdop>
        <extensions>
          <osmand:bearing>224.5</osmand:bearing>
          <osmand:speed>1.3</osmand:speed>
          <osmand:heading>0</osmand:heading>
        </extensions>
      </trkpt>
      <trkpt lat="38.5703528" lon="-7.909892">
        <ele>348</ele>
        <time>2023-09-11T13:35:40Z</time>
        <hdop>9.9</hdop>
        <extensions>
          <osmand:bearing>221.2</osmand:bearing>
          <osmand:speed>1.1</osmand:speed>
          <osmand:heading>0</osmand:heading>
        </extensions>
      </trkpt>
      <trkpt lat="38.5703224" lon="-7.9099462">
        <ele>348.1</ele>
        <time>2023-09-11T13:35:45Z</time>
        <hdop>3.8</hdop>
        <extensions>
          <osmand:bearing>229.7</osmand:bearing>
          <osmand:speed>1.1</osmand:speed>
          <osmand:heading>0</osmand:heading>
        </extensions>
      </trkpt>
      <trkpt lat="38.57031" lon="-7.9100025">
        <ele>346.7</ele>
        <time>2023-09-11T13:35:50Z</time>
        <hdop>3.8</hdop>
        <extensions>
          <osmand:bearing>248.6</osmand:bearing>
          <osmand:speed>1.1</osmand:speed>
          <osmand:heading>0</osmand:heading>
        </extensions>
      </trkpt>
      <trkpt lat="38.5702731" lon="-7.9100475">
        <ele>347.2</ele>
        <time>2023-09-11T13:35:56Z</time>
        <hdop>3.8</hdop>
        <extensions>
          <osmand:bearing>226.1</osmand:bearing>
          <osmand:speed>1</osmand:speed>
          <osmand:heading>0</osmand:heading>
        </extensions>
      </trkpt>
      <trkpt lat="38.5702432" lon="-7.9100962">
        <ele>348.3</ele>
        <time>2023-09-11T13:36:02Z</time>
        <hdop>3.8</hdop>
        <extensions>
          <osmand:bearing>234.8</osmand:bearing>
          <osmand:speed>1</osmand:speed>
          <osmand:heading>0</osmand:heading>
        </extensions>
      </trkpt>
      <trkpt lat="38.5701866" lon="-7.9101435">
        <ele>346.4</ele>
        <time>2023-09-11T13:36:09Z</time>
        <hdop>3.8</hdop>
        <extensions>
          <osmand:bearing>198</osmand:bearing>
          <osmand:speed>0.7</osmand:speed>
          <osmand:heading>0</osmand:heading>
        </extensions>
      </trkpt>
      <trkpt lat="38.5701911" lon="-7.9101432">
        <ele>345.4</ele>
        <time>2023-09-11T13:36:15Z</time>
        <hdop>3.8</hdop>
        <extensions>
          <osmand:heading>0</osmand:heading>
        </extensions>
      </trkpt>
      <trkpt lat="38.5701907" lon="-7.9101459">
        <ele>345.6</ele>
        <time>2023-09-11T13:36:20Z</time>
        <hdop>3.8</hdop>
        <extensions>
          <osmand:heading>0</osmand:heading>
        </extensions>
      </trkpt>
      <trkpt lat="38.5701855" lon="-7.9101532">
        <ele>345.3</ele>
        <time>2023-09-11T13:36:26Z</time>
        <hdop>3.8</hdop>
        <extensions>
          <osmand:heading>0</osmand:heading>
        </extensions>
      </trkpt>
      <trkpt lat="38.5701857" lon="-7.9101534">
        <ele>345.3</ele>
        <time>2023-09-11T13:36:31Z</time>
        <hdop>3.8</hdop>
        <extensions>
          <osmand:heading>0</osmand:heading>
        </extensions>
      </trkpt>
      <trkpt lat="38.5701686" lon="-7.9101346">
        <ele>344.8</ele>
        <time>2023-09-11T13:36:36Z</time>
        <hdop>3.8</hdop>
        <extensions>
          <osmand:heading>0</osmand:heading>
        </extensions>
      </trkpt>
      <trkpt lat="38.5701502" lon="-7.9101092">
        <ele>344.9</ele>
        <time>2023-09-11T13:36:42Z</time>
        <hdop>3.8</hdop>
        <extensions>
          <osmand:bearing>128.9</osmand:bearing>
          <osmand:speed>0.8</osmand:speed>
          <osmand:heading>0</osmand:heading>
        </extensions>
      </trkpt>
      <trkpt lat="38.570092" lon="-7.9100546">
        <ele>345</ele>
        <time>2023-09-11T13:36:48Z</time>
        <hdop>3.8</hdop>
        <extensions>
          <osmand:bearing>151</osmand:bearing>
          <osmand:speed>1.3</osmand:speed>
          <osmand:heading>0</osmand:heading>
        </extensions>
      </trkpt>
      <trkpt lat="38.5700539" lon="-7.9099806">
        <ele>343.9</ele>
        <time>2023-09-11T13:36:54Z</time>
        <hdop>3.8</hdop>
        <extensions>
          <osmand:bearing>140.9</osmand:bearing>
          <osmand:speed>1.2</osmand:speed>
          <osmand:heading>0</osmand:heading>
        </extensions>
      </trkpt>
      <trkpt lat="38.570026" lon="-7.9099559">
        <ele>343.7</ele>
        <time>2023-09-11T13:36:59Z</time>
        <hdop>3.8</hdop>
        <extensions>
          <osmand:heading>0</osmand:heading>
        </extensions>
      </trkpt>
      <trkpt lat="38.5700267" lon="-7.9099586">
        <ele>343.7</ele>
        <time>2023-09-11T13:37:05Z</time>
        <hdop>3.8</hdop>
        <extensions>
          <osmand:heading>0</osmand:heading>
        </extensions>
      </trkpt>
      <trkpt lat="38.5700057" lon="-7.909922">
        <ele>343.8</ele>
        <time>2023-09-11T13:37:11Z</time>
        <hdop>3.8</hdop>
        <extensions>
          <osmand:bearing>128.8</osmand:bearing>
          <osmand:speed>0.9</osmand:speed>
          <osmand:heading>0</osmand:heading>
        </extensions>
      </trkpt>
      <trkpt lat="38.5699725" lon="-7.9098598">
        <ele>342.5</ele>
        <time>2023-09-11T13:37:17Z</time>
        <hdop>3.8</hdop>
        <extensions>
          <osmand:bearing>131.6</osmand:bearing>
          <osmand:speed>0.8</osmand:speed>
          <osmand:heading>0</osmand:heading>
        </extensions>
      </trkpt>
      <trkpt lat="38.5699392" lon="-7.9098208">
        <ele>341.1</ele>
        <time>2023-09-11T13:37:23Z</time>
        <hdop>9.9</hdop>
        <extensions>
          <osmand:bearing>139.7</osmand:bearing>
          <osmand:speed>0.2</osmand:speed>
          <osmand:heading>0</osmand:heading>
        </extensions>
      </trkpt>
      <trkpt lat="38.5699484" lon="-7.9098163">
        <ele>340.5</ele>
        <time>2023-09-11T13:37:28Z</time>
        <hdop>9.9</hdop>
        <extensions>
          <osmand:heading>0</osmand:heading>
        </extensions>
      </trkpt>
      <trkpt lat="38.5699496" lon="-7.9098158">
        <ele>340.5</ele>
        <time>2023-09-11T13:37:34Z</time>
        <hdop>9.9</hdop>
        <extensions>
          <osmand:heading>0</osmand:heading>
        </extensions>
      </trkpt>
      <trkpt lat="38.5699459" lon="-7.9097997">
        <ele>339.6</ele>
        <time>2023-09-11T13:37:40Z</time>
        <hdop>9.9</hdop>
        <extensions>
          <osmand:bearing>128.1</osmand:bearing>
          <osmand:speed>0.9</osmand:speed>
          <osmand:heading>0</osmand:heading>
        </extensions>
      </trkpt>
      <trkpt lat="38.5699188" lon="-7.9097629">
        <ele>339</ele>
        <time>2023-09-11T13:37:45Z</time>
        <hdop>9.9</hdop>
        <extensions>
          <osmand:bearing>130.7</osmand:bearing>
          <osmand:speed>0.8</osmand:speed>
          <osmand:heading>0</osmand:heading>
        </extensions>
      </trkpt>
      <trkpt lat="38.5698977" lon="-7.9097348">
        <ele>338.5</ele>
        <time>2023-09-11T13:37:50Z</time>
        <hdop>3.8</hdop>
        <extensions>
          <osmand:bearing>164.2</osmand:bearing>
          <osmand:speed>0.2</osmand:speed>
          <osmand:heading>0</osmand:heading>
        </extensions>
      </trkpt>
      <trkpt lat="38.5698892" lon="-7.90974">
        <ele>339.7</ele>
        <time>2023-09-11T13:37:56Z</time>
        <hdop>3.8</hdop>
        <extensions>
          <osmand:bearing>213.3</osmand:bearing>
          <osmand:speed>0.5</osmand:speed>
          <osmand:heading>0</osmand:heading>
        </extensions>
      </trkpt>
      <trkpt lat="38.5698813" lon="-7.909747">
        <ele>340.7</ele>
        <time>2023-09-11T13:38:01Z</time>
        <hdop>3.8</hdop>
        <extensions>
          <osmand:heading>0</osmand:heading>
        </extensions>
      </trkpt>
      <trkpt lat="38.5698919" lon="-7.9097338">
        <ele>341.5</ele>
        <time>2023-09-11T13:38:07Z</time>
        <hdop>3.8</hdop>
        <extensions>
          <osmand:heading>0</osmand:heading>
        </extensions>
      </trkpt>
      <trkpt lat="38.5698681" lon="-7.909674">
        <ele>341.2</ele>
        <time>2023-09-11T13:38:12Z</time>
        <hdop>3.8</hdop>
        <extensions>
          <osmand:bearing>132.5</osmand:bearing>
          <osmand:speed>1.3</osmand:speed>
          <osmand:heading>0</osmand:heading>
        </extensions>
      </trkpt>
      <trkpt lat="38.56983" lon="-7.9096192">
        <ele>341.5</ele>
        <time>2023-09-11T13:38:17Z</time>
        <hdop>3.8</hdop>
        <extensions>
          <osmand:bearing>132.9</osmand:bearing>
          <osmand:speed>1.3</osmand:speed>
          <osmand:heading>0</osmand:heading>
        </extensions>
      </trkpt>
      <trkpt lat="38.5697929" lon="-7.9095663">
        <ele>341.3</ele>
        <time>2023-09-11T13:38:23Z</time>
        <hdop>3.8</hdop>
        <extensions>
          <osmand:bearing>127.7</osmand:bearing>
          <osmand:speed>1.3</osmand:speed>
          <osmand:heading>0</osmand:heading>
        </extensions>
      </trkpt>
      <trkpt lat="38.5697669" lon="-7.9095233">
        <ele>340.5</ele>
        <time>2023-09-11T13:38:28Z</time>
        <hdop>3.8</hdop>
        <extensions>
          <osmand:heading>0</osmand:heading>
        </extensions>
      </trkpt>
      <trkpt lat="38.5697572" lon="-7.9095137">
        <ele>340.8</ele>
        <time>2023-09-11T13:38:34Z</time>
        <hdop>3.8</hdop>
        <extensions>
          <osmand:bearing>126.6</osmand:bearing>
          <osmand:speed>1.3</osmand:speed>
          <osmand:heading>0</osmand:heading>
        </extensions>
      </trkpt>
      <trkpt lat="38.5697189" lon="-7.9094433">
        <ele>340.5</ele>
        <time>2023-09-11T13:38:40Z</time>
        <hdop>3.8</hdop>
        <extensions>
          <osmand:bearing>133.9</osmand:bearing>
          <osmand:speed>1.3</osmand:speed>
          <osmand:heading>0</osmand:heading>
        </extensions>
      </trkpt>
      <trkpt lat="38.5696671" lon="-7.9094408">
        <ele>341.2</ele>
        <time>2023-09-11T13:38:46Z</time>
        <hdop>3.8</hdop>
        <extensions>
          <osmand:bearing>211.6</osmand:bearing>
          <osmand:speed>1.1</osmand:speed>
          <osmand:heading>0</osmand:heading>
        </extensions>
      </trkpt>
      <trkpt lat="38.5696403" lon="-7.9094869">
        <ele>340.8</ele>
        <time>2023-09-11T13:38:51Z</time>
        <hdop>3.8</hdop>
        <extensions>
          <osmand:bearing>229.3</osmand:bearing>
          <osmand:speed>0.7</osmand:speed>
          <osmand:heading>0</osmand:heading>
        </extensions>
      </trkpt>
      <trkpt lat="38.5696358" lon="-7.9095004">
        <ele>341.8</ele>
        <time>2023-09-11T13:38:57Z</time>
        <hdop>3.8</hdop>
        <extensions>
          <osmand:bearing>241.2</osmand:bearing>
          <osmand:speed>1</osmand:speed>
          <osmand:heading>0</osmand:heading>
        </extensions>
      </trkpt>
      <trkpt lat="38.5695796" lon="-7.9095531">
        <ele>340.9</ele>
        <time>2023-09-11T13:39:03Z</time>
        <hdop>9.9</hdop>
        <extensions>
          <osmand:bearing>218.8</osmand:bearing>
          <osmand:speed>1.2</osmand:speed>
          <osmand:heading>0</osmand:heading>
        </extensions>
      </trkpt>
      <trkpt lat="38.5695262" lon="-7.9095883">
        <ele>342.2</ele>
        <time>2023-09-11T13:39:08Z</time>
        <hdop>9.9</hdop>
        <extensions>
          <osmand:bearing>214.4</osmand:bearing>
          <osmand:speed>1.3</osmand:speed>
          <osmand:heading>0</osmand:heading>
        </extensions>
      </trkpt>
      <trkpt lat="38.5694726" lon="-7.9096231">
        <ele>343.1</ele>
        <time>2023-09-11T13:39:13Z</time>
        <hdop>9.9</hdop>
        <extensions>
          <osmand:bearing>210.1</osmand:bearing>
          <osmand:speed>1.4</osmand:speed>
          <osmand:heading>0</osmand:heading>
        </extensions>
      </trkpt>
      <trkpt lat="38.5694255" lon="-7.9096945">
        <ele>345.1</ele>
        <time>2023-09-11T13:39:19Z</time>
        <hdop>9.9</hdop>
        <extensions>
          <osmand:bearing>239.6</osmand:bearing>
          <osmand:speed>1.4</osmand:speed>
          <osmand:heading>0</osmand:heading>
        </extensions>
      </trkpt>
      <trkpt lat="38.5693754" lon="-7.9097449">
        <ele>344.9</ele>
        <time>2023-09-11T13:39:24Z</time>
        <hdop>9.9</hdop>
        <extensions>
          <osmand:bearing>221</osmand:bearing>
          <osmand:speed>1.4</osmand:speed>
          <osmand:heading>0</osmand:heading>
        </extensions>
      </trkpt>
      <trkpt lat="38.5693135" lon="-7.9097977">
        <ele>344.5</ele>
        <time>2023-09-11T13:39:30Z</time>
        <hdop>9.9</hdop>
        <extensions>
          <osmand:bearing>221</osmand:bearing>
          <osmand:speed>1.3</osmand:speed>
          <osmand:heading>0</osmand:heading>
        </extensions>
      </trkpt>
      <trkpt lat="38.569256" lon="-7.9098522">
        <ele>344.5</ele>
        <time>2023-09-11T13:39:36Z</time>
        <hdop>9.9</hdop>
        <extensions>
          <osmand:bearing>218.3</osmand:bearing>
          <osmand:speed>1.3</osmand:speed>
          <osmand:heading>0</osmand:heading>
        </extensions>
      </trkpt>
      <trkpt lat="38.5692071" lon="-7.9098895">
        <ele>344.1</ele>
        <time>2023-09-11T13:39:41Z</time>
        <hdop>9.9</hdop>
        <extensions>
          <osmand:bearing>214.6</osmand:bearing>
          <osmand:speed>1.3</osmand:speed>
          <osmand:heading>0</osmand:heading>
        </extensions>
      </trkpt>
      <trkpt lat="38.5691507" lon="-7.9099349">
        <ele>344.1</ele>
        <time>2023-09-11T13:39:47Z</time>
        <hdop>9.9</hdop>
        <extensions>
          <osmand:bearing>209.9</osmand:bearing>
          <osmand:speed>1.3</osmand:speed>
          <osmand:heading>0</osmand:heading>
        </extensions>
      </trkpt>
      <trkpt lat="38.5690884" lon="-7.9099763">
        <ele>343.9</ele>
        <time>2023-09-11T13:39:53Z</time>
        <hdop>9.9</hdop>
        <extensions>
          <osmand:bearing>198.4</osmand:bearing>
          <osmand:speed>1.2</osmand:speed>
          <osmand:heading>0</osmand:heading>
        </extensions>
      </trkpt>
      <trkpt lat="38.5690671" lon="-7.9099852">
        <ele>343.2</ele>
        <time>2023-09-11T13:39:58Z</time>
        <hdop>3.8</hdop>
        <extensions>
          <osmand:heading>0</osmand:heading>
        </extensions>
      </trkpt>
      <trkpt lat="38.569051" lon="-7.9100079">
        <ele>341.2</ele>
        <time>2023-09-11T13:40:04Z</time>
        <hdop>3.8</hdop>
        <extensions>
          <osmand:heading>0</osmand:heading>
        </extensions>
      </trkpt>
      <trkpt lat="38.5690518" lon="-7.9100101">
        <ele>341.1</ele>
        <time>2023-09-11T13:40:10Z</time>
        <hdop>3.8</hdop>
        <extensions>
          <osmand:heading>0</osmand:heading>
        </extensions>
      </trkpt>
      <trkpt lat="38.5690472" lon="-7.9100131">
        <ele>341.2</ele>
        <time>2023-09-11T13:40:15Z</time>
        <hdop>3.8</hdop>
        <extensions>
          <osmand:bearing>230.1</osmand:bearing>
          <osmand:speed>0.8</osmand:speed>
          <osmand:heading>0</osmand:heading>
        </extensions>
      </trkpt>
      <trkpt lat="38.5689892" lon="-7.9100059">
        <ele>337.7</ele>
        <time>2023-09-11T13:40:21Z</time>
        <hdop>3.8</hdop>
        <extensions>
          <osmand:bearing>175.4</osmand:bearing>
          <osmand:speed>1</osmand:speed>
          <osmand:heading>0</osmand:heading>
        </extensions>
      </trkpt>
      <trkpt lat="38.5689455" lon="-7.9099789">
        <ele>336.9</ele>
        <time>2023-09-11T13:40:26Z</time>
        <hdop>3.8</hdop>
        <extensions>
          <osmand:bearing>127.6</osmand:bearing>
          <osmand:speed>0.9</osmand:speed>
          <osmand:heading>0</osmand:heading>
        </extensions>
      </trkpt>
      <trkpt lat="38.5689291" lon="-7.9099361">
        <ele>337.1</ele>
        <time>2023-09-11T13:40:31Z</time>
        <hdop>3.8</hdop>
        <extensions>
          <osmand:bearing>124.7</osmand:bearing>
          <osmand:speed>0.6</osmand:speed>
          <osmand:heading>0</osmand:heading>
        </extensions>
      </trkpt>
      <trkpt lat="38.5688929" lon="-7.9099078">
        <ele>337.9</ele>
        <time>2023-09-11T13:40:37Z</time>
        <hdop>3.8</hdop>
        <extensions>
          <osmand:bearing>152.8</osmand:bearing>
          <osmand:speed>1.1</osmand:speed>
          <osmand:heading>0</osmand:heading>
        </extensions>
      </trkpt>
      <trkpt lat="38.56884" lon="-7.9099171">
        <ele>337.2</ele>
        <time>2023-09-11T13:40:43Z</time>
        <hdop>3.8</hdop>
        <extensions>
          <osmand:bearing>213.6</osmand:bearing>
          <osmand:speed>0.7</osmand:speed>
          <osmand:heading>0</osmand:heading>
        </extensions>
      </trkpt>
      <trkpt lat="38.5688325" lon="-7.9098989">
        <ele>337.2</ele>
        <time>2023-09-11T13:40:49Z</time>
        <hdop>3.8</hdop>
        <extensions>
          <osmand:bearing>85.6</osmand:bearing>
          <osmand:speed>1.3</osmand:speed>
          <osmand:heading>0</osmand:heading>
        </extensions>
      </trkpt>
      <trkpt lat="38.5688704" lon="-7.909828">
        <ele>337.5</ele>
        <time>2023-09-11T13:40:55Z</time>
        <hdop>3.8</hdop>
        <extensions>
          <osmand:bearing>57</osmand:bearing>
          <osmand:speed>1.3</osmand:speed>
          <osmand:heading>0</osmand:heading>
        </extensions>
      </trkpt>
      <trkpt lat="38.5689105" lon="-7.9097788">
        <ele>337.8</ele>
        <time>2023-09-11T13:41:00Z</time>
        <hdop>3.8</hdop>
        <extensions>
          <osmand:bearing>55.8</osmand:bearing>
          <osmand:speed>1.3</osmand:speed>
          <osmand:heading>0</osmand:heading>
        </extensions>
      </trkpt>
      <trkpt lat="38.5689295" lon="-7.9097014">
        <ele>337.7</ele>
        <time>2023-09-11T13:41:06Z</time>
        <hdop>3.8</hdop>
        <extensions>
          <osmand:bearing>77.7</osmand:bearing>
          <osmand:speed>1.2</osmand:speed>
          <osmand:heading>0</osmand:heading>
        </extensions>
      </trkpt>
      <trkpt lat="38.5689338" lon="-7.9096362">
        <ele>337.3</ele>
        <time>2023-09-11T13:41:11Z</time>
        <hdop>3.8</hdop>
        <extensions>
          <osmand:bearing>81.2</osmand:bearing>
          <osmand:speed>1.2</osmand:speed>
          <osmand:heading>0</osmand:heading>
        </extensions>
      </trkpt>
      <trkpt lat="38.5689438" lon="-7.9095686">
        <ele>336.7</ele>
        <time>2023-09-11T13:41:17Z</time>
        <hdop>3.8</hdop>
        <extensions>
          <osmand:bearing>85.2</osmand:bearing>
          <osmand:speed>1.4</osmand:speed>
          <osmand:heading>0</osmand:heading>
        </extensions>
      </trkpt>
      <trkpt lat="38.5689526" lon="-7.9094992">
        <ele>335.8</ele>
        <time>2023-09-11T13:41:22Z</time>
        <hdop>3.8</hdop>
        <extensions>
          <osmand:bearing>72.1</osmand:bearing>
          <osmand:speed>1.2</osmand:speed>
          <osmand:heading>0</osmand:heading>
        </extensions>
      </trkpt>
      <trkpt lat="38.5689594" lon="-7.9094323">
        <ele>335.7</ele>
        <time>2023-09-11T13:41:27Z</time>
        <hdop>3.8</hdop>
        <extensions>
          <osmand:bearing>92.8</osmand:bearing>
          <osmand:speed>1.3</osmand:speed>
          <osmand:heading>0</osmand:heading>
        </extensions>
      </trkpt>
      <trkpt lat="38.5689394" lon="-7.9093628">
        <ele>335.2</ele>
        <time>2023-09-11T13:41:32Z</time>
        <hdop>3.8</hdop>
        <extensions>
          <osmand:bearing>129.7</osmand:bearing>
          <osmand:speed>0.8</osmand:speed>
          <osmand:heading>0</osmand:heading>
        </extensions>
      </trkpt>
      <trkpt lat="38.568921" lon="-7.9093633">
        <ele>335.6</ele>
        <time>2023-09-11T13:41:38Z</time>
        <hdop>3.8</hdop>
        <extensions>
          <osmand:heading>0</osmand:heading>
        </extensions>
      </trkpt>
      <trkpt lat="38.5689126" lon="-7.9093688">
        <ele>335.4</ele>
        <time>2023-09-11T13:41:44Z</time>
        <hdop>3.8</hdop>
        <extensions>
          <osmand:bearing>204.4</osmand:bearing>
          <osmand:speed>0.3</osmand:speed>
          <osmand:heading>0</osmand:heading>
        </extensions>
      </trkpt>
      <trkpt lat="38.5689068" lon="-7.9093711">
        <ele>335.4</ele>
        <time>2023-09-11T13:41:49Z</time>
        <hdop>3.8</hdop>
        <extensions>
          <osmand:heading>0</osmand:heading>
        </extensions>
      </trkpt>
      <trkpt lat="38.5688909" lon="-7.9093668">
        <ele>334.9</ele>
        <time>2023-09-11T13:41:55Z</time>
        <hdop>3.8</hdop>
        <extensions>
          <osmand:heading>0</osmand:heading>
        </extensions>
      </trkpt>
      <trkpt lat="38.5688885" lon="-7.9093597">
        <ele>335</ele>
        <time>2023-09-11T13:42:00Z</time>
        <hdop>3.8</hdop>
        <extensions>
          <osmand:bearing>192.1</osmand:bearing>
          <osmand:speed>0.3</osmand:speed>
          <osmand:heading>0</osmand:heading>
        </extensions>
      </trkpt>
      <trkpt lat="38.5688416" lon="-7.9093477">
        <ele>334.6</ele>
        <time>2023-09-11T13:42:05Z</time>
        <hdop>3.8</hdop>
        <extensions>
          <osmand:bearing>174.9</osmand:bearing>
          <osmand:speed>0.9</osmand:speed>
          <osmand:heading>0</osmand:heading>
        </extensions>
      </trkpt>
      <trkpt lat="38.5688289" lon="-7.9093576">
        <ele>334.9</ele>
        <time>2023-09-11T13:42:11Z</time>
        <hdop>3.8</hdop>
        <extensions>
          <osmand:heading>0</osmand:heading>
        </extensions>
      </trkpt>
      <trkpt lat="38.568921" lon="-7.9096073">
        <ele>343.3</ele>
        <time>2023-09-11T13:43:59Z</time>
        <hdop>42.1</hdop>
        <extensions>
          <osmand:heading>0</osmand:heading>
        </extensions>
      </trkpt>
      <trkpt lat="38.5688311" lon="-7.9096155">
        <ele>334.7</ele>
        <time>2023-09-11T13:44:05Z</time>
        <hdop>5.5</hdop>
        <extensions>
          <osmand:bearing>203.5</osmand:bearing>
          <osmand:speed>1</osmand:speed>
          <osmand:heading>0</osmand:heading>
        </extensions>
      </trkpt>
      <trkpt lat="38.5687292" lon="-7.9096195">
        <ele>337.6</ele>
        <time>2023-09-11T13:44:11Z</time>
        <hdop>6.3</hdop>
        <extensions>
          <osmand:bearing>170.4</osmand:bearing>
          <osmand:speed>1.7</osmand:speed>
          <osmand:heading>0</osmand:heading>
        </extensions>
      </trkpt>
      <trkpt lat="38.5687293" lon="-7.9096469">
        <ele>333.6</ele>
        <time>2023-09-11T13:44:16Z</time>
        <hdop>10.4</hdop>
        <extensions>
          <osmand:heading>0</osmand:heading>
        </extensions>
      </trkpt>
      <trkpt lat="38.5687365" lon="-7.9096584">
        <ele>333.6</ele>
        <time>2023-09-11T13:44:22Z</time>
        <hdop>10.2</hdop>
        <extensions>
          <osmand:heading>0</osmand:heading>
        </extensions>
      </trkpt>
      <trkpt lat="38.5686928" lon="-7.9096473">
        <ele>333.8</ele>
        <time>2023-09-11T13:44:28Z</time>
        <hdop>13.8</hdop>
        <extensions>
          <osmand:bearing>92.7</osmand:bearing>
          <osmand:speed>2.5</osmand:speed>
          <osmand:heading>0</osmand:heading>
        </extensions>
      </trkpt>
      <trkpt lat="38.5687118" lon="-7.9095825">
        <ele>334.7</ele>
        <time>2023-09-11T13:44:33Z</time>
        <hdop>23.4</hdop>
        <extensions>
          <osmand:heading>0</osmand:heading>
        </extensions>
      </trkpt>
      <trkpt lat="38.5685187" lon="-7.9096124">
        <ele>334.8</ele>
        <time>2023-09-11T13:44:47Z</time>
        <hdop>30.8</hdop>
        <extensions>
          <osmand:heading>0</osmand:heading>
        </extensions>
      </trkpt>
      <trkpt lat="38.5686211" lon="-7.9098405">
        <ele>344</ele>
        <time>2023-09-11T13:44:52Z</time>
        <hdop>3.8</hdop>
        <extensions>
          <osmand:bearing>226.8</osmand:bearing>
          <osmand:speed>1.2</osmand:speed>
          <osmand:heading>0</osmand:heading>
        </extensions>
      </trkpt>
      <trkpt lat="38.5685773" lon="-7.9098278">
        <ele>342.2</ele>
        <time>2023-09-11T13:44:57Z</time>
        <hdop>3.8</hdop>
        <extensions>
          <osmand:bearing>179.4</osmand:bearing>
          <osmand:speed>1.3</osmand:speed>
          <osmand:heading>0</osmand:heading>
        </extensions>
      </trkpt>
      <trkpt lat="38.5685168" lon="-7.9097857">
        <ele>341.5</ele>
        <time>2023-09-11T13:45:03Z</time>
        <hdop>3.8</hdop>
        <extensions>
          <osmand:bearing>175.3</osmand:bearing>
          <osmand:speed>1.3</osmand:speed>
          <osmand:heading>0</osmand:heading>
        </extensions>
      </trkpt>
      <trkpt lat="38.5684622" lon="-7.9097721">
        <ele>339.7</ele>
        <time>2023-09-11T13:45:08Z</time>
        <hdop>3.8</hdop>
        <extensions>
          <osmand:bearing>174.7</osmand:bearing>
          <osmand:speed>1.4</osmand:speed>
          <osmand:heading>0</osmand:heading>
        </extensions>
      </trkpt>
      <trkpt lat="38.5683997" lon="-7.9097505">
        <ele>339</ele>
        <time>2023-09-11T13:45:14Z</time>
        <hdop>3.8</hdop>
        <extensions>
          <osmand:bearing>165.4</osmand:bearing>
          <osmand:speed>1.4</osmand:speed>
          <osmand:heading>0</osmand:heading>
        </extensions>
      </trkpt>
      <trkpt lat="38.5683504" lon="-7.9097322">
        <ele>338.8</ele>
        <time>2023-09-11T13:45:19Z</time>
        <hdop>3.8</hdop>
        <extensions>
          <osmand:bearing>166</osmand:bearing>
          <osmand:speed>1.3</osmand:speed>
          <osmand:heading>0</osmand:heading>
        </extensions>
      </trkpt>
      <trkpt lat="38.5682966" lon="-7.9097182">
        <ele>338.9</ele>
        <time>2023-09-11T13:45:24Z</time>
        <hdop>3.8</hdop>
        <extensions>
          <osmand:bearing>166.3</osmand:bearing>
          <osmand:speed>1.4</osmand:speed>
          <osmand:heading>0</osmand:heading>
        </extensions>
      </trkpt>
      <trkpt lat="38.5682419" lon="-7.9097076">
        <ele>338.2</ele>
        <time>2023-09-11T13:45:29Z</time>
        <hdop>3.8</hdop>
        <extensions>
          <osmand:bearing>168.2</osmand:bearing>
          <osmand:speed>1.3</osmand:speed>
          <osmand:heading>0</osmand:heading>
        </extensions>
      </trkpt>
      <trkpt lat="38.5681768" lon="-7.9096844">
        <ele>337.6</ele>
        <time>2023-09-11T13:45:35Z</time>
        <hdop>3.8</hdop>
        <extensions>
          <osmand:bearing>169.9</osmand:bearing>
          <osmand:speed>1.4</osmand:speed>
          <osmand:heading>0</osmand:heading>
        </extensions>
      </trkpt>
      <trkpt lat="38.5681268" lon="-7.9096658">
        <ele>338.1</ele>
        <time>2023-09-11T13:45:40Z</time>
        <hdop>3.8</hdop>
        <extensions>
          <osmand:bearing>154.1</osmand:bearing>
          <osmand:speed>1.3</osmand:speed>
          <osmand:heading>0</osmand:heading>
        </extensions>
      </trkpt>
      <trkpt lat="38.568099" lon="-7.909635">
        <ele>338.9</ele>
        <time>2023-09-11T13:45:46Z</time>
        <hdop>3.8</hdop>
        <extensions>
          <osmand:heading>0</osmand:heading>
        </extensions>
      </trkpt>
      <trkpt lat="38.5680918" lon="-7.9095837">
        <ele>338.4</ele>
        <time>2023-09-11T13:45:51Z</time>
        <hdop>3.8</hdop>
        <extensions>
          <osmand:bearing>93.7</osmand:bearing>
          <osmand:speed>1.4</osmand:speed>
          <osmand:heading>0</osmand:heading>
        </extensions>
      </trkpt>
      <trkpt lat="38.568091" lon="-7.9095006">
        <ele>338.8</ele>
        <time>2023-09-11T13:45:57Z</time>
        <hdop>3.8</hdop>
        <extensions>
          <osmand:bearing>91.9</osmand:bearing>
          <osmand:speed>1.4</osmand:speed>
          <osmand:heading>0</osmand:heading>
        </extensions>
      </trkpt>
      <trkpt lat="38.5680939" lon="-7.9094178">
        <ele>338.6</ele>
        <time>2023-09-11T13:46:03Z</time>
        <hdop>3.8</hdop>
        <extensions>
          <osmand:bearing>87.9</osmand:bearing>
          <osmand:speed>1.4</osmand:speed>
          <osmand:heading>0</osmand:heading>
        </extensions>
      </trkpt>
      <trkpt lat="38.5680906" lon="-7.9093966">
        <ele>338.1</ele>
        <time>2023-09-11T13:46:09Z</time>
        <hdop>3.8</hdop>
        <extensions>
          <osmand:heading>0</osmand:heading>
        </extensions>
      </trkpt>
      <trkpt lat="38.5680957" lon="-7.909363">
        <ele>337.8</ele>
        <time>2023-09-11T13:46:14Z</time>
        <hdop>3.8</hdop>
        <extensions>
          <osmand:bearing>87.8</osmand:bearing>
          <osmand:speed>1.1</osmand:speed>
          <osmand:heading>0</osmand:heading>
        </extensions>
      </trkpt>
      <trkpt lat="38.5680828" lon="-7.9092923">
        <ele>337.3</ele>
        <time>2023-09-11T13:46:20Z</time>
        <hdop>3.8</hdop>
        <extensions>
          <osmand:bearing>118</osmand:bearing>
          <osmand:speed>1.3</osmand:speed>
          <osmand:heading>0</osmand:heading>
        </extensions>
      </trkpt>
      <trkpt lat="38.5680624" lon="-7.9092472">
        <ele>336.5</ele>
        <time>2023-09-11T13:46:25Z</time>
        <hdop>3.8</hdop>
        <extensions>
          <osmand:bearing>120.1</osmand:bearing>
          <osmand:speed>0.5</osmand:speed>
          <osmand:heading>0</osmand:heading>
        </extensions>
      </trkpt>
      <trkpt lat="38.5680534" lon="-7.9092683">
        <ele>336.1</ele>
        <time>2023-09-11T13:46:32Z</time>
        <hdop>4.1</hdop>
        <extensions>
          <osmand:bearing>321.7</osmand:bearing>
          <osmand:speed>1</osmand:speed>
          <osmand:heading>0</osmand:heading>
        </extensions>
      </trkpt>
      <trkpt lat="38.5680777" lon="-7.9092718">
        <ele>336.2</ele>
        <time>2023-09-11T13:46:37Z</time>
        <hdop>3.8</hdop>
        <extensions>
          <osmand:heading>0</osmand:heading>
        </extensions>
      </trkpt>
      <trkpt lat="38.5681072" lon="-7.9092397">
        <ele>333.7</ele>
        <time>2023-09-11T13:46:46Z</time>
        <hdop>5.7</hdop>
        <extensions>
          <osmand:bearing>83.6</osmand:bearing>
          <osmand:speed>0.8</osmand:speed>
          <osmand:heading>0</osmand:heading>
        </extensions>
      </trkpt>
      <trkpt lat="38.5680613" lon="-7.9092011">
        <ele>332.9</ele>
        <time>2023-09-11T13:46:51Z</time>
        <hdop>7.2</hdop>
        <extensions>
          <osmand:bearing>139.2</osmand:bearing>
          <osmand:speed>1.7</osmand:speed>
          <osmand:heading>0</osmand:heading>
        </extensions>
      </trkpt>
      <trkpt lat="38.5680105" lon="-7.9091802">
        <ele>327.1</ele>
        <time>2023-09-11T13:46:57Z</time>
        <hdop>4</hdop>
        <extensions>
          <osmand:bearing>186.2</osmand:bearing>
          <osmand:speed>1.2</osmand:speed>
          <osmand:heading>0</osmand:heading>
        </extensions>
      </trkpt>
      <trkpt lat="38.5679588" lon="-7.9091754">
        <ele>323.9</ele>
        <time>2023-09-11T13:47:03Z</time>
        <hdop>3.9</hdop>
        <extensions>
          <osmand:bearing>144</osmand:bearing>
          <osmand:speed>1.3</osmand:speed>
          <osmand:heading>0</osmand:heading>
        </extensions>
      </trkpt>
      <trkpt lat="38.5679487" lon="-7.9090979">
        <ele>329</ele>
        <time>2023-09-11T13:47:09Z</time>
        <hdop>3.8</hdop>
        <extensions>
          <osmand:bearing>94</osmand:bearing>
          <osmand:speed>1.3</osmand:speed>
          <osmand:heading>0</osmand:heading>
        </extensions>
      </trkpt>
      <trkpt lat="38.5679643" lon="-7.9090388">
        <ele>331.2</ele>
        <time>2023-09-11T13:47:14Z</time>
        <hdop>3.8</hdop>
        <extensions>
          <osmand:bearing>75.5</osmand:bearing>
          <osmand:speed>1.4</osmand:speed>
          <osmand:heading>0</osmand:heading>
        </extensions>
      </trkpt>
      <trkpt lat="38.5679723" lon="-7.908955">
        <ele>333.7</ele>
        <time>2023-09-11T13:47:20Z</time>
        <hdop>3.8</hdop>
        <extensions>
          <osmand:bearing>83.1</osmand:bearing>
          <osmand:speed>1.4</osmand:speed>
          <osmand:heading>0</osmand:heading>
        </extensions>
      </trkpt>
      <trkpt lat="38.5679682" lon="-7.908854">
        <ele>334.1</ele>
        <time>2023-09-11T13:47:27Z</time>
        <hdop>3.8</hdop>
        <extensions>
          <osmand:bearing>102.2</osmand:bearing>
          <osmand:speed>1.5</osmand:speed>
          <osmand:heading>0</osmand:heading>
        </extensions>
      </trkpt>
      <trkpt lat="38.567963" lon="-7.908784">
        <ele>334.9</ele>
        <time>2023-09-11T13:47:32Z</time>
        <hdop>3.8</hdop>
        <extensions>
          <osmand:bearing>87.4</osmand:bearing>
          <osmand:speed>1.2</osmand:speed>
          <osmand:heading>0</osmand:heading>
        </extensions>
      </trkpt>
      <trkpt lat="38.5679611" lon="-7.9087153">
        <ele>334.2</ele>
        <time>2023-09-11T13:47:37Z</time>
        <hdop>3.8</hdop>
        <extensions>
          <osmand:bearing>105.9</osmand:bearing>
          <osmand:speed>1.2</osmand:speed>
          <osmand:heading>0</osmand:heading>
        </extensions>
      </trkpt>
      <trkpt lat="38.5679376" lon="-7.9086528">
        <ele>333.6</ele>
        <time>2023-09-11T13:47:43Z</time>
        <hdop>3.8</hdop>
        <extensions>
          <osmand:bearing>121.4</osmand:bearing>
          <osmand:speed>1.1</osmand:speed>
          <osmand:heading>0</osmand:heading>
        </extensions>
      </trkpt>
      <trkpt lat="38.5679036" lon="-7.9086173">
        <ele>334</ele>
        <time>2023-09-11T13:47:49Z</time>
        <hdop>3.8</hdop>
        <extensions>
          <osmand:bearing>141.8</osmand:bearing>
          <osmand:speed>0.6</osmand:speed>
          <osmand:heading>0</osmand:heading>
        </extensions>
      </trkpt>
      <trkpt lat="38.5678888" lon="-7.9085891">
        <ele>334.9</ele>
        <time>2023-09-11T13:47:54Z</time>
        <hdop>3.8</hdop>
        <extensions>
          <osmand:bearing>123.8</osmand:bearing>
          <osmand:speed>0.7</osmand:speed>
          <osmand:heading>0</osmand:heading>
        </extensions>
      </trkpt>
    </trkseg>
  </trk>
</gpx>