<?xml version='1.0' encoding='UTF-8' standalone='yes' ?>
<gpx version="1.1" creator="OsmAnd~ 4.6.14" xmlns="http://www.topografix.com/GPX/1/1" xmlns:osmand="https://osmand.net" xmlns:xsi="http://www.w3.org/2001/XMLSchema-instance" xsi:schemaLocation="http://www.topografix.com/GPX/1/1 http://www.topografix.com/GPX/1/1/gpx.xsd">
  <metadata>
    <name>2024-05-10_11-38_Fri</name>
  </metadata>
  <trk>
    <trkseg>
      <trkpt lat="47.9897628" lon="0.2465413">
        <ele>107.3</ele>
        <time>2024-05-10T09:38:34Z</time>
        <hdop>3.8</hdop>
      </trkpt>
      <trkpt lat="47.989767" lon="0.246717">
        <ele>106.5</ele>
        <time>2024-05-10T09:38:50Z</time>
        <hdop>3.8</hdop>
        <extensions>
          <osmand:speed>0.6</osmand:speed>
        </extensions>
      </trkpt>
      <trkpt lat="47.9897177" lon="0.2468796">
        <ele>103.6</ele>
        <time>2024-05-10T09:39:06Z</time>
        <hdop>3.8</hdop>
        <extensions>
          <osmand:speed>1</osmand:speed>
        </extensions>
      </trkpt>
      <trkpt lat="47.9897809" lon="0.24699">
        <ele>104.3</ele>
        <time>2024-05-10T09:39:22Z</time>
        <hdop>3.8</hdop>
        <extensions>
          <osmand:speed>1</osmand:speed>
        </extensions>
      </trkpt>
      <trkpt lat="47.9898001" lon="0.2471921">
        <ele>103.5</ele>
        <time>2024-05-10T09:39:38Z</time>
        <hdop>3.8</hdop>
        <extensions>
          <osmand:speed>0.7</osmand:speed>
        </extensions>
      </trkpt>
      <trkpt lat="47.9897258" lon="0.2474124">
        <ele>103.1</ele>
        <time>2024-05-10T09:39:54Z</time>
        <hdop>9.9</hdop>
        <extensions>
          <osmand:speed>1</osmand:speed>
        </extensions>
      </trkpt>
      <trkpt lat="47.9895964" lon="0.2475449">
        <ele>103.3</ele>
        <time>2024-05-10T09:40:10Z</time>
        <hdop>9.9</hdop>
        <extensions>
          <osmand:speed>0.9</osmand:speed>
        </extensions>
      </trkpt>
      <trkpt lat="47.9895888" lon="0.2475768">
        <ele>103.8</ele>
        <time>2024-05-10T09:40:26Z</time>
        <hdop>9.9</hdop>
      </trkpt>
      <trkpt lat="47.9895396" lon="0.2477229">
        <ele>103.7</ele>
        <time>2024-05-10T09:40:42Z</time>
        <hdop>9.9</hdop>
        <extensions>
          <osmand:speed>0.6</osmand:speed>
        </extensions>
      </trkpt>
      <trkpt lat="47.9895922" lon="0.2478391">
        <ele>104.5</ele>
        <time>2024-05-10T09:40:58Z</time>
        <hdop>9.9</hdop>
        <extensions>
          <osmand:speed>0.7</osmand:speed>
        </extensions>
      </trkpt>
      <trkpt lat="47.9896553" lon="0.2480083">
        <ele>106.1</ele>
        <time>2024-05-10T09:41:14Z</time>
        <hdop>9.9</hdop>
        <extensions>
          <osmand:speed>1</osmand:speed>
        </extensions>
      </trkpt>
      <trkpt lat="47.9896754" lon="0.2481977">
        <ele>105</ele>
        <time>2024-05-10T09:41:30Z</time>
        <hdop>9.9</hdop>
        <extensions>
          <osmand:speed>1.1</osmand:speed>
        </extensions>
      </trkpt>
      <trkpt lat="47.9896805" lon="0.2483933">
        <ele>106.8</ele>
        <time>2024-05-10T09:41:46Z</time>
        <hdop>9.9</hdop>
        <extensions>
          <osmand:speed>1.2</osmand:speed>
        </extensions>
      </trkpt>
      <trkpt lat="47.9896747" lon="0.2486296">
        <ele>106.7</ele>
        <time>2024-05-10T09:42:02Z</time>
        <hdop>9.9</hdop>
        <extensions>
          <osmand:speed>1.2</osmand:speed>
        </extensions>
      </trkpt>
      <trkpt lat="47.9897028" lon="0.2488108">
        <ele>103.5</ele>
        <time>2024-05-10T09:42:18Z</time>
        <hdop>9.9</hdop>
        <extensions>
          <osmand:speed>1</osmand:speed>
        </extensions>
      </trkpt>
      <trkpt lat="47.9897289" lon="0.2490306">
        <ele>104.6</ele>
        <time>2024-05-10T09:42:34Z</time>
        <hdop>9.9</hdop>
        <extensions>
          <osmand:speed>1</osmand:speed>
        </extensions>
      </trkpt>
      <trkpt lat="47.9897376" lon="0.2492259">
        <ele>105.8</ele>
        <time>2024-05-10T09:42:50Z</time>
        <hdop>9.9</hdop>
        <extensions>
          <osmand:speed>1.8</osmand:speed>
        </extensions>
      </trkpt>
      <trkpt lat="47.9897772" lon="0.2493842">
        <ele>105.9</ele>
        <time>2024-05-10T09:43:06Z</time>
        <hdop>9.9</hdop>
        <extensions>
          <osmand:speed>1</osmand:speed>
        </extensions>
      </trkpt>
      <trkpt lat="47.9897966" lon="0.2495841">
        <ele>106.4</ele>
        <time>2024-05-10T09:43:22Z</time>
        <hdop>9.9</hdop>
        <extensions>
          <osmand:speed>1.2</osmand:speed>
        </extensions>
      </trkpt>
      <trkpt lat="47.9898331" lon="0.2497941">
        <ele>107.9</ele>
        <time>2024-05-10T09:43:38Z</time>
        <hdop>9.9</hdop>
        <extensions>
          <osmand:speed>0.9</osmand:speed>
        </extensions>
      </trkpt>
      <trkpt lat="47.9898958" lon="0.2499972">
        <ele>107.5</ele>
        <time>2024-05-10T09:43:54Z</time>
        <hdop>9.9</hdop>
        <extensions>
          <osmand:speed>1.1</osmand:speed>
        </extensions>
      </trkpt>
      <trkpt lat="47.9899394" lon="0.2500691">
        <ele>107.5</ele>
        <time>2024-05-10T09:44:10Z</time>
        <hdop>9.9</hdop>
      </trkpt>
      <trkpt lat="47.989953" lon="0.2501408">
        <ele>107.8</ele>
        <time>2024-05-10T09:44:26Z</time>
        <hdop>9.9</hdop>
      </trkpt>
      <trkpt lat="47.9900073" lon="0.2502793">
        <ele>107.9</ele>
        <time>2024-05-10T09:44:42Z</time>
        <hdop>9.9</hdop>
        <extensions>
          <osmand:speed>0.9</osmand:speed>
        </extensions>
      </trkpt>
      <trkpt lat="47.9900358" lon="0.250333">
        <ele>107.1</ele>
        <time>2024-05-10T09:44:58Z</time>
        <hdop>9.9</hdop>
      </trkpt>
      <trkpt lat="47.9901223" lon="0.2504859">
        <ele>106.6</ele>
        <time>2024-05-10T09:45:14Z</time>
        <hdop>9.9</hdop>
        <extensions>
          <osmand:speed>1.1</osmand:speed>
        </extensions>
      </trkpt>
      <trkpt lat="47.9902142" lon="0.2506048">
        <ele>106.7</ele>
        <time>2024-05-10T09:45:30Z</time>
        <hdop>9.9</hdop>
        <extensions>
          <osmand:speed>1</osmand:speed>
        </extensions>
      </trkpt>
      <trkpt lat="47.9902792" lon="0.2508163">
        <ele>106.3</ele>
        <time>2024-05-10T09:45:46Z</time>
        <hdop>9.9</hdop>
        <extensions>
          <osmand:speed>1.1</osmand:speed>
        </extensions>
      </trkpt>
      <trkpt lat="47.9903633" lon="0.2509804">
        <ele>107.7</ele>
        <time>2024-05-10T09:46:02Z</time>
        <hdop>9.9</hdop>
        <extensions>
          <osmand:speed>1.1</osmand:speed>
        </extensions>
      </trkpt>
      <trkpt lat="47.9904155" lon="0.2511446">
        <ele>106.2</ele>
        <time>2024-05-10T09:46:18Z</time>
        <hdop>9.9</hdop>
        <extensions>
          <osmand:speed>1</osmand:speed>
        </extensions>
      </trkpt>
      <trkpt lat="47.9904481" lon="0.2512056">
        <ele>102.2</ele>
        <time>2024-05-10T09:46:34Z</time>
        <hdop>9.9</hdop>
      </trkpt>
      <trkpt lat="47.9904397" lon="0.2511912">
        <ele>102.2</ele>
        <time>2024-05-10T09:46:50Z</time>
        <hdop>9.9</hdop>
      </trkpt>
      <trkpt lat="47.9904713" lon="0.2513009">
        <ele>102.3</ele>
        <time>2024-05-10T09:47:06Z</time>
        <hdop>9.9</hdop>
        <extensions>
          <osmand:speed>0.7</osmand:speed>
        </extensions>
      </trkpt>
      <trkpt lat="47.9904943" lon="0.2513736">
        <ele>101.2</ele>
        <time>2024-05-10T09:47:22Z</time>
        <hdop>9.9</hdop>
      </trkpt>
      <trkpt lat="47.9904945" lon="0.2513727">
        <ele>101.3</ele>
        <time>2024-05-10T09:47:38Z</time>
        <hdop>9.9</hdop>
      </trkpt>
      <trkpt lat="47.9904877" lon="0.2513743">
        <ele>101.3</ele>
        <time>2024-05-10T09:47:54Z</time>
        <hdop>9.9</hdop>
      </trkpt>
      <trkpt lat="47.9904973" lon="0.25137">
        <ele>103.4</ele>
        <time>2024-05-10T09:48:10Z</time>
        <hdop>9.9</hdop>
      </trkpt>
      <trkpt lat="47.9905901" lon="0.2514908">
        <ele>102.9</ele>
        <time>2024-05-10T09:48:26Z</time>
        <hdop>9.9</hdop>
        <extensions>
          <osmand:speed>1</osmand:speed>
        </extensions>
      </trkpt>
      <trkpt lat="47.9906739" lon="0.251631">
        <ele>104</ele>
        <time>2024-05-10T09:48:42Z</time>
        <hdop>9.9</hdop>
        <extensions>
          <osmand:speed>0.9</osmand:speed>
        </extensions>
      </trkpt>
      <trkpt lat="47.9907836" lon="0.2517681">
        <ele>106.3</ele>
        <time>2024-05-10T09:48:58Z</time>
        <hdop>9.9</hdop>
        <extensions>
          <osmand:speed>1</osmand:speed>
        </extensions>
      </trkpt>
      <trkpt lat="47.9908666" lon="0.2519171">
        <ele>106.5</ele>
        <time>2024-05-10T09:49:14Z</time>
        <hdop>9.9</hdop>
        <extensions>
          <osmand:speed>0.9</osmand:speed>
        </extensions>
      </trkpt>
      <trkpt lat="47.9908996" lon="0.2520584">
        <ele>104.5</ele>
        <time>2024-05-10T09:49:30Z</time>
        <hdop>9.9</hdop>
        <extensions>
          <osmand:speed>0.7</osmand:speed>
        </extensions>
      </trkpt>
      <trkpt lat="47.9909035" lon="0.252066">
        <ele>105.4</ele>
        <time>2024-05-10T09:49:46Z</time>
        <hdop>9.9</hdop>
      </trkpt>
      <trkpt lat="47.9909024" lon="0.2520724">
        <ele>105.2</ele>
        <time>2024-05-10T09:50:02Z</time>
        <hdop>9.9</hdop>
      </trkpt>
      <trkpt lat="47.9908953" lon="0.2521423">
        <ele>105.6</ele>
        <time>2024-05-10T09:50:18Z</time>
        <hdop>3.8</hdop>
        <extensions>
          <osmand:speed>0.5</osmand:speed>
        </extensions>
      </trkpt>
      <trkpt lat="47.9909308" lon="0.2520857">
        <ele>104.3</ele>
        <time>2024-05-10T09:50:34Z</time>
        <hdop>3.8</hdop>
        <extensions>
          <osmand:speed>0.9</osmand:speed>
        </extensions>
      </trkpt>
      <trkpt lat="47.9910438" lon="0.2521214">
        <ele>104.8</ele>
        <time>2024-05-10T09:50:50Z</time>
        <hdop>3.8</hdop>
        <extensions>
          <osmand:speed>0.9</osmand:speed>
        </extensions>
      </trkpt>
      <trkpt lat="47.9911567" lon="0.2521756">
        <ele>104.2</ele>
        <time>2024-05-10T09:51:06Z</time>
        <hdop>3.8</hdop>
        <extensions>
          <osmand:speed>1</osmand:speed>
        </extensions>
      </trkpt>
      <trkpt lat="47.9911833" lon="0.2521111">
        <ele>104.8</ele>
        <time>2024-05-10T09:51:22Z</time>
        <hdop>3.8</hdop>
      </trkpt>
      <trkpt lat="47.9913274" lon="0.2522133">
        <ele>103.2</ele>
        <time>2024-05-10T09:51:38Z</time>
        <hdop>9.9</hdop>
        <extensions>
          <osmand:speed>1</osmand:speed>
        </extensions>
      </trkpt>
      <trkpt lat="47.991484" lon="0.2522694">
        <ele>101.1</ele>
        <time>2024-05-10T09:51:54Z</time>
        <hdop>9.9</hdop>
        <extensions>
          <osmand:speed>0.6</osmand:speed>
        </extensions>
      </trkpt>
      <trkpt lat="47.9916303" lon="0.2523074">
        <ele>101</ele>
        <time>2024-05-10T09:52:10Z</time>
        <hdop>9.9</hdop>
        <extensions>
          <osmand:speed>1.2</osmand:speed>
        </extensions>
      </trkpt>
      <trkpt lat="47.9917144" lon="0.2523493">
        <ele>98.6</ele>
        <time>2024-05-10T09:52:26Z</time>
        <hdop>9.9</hdop>
        <extensions>
          <osmand:speed>0.7</osmand:speed>
        </extensions>
      </trkpt>
      <trkpt lat="47.9917565" lon="0.2523382">
        <ele>96.6</ele>
        <time>2024-05-10T09:52:42Z</time>
        <hdop>9.9</hdop>
        <extensions>
          <osmand:speed>0.3</osmand:speed>
        </extensions>
      </trkpt>
      <trkpt lat="47.9917212" lon="0.252298">
        <ele>95.8</ele>
        <time>2024-05-10T09:52:58Z</time>
        <hdop>9.9</hdop>
      </trkpt>
      <trkpt lat="47.9917436" lon="0.252305">
        <ele>96.4</ele>
        <time>2024-05-10T09:53:14Z</time>
        <hdop>9.9</hdop>
      </trkpt>
      <trkpt lat="47.9917679" lon="0.2522157">
        <ele>97.4</ele>
        <time>2024-05-10T09:53:30Z</time>
        <hdop>9.9</hdop>
      </trkpt>
      <trkpt lat="47.9917452" lon="0.2523021">
        <ele>97.2</ele>
        <time>2024-05-10T09:53:46Z</time>
        <hdop>9.9</hdop>
        <extensions>
          <osmand:speed>1.4</osmand:speed>
        </extensions>
      </trkpt>
      <trkpt lat="47.9917918" lon="0.2525055">
        <ele>96.8</ele>
        <time>2024-05-10T09:54:02Z</time>
        <hdop>9.9</hdop>
      </trkpt>
      <trkpt lat="47.9917971" lon="0.2525106">
        <ele>96.9</ele>
        <time>2024-05-10T09:54:18Z</time>
        <hdop>9.9</hdop>
      </trkpt>
      <trkpt lat="47.991797" lon="0.2525099">
        <ele>96.8</ele>
        <time>2024-05-10T09:54:34Z</time>
        <hdop>9.9</hdop>
      </trkpt>
      <trkpt lat="47.9917975" lon="0.2525095">
        <ele>96.8</ele>
        <time>2024-05-10T09:54:50Z</time>
        <hdop>9.9</hdop>
      </trkpt>
      <trkpt lat="47.9918077" lon="0.2526191">
        <ele>97.3</ele>
        <time>2024-05-10T09:55:06Z</time>
        <hdop>9.9</hdop>
        <extensions>
          <osmand:speed>0.4</osmand:speed>
        </extensions>
      </trkpt>
      <trkpt lat="47.9918303" lon="0.2526913">
        <ele>96.4</ele>
        <time>2024-05-10T09:55:22Z</time>
        <hdop>9.9</hdop>
      </trkpt>
      <trkpt lat="47.9918181" lon="0.2526821">
        <ele>97.2</ele>
        <time>2024-05-10T09:55:38Z</time>
        <hdop>9.9</hdop>
      </trkpt>
      <trkpt lat="47.991859" lon="0.2527126">
        <ele>95.5</ele>
        <time>2024-05-10T09:55:54Z</time>
        <hdop>9.9</hdop>
      </trkpt>
      <trkpt lat="47.9919221" lon="0.2528134">
        <ele>96.5</ele>
        <time>2024-05-10T09:56:10Z</time>
        <hdop>9.9</hdop>
      </trkpt>
      <trkpt lat="47.9919368" lon="0.2528397">
        <ele>96.7</ele>
        <time>2024-05-10T09:56:26Z</time>
        <hdop>9.9</hdop>
        <extensions>
          <osmand:speed>1.6</osmand:speed>
        </extensions>
      </trkpt>
      <trkpt lat="47.9920835" lon="0.2530077">
        <ele>98.4</ele>
        <time>2024-05-10T09:56:42Z</time>
        <hdop>9.9</hdop>
        <extensions>
          <osmand:speed>1.2</osmand:speed>
        </extensions>
      </trkpt>
      <trkpt lat="47.9921659" lon="0.2530346">
        <ele>96.4</ele>
        <time>2024-05-10T09:56:58Z</time>
        <hdop>9.9</hdop>
      </trkpt>
      <trkpt lat="47.9921681" lon="0.2530353">
        <ele>96.6</ele>
        <time>2024-05-10T09:57:14Z</time>
        <hdop>3.8</hdop>
      </trkpt>
      <trkpt lat="47.9921682" lon="0.2530352">
        <ele>96.6</ele>
        <time>2024-05-10T09:57:30Z</time>
        <hdop>3.8</hdop>
      </trkpt>
      <trkpt lat="47.9922677" lon="0.2529795">
        <ele>98.6</ele>
        <time>2024-05-10T09:57:46Z</time>
        <hdop>3.8</hdop>
      </trkpt>
      <trkpt lat="47.9923235" lon="0.2529442">
        <ele>98.1</ele>
        <time>2024-05-10T09:58:02Z</time>
        <hdop>3.8</hdop>
      </trkpt>
      <trkpt lat="47.9924385" lon="0.252865">
        <ele>99</ele>
        <time>2024-05-10T09:58:19Z</time>
        <hdop>3.8</hdop>
        <extensions>
          <osmand:speed>1.4</osmand:speed>
        </extensions>
      </trkpt>
      <trkpt lat="47.9925434" lon="0.2526802">
        <ele>97.2</ele>
        <time>2024-05-10T09:58:35Z</time>
        <hdop>3.8</hdop>
        <extensions>
          <osmand:speed>1.5</osmand:speed>
        </extensions>
      </trkpt>
      <trkpt lat="47.9925205" lon="0.2526684">
        <ele>96.3</ele>
        <time>2024-05-10T09:58:51Z</time>
        <hdop>3.8</hdop>
      </trkpt>
      <trkpt lat="47.9925765" lon="0.2524797">
        <ele>95.7</ele>
        <time>2024-05-10T09:59:07Z</time>
        <hdop>3.8</hdop>
        <extensions>
          <osmand:speed>1.4</osmand:speed>
        </extensions>
      </trkpt>
      <trkpt lat="47.9925889" lon="0.2522945">
        <ele>95.1</ele>
        <time>2024-05-10T09:59:23Z</time>
        <hdop>3.8</hdop>
        <extensions>
          <osmand:speed>0.8</osmand:speed>
        </extensions>
      </trkpt>
      <trkpt lat="47.9925872" lon="0.252147">
        <ele>96.1</ele>
        <time>2024-05-10T09:59:39Z</time>
        <hdop>9.9</hdop>
      </trkpt>
      <trkpt lat="47.99259" lon="0.2521372">
        <ele>95.9</ele>
        <time>2024-05-10T09:59:55Z</time>
        <hdop>9.9</hdop>
        <extensions>
          <osmand:speed>0.7</osmand:speed>
        </extensions>
      </trkpt>
      <trkpt lat="47.9925915" lon="0.2520792">
        <ele>96.6</ele>
        <time>2024-05-10T10:00:11Z</time>
        <hdop>9.9</hdop>
      </trkpt>
      <trkpt lat="47.9925903" lon="0.2519284">
        <ele>98.1</ele>
        <time>2024-05-10T10:00:27Z</time>
        <hdop>9.9</hdop>
        <extensions>
          <osmand:speed>0.3</osmand:speed>
        </extensions>
      </trkpt>
      <trkpt lat="47.9927222" lon="0.2518068">
        <ele>99.3</ele>
        <time>2024-05-10T10:00:43Z</time>
        <hdop>3.8</hdop>
        <extensions>
          <osmand:speed>1</osmand:speed>
        </extensions>
      </trkpt>
      <trkpt lat="47.9927951" lon="0.2518451">
        <ele>99</ele>
        <time>2024-05-10T10:00:59Z</time>
        <hdop>3.8</hdop>
        <extensions>
          <osmand:speed>0.3</osmand:speed>
        </extensions>
      </trkpt>
      <trkpt lat="47.9928996" lon="0.2518874">
        <ele>96.1</ele>
        <time>2024-05-10T10:01:15Z</time>
        <hdop>3.8</hdop>
      </trkpt>
      <trkpt lat="47.9930414" lon="0.2519614">
        <ele>93.8</ele>
        <time>2024-05-10T10:01:31Z</time>
        <hdop>3.8</hdop>
        <extensions>
          <osmand:speed>0.8</osmand:speed>
        </extensions>
      </trkpt>
      <trkpt lat="47.9931044" lon="0.2519798">
        <ele>95.6</ele>
        <time>2024-05-10T10:01:47Z</time>
        <hdop>9.9</hdop>
        <extensions>
          <osmand:speed>0.7</osmand:speed>
        </extensions>
      </trkpt>
      <trkpt lat="47.9932509" lon="0.2519998">
        <ele>98.3</ele>
        <time>2024-05-10T10:02:03Z</time>
        <hdop>9.9</hdop>
        <extensions>
          <osmand:speed>0.6</osmand:speed>
        </extensions>
      </trkpt>
      <trkpt lat="47.9933249" lon="0.2520271">
        <ele>98.2</ele>
        <time>2024-05-10T10:02:20Z</time>
        <hdop>9.9</hdop>
        <extensions>
          <osmand:speed>0.9</osmand:speed>
        </extensions>
      </trkpt>
      <trkpt lat="47.9933976" lon="0.2520377">
        <ele>98.3</ele>
        <time>2024-05-10T10:02:36Z</time>
        <hdop>9.9</hdop>
        <extensions>
          <osmand:speed>1.1</osmand:speed>
        </extensions>
      </trkpt>
      <trkpt lat="47.9935564" lon="0.2520321">
        <ele>96.1</ele>
        <time>2024-05-10T10:02:52Z</time>
        <hdop>9.9</hdop>
        <extensions>
          <osmand:speed>0.4</osmand:speed>
        </extensions>
      </trkpt>
      <trkpt lat="47.9936723" lon="0.2521359">
        <ele>96.9</ele>
        <time>2024-05-10T10:03:08Z</time>
        <hdop>9.9</hdop>
        <extensions>
          <osmand:speed>1</osmand:speed>
        </extensions>
      </trkpt>
      <trkpt lat="47.9937133" lon="0.2522886">
        <ele>97.8</ele>
        <time>2024-05-10T10:03:24Z</time>
        <hdop>9.9</hdop>
      </trkpt>
      <trkpt lat="47.9937122" lon="0.2524357">
        <ele>97.6</ele>
        <time>2024-05-10T10:03:40Z</time>
        <hdop>9.9</hdop>
        <extensions>
          <osmand:speed>1.2</osmand:speed>
        </extensions>
      </trkpt>
      <trkpt lat="47.9936661" lon="0.2526232">
        <ele>97.7</ele>
        <time>2024-05-10T10:03:56Z</time>
        <hdop>3.8</hdop>
      </trkpt>
      <trkpt lat="47.9936483" lon="0.2527086">
        <ele>95.7</ele>
        <time>2024-05-10T10:04:12Z</time>
        <hdop>3.8</hdop>
        <extensions>
          <osmand:speed>1.2</osmand:speed>
        </extensions>
      </trkpt>
      <trkpt lat="47.9936021" lon="0.2529362">
        <ele>100.1</ele>
        <time>2024-05-10T10:04:28Z</time>
        <hdop>3.8</hdop>
        <extensions>
          <osmand:speed>1.1</osmand:speed>
        </extensions>
      </trkpt>
      <trkpt lat="47.9936284" lon="0.2528871">
        <ele>96.9</ele>
        <time>2024-05-10T10:04:44Z</time>
        <hdop>3.8</hdop>
      </trkpt>
      <trkpt lat="47.9936363" lon="0.2528803">
        <ele>97.7</ele>
        <time>2024-05-10T10:05:00Z</time>
        <hdop>9.9</hdop>
      </trkpt>
      <trkpt lat="47.9935766" lon="0.2530948">
        <ele>98.5</ele>
        <time>2024-05-10T10:05:16Z</time>
        <hdop>9.9</hdop>
        <extensions>
          <osmand:speed>1.2</osmand:speed>
        </extensions>
      </trkpt>
      <trkpt lat="47.9935923" lon="0.2530392">
        <ele>98.3</ele>
        <time>2024-05-10T10:05:32Z</time>
        <hdop>9.9</hdop>
        <extensions>
          <osmand:speed>0.5</osmand:speed>
        </extensions>
      </trkpt>
      <trkpt lat="47.9936704" lon="0.2532982">
        <ele>97.2</ele>
        <time>2024-05-10T10:05:48Z</time>
        <hdop>9.9</hdop>
        <extensions>
          <osmand:speed>1.5</osmand:speed>
        </extensions>
      </trkpt>
      <trkpt lat="47.9936819" lon="0.2534342">
        <ele>95.6</ele>
        <time>2024-05-10T10:06:04Z</time>
        <hdop>9.9</hdop>
      </trkpt>
      <trkpt lat="47.9936772" lon="0.2534281">
        <ele>95</ele>
        <time>2024-05-10T10:06:20Z</time>
        <hdop>9.9</hdop>
      </trkpt>
      <trkpt lat="47.993672" lon="0.253563">
        <ele>93.4</ele>
        <time>2024-05-10T10:06:36Z</time>
        <hdop>9.9</hdop>
        <extensions>
          <osmand:speed>1.4</osmand:speed>
        </extensions>
      </trkpt>
      <trkpt lat="47.993696" lon="0.2537938">
        <ele>97.1</ele>
        <time>2024-05-10T10:06:52Z</time>
        <hdop>9.9</hdop>
        <extensions>
          <osmand:speed>1.3</osmand:speed>
        </extensions>
      </trkpt>
      <trkpt lat="47.9937664" lon="0.2539745">
        <ele>99.2</ele>
        <time>2024-05-10T10:07:08Z</time>
        <hdop>9.9</hdop>
        <extensions>
          <osmand:speed>0.5</osmand:speed>
        </extensions>
      </trkpt>
      <trkpt lat="47.9938413" lon="0.2540988">
        <ele>96.1</ele>
        <time>2024-05-10T10:07:24Z</time>
        <hdop>9.9</hdop>
        <extensions>
          <osmand:speed>0.6</osmand:speed>
        </extensions>
      </trkpt>
      <trkpt lat="47.9938593" lon="0.2540825">
        <ele>96.7</ele>
        <time>2024-05-10T10:07:40Z</time>
        <hdop>9.9</hdop>
        <extensions>
          <osmand:speed>1.1</osmand:speed>
        </extensions>
      </trkpt>
      <trkpt lat="47.9940397" lon="0.2540601">
        <ele>96.9</ele>
        <time>2024-05-10T10:07:56Z</time>
        <hdop>9.9</hdop>
        <extensions>
          <osmand:speed>1.2</osmand:speed>
        </extensions>
      </trkpt>
      <trkpt lat="47.9941563" lon="0.253968">
        <ele>99.9</ele>
        <time>2024-05-10T10:08:12Z</time>
        <hdop>9.9</hdop>
        <extensions>
          <osmand:speed>0.7</osmand:speed>
        </extensions>
      </trkpt>
      <trkpt lat="47.9942953" lon="0.2539">
        <ele>99.7</ele>
        <time>2024-05-10T10:08:28Z</time>
        <hdop>9.9</hdop>
        <extensions>
          <osmand:speed>1.5</osmand:speed>
        </extensions>
      </trkpt>
      <trkpt lat="47.9943654" lon="0.25388">
        <ele>95.6</ele>
        <time>2024-05-10T10:08:44Z</time>
        <hdop>9.9</hdop>
      </trkpt>
      <trkpt lat="47.9944849" lon="0.2537867">
        <ele>93.9</ele>
        <time>2024-05-10T10:09:00Z</time>
        <hdop>9.9</hdop>
        <extensions>
          <osmand:speed>1.7</osmand:speed>
        </extensions>
      </trkpt>
      <trkpt lat="47.9946644" lon="0.2536938">
        <ele>93.2</ele>
        <time>2024-05-10T10:09:16Z</time>
        <hdop>9.9</hdop>
        <extensions>
          <osmand:speed>1.2</osmand:speed>
        </extensions>
      </trkpt>
      <trkpt lat="47.9948133" lon="0.2536317">
        <ele>92.3</ele>
        <time>2024-05-10T10:09:32Z</time>
        <hdop>9.9</hdop>
        <extensions>
          <osmand:speed>1.1</osmand:speed>
        </extensions>
      </trkpt>
      <trkpt lat="47.994958" lon="0.2535504">
        <ele>93.1</ele>
        <time>2024-05-10T10:09:48Z</time>
        <hdop>9.9</hdop>
        <extensions>
          <osmand:speed>1.1</osmand:speed>
        </extensions>
      </trkpt>
      <trkpt lat="47.9949958" lon="0.2535334">
        <ele>93</ele>
        <time>2024-05-10T10:10:04Z</time>
        <hdop>9.9</hdop>
      </trkpt>
      <trkpt lat="47.9950122" lon="0.2535298">
        <ele>92.5</ele>
        <time>2024-05-10T10:10:20Z</time>
        <hdop>9.9</hdop>
      </trkpt>
      <trkpt lat="47.9950172" lon="0.2535529">
        <ele>93.4</ele>
        <time>2024-05-10T10:10:36Z</time>
        <hdop>9.9</hdop>
      </trkpt>
      <trkpt lat="47.9950786" lon="0.2535196">
        <ele>94.5</ele>
        <time>2024-05-10T10:10:52Z</time>
        <hdop>9.9</hdop>
        <extensions>
          <osmand:speed>0.7</osmand:speed>
        </extensions>
      </trkpt>
      <trkpt lat="47.9952046" lon="0.2534648">
        <ele>94</ele>
        <time>2024-05-10T10:11:08Z</time>
        <hdop>9.9</hdop>
        <extensions>
          <osmand:speed>1</osmand:speed>
        </extensions>
      </trkpt>
      <trkpt lat="47.9953155" lon="0.2534435">
        <ele>93.6</ele>
        <time>2024-05-10T10:11:24Z</time>
        <hdop>9.9</hdop>
        <extensions>
          <osmand:speed>1</osmand:speed>
        </extensions>
      </trkpt>
      <trkpt lat="47.9954685" lon="0.2534591">
        <ele>92.6</ele>
        <time>2024-05-10T10:11:40Z</time>
        <hdop>9.9</hdop>
        <extensions>
          <osmand:speed>0.9</osmand:speed>
        </extensions>
      </trkpt>
      <trkpt lat="47.995613" lon="0.2534869">
        <ele>91.6</ele>
        <time>2024-05-10T10:11:56Z</time>
        <hdop>9.9</hdop>
        <extensions>
          <osmand:speed>0.9</osmand:speed>
        </extensions>
      </trkpt>
      <trkpt lat="47.9956586" lon="0.2534489">
        <ele>93.7</ele>
        <time>2024-05-10T10:12:12Z</time>
        <hdop>9.9</hdop>
      </trkpt>
      <trkpt lat="47.995725" lon="0.2535796">
        <ele>94.5</ele>
        <time>2024-05-10T10:12:28Z</time>
        <hdop>9.9</hdop>
        <extensions>
          <osmand:speed>0.9</osmand:speed>
        </extensions>
      </trkpt>
      <trkpt lat="47.9958597" lon="0.2537117">
        <ele>94</ele>
        <time>2024-05-10T10:12:44Z</time>
        <hdop>9.9</hdop>
        <extensions>
          <osmand:speed>1.1</osmand:speed>
        </extensions>
      </trkpt>
      <trkpt lat="47.9960067" lon="0.2538621">
        <ele>95.1</ele>
        <time>2024-05-10T10:13:00Z</time>
        <hdop>9.9</hdop>
        <extensions>
          <osmand:speed>1.2</osmand:speed>
        </extensions>
      </trkpt>
      <trkpt lat="47.9960322" lon="0.2539973">
        <ele>95.2</ele>
        <time>2024-05-10T10:13:16Z</time>
        <hdop>9.9</hdop>
      </trkpt>
      <trkpt lat="47.9960086" lon="0.2539976">
        <ele>97.7</ele>
        <time>2024-05-10T10:13:32Z</time>
        <hdop>9.9</hdop>
      </trkpt>
      <trkpt lat="47.9960347" lon="0.2540181">
        <ele>97.5</ele>
        <time>2024-05-10T10:13:48Z</time>
        <hdop>9.9</hdop>
        <extensions>
          <osmand:speed>0.2</osmand:speed>
        </extensions>
      </trkpt>
      <trkpt lat="47.9960415" lon="0.2540196">
        <ele>97.9</ele>
        <time>2024-05-10T10:14:04Z</time>
        <hdop>3.8</hdop>
      </trkpt>
      <trkpt lat="47.9960087" lon="0.2540133">
        <ele>100.4</ele>
        <time>2024-05-10T10:14:20Z</time>
        <hdop>3.8</hdop>
        <extensions>
          <osmand:speed>0.2</osmand:speed>
        </extensions>
      </trkpt>
      <trkpt lat="47.9960198" lon="0.2540075">
        <ele>99.3</ele>
        <time>2024-05-10T10:14:36Z</time>
        <hdop>3.8</hdop>
      </trkpt>
      <trkpt lat="47.9960197" lon="0.2540076">
        <ele>99.3</ele>
        <time>2024-05-10T10:14:52Z</time>
        <hdop>3.8</hdop>
      </trkpt>
      <trkpt lat="47.9960199" lon="0.2540079">
        <ele>99.5</ele>
        <time>2024-05-10T10:15:08Z</time>
        <hdop>3.8</hdop>
      </trkpt>
      <trkpt lat="47.9960486" lon="0.2540675">
        <ele>102.5</ele>
        <time>2024-05-10T10:15:24Z</time>
        <hdop>9.9</hdop>
      </trkpt>
      <trkpt lat="47.9961742" lon="0.2540533">
        <ele>101.1</ele>
        <time>2024-05-10T10:15:40Z</time>
        <hdop>9.9</hdop>
        <extensions>
          <osmand:speed>1.2</osmand:speed>
        </extensions>
      </trkpt>
      <trkpt lat="47.9963292" lon="0.2542415">
        <ele>99.3</ele>
        <time>2024-05-10T10:15:56Z</time>
        <hdop>9.9</hdop>
        <extensions>
          <osmand:speed>1.3</osmand:speed>
        </extensions>
      </trkpt>
      <trkpt lat="47.9964198" lon="0.2545207">
        <ele>98.6</ele>
        <time>2024-05-10T10:16:12Z</time>
        <hdop>9.9</hdop>
        <extensions>
          <osmand:speed>1.5</osmand:speed>
        </extensions>
      </trkpt>
      <trkpt lat="47.9965739" lon="0.2546486">
        <ele>97.6</ele>
        <time>2024-05-10T10:16:28Z</time>
        <hdop>3.8</hdop>
        <extensions>
          <osmand:speed>1.5</osmand:speed>
        </extensions>
      </trkpt>
      <trkpt lat="47.9967089" lon="0.2546837">
        <ele>98</ele>
        <time>2024-05-10T10:16:44Z</time>
        <hdop>3.8</hdop>
        <extensions>
          <osmand:speed>1.6</osmand:speed>
        </extensions>
      </trkpt>
      <trkpt lat="47.996774" lon="0.254996">
        <ele>97.6</ele>
        <time>2024-05-10T10:17:00Z</time>
        <hdop>3.8</hdop>
        <extensions>
          <osmand:speed>1.5</osmand:speed>
        </extensions>
      </trkpt>
      <trkpt lat="47.9969686" lon="0.2549956">
        <ele>99</ele>
        <time>2024-05-10T10:17:16Z</time>
        <hdop>3.8</hdop>
        <extensions>
          <osmand:speed>1.5</osmand:speed>
        </extensions>
      </trkpt>
      <trkpt lat="47.9971559" lon="0.2548406">
        <ele>98</ele>
        <time>2024-05-10T10:17:32Z</time>
        <hdop>3.8</hdop>
        <extensions>
          <osmand:speed>1.5</osmand:speed>
        </extensions>
      </trkpt>
      <trkpt lat="47.9973406" lon="0.254785">
        <ele>97.2</ele>
        <time>2024-05-10T10:17:48Z</time>
        <hdop>3.8</hdop>
        <extensions>
          <osmand:speed>1.6</osmand:speed>
        </extensions>
      </trkpt>
      <trkpt lat="47.9974328" lon="0.2550885">
        <ele>95.8</ele>
        <time>2024-05-10T10:18:04Z</time>
        <hdop>3.8</hdop>
        <extensions>
          <osmand:speed>1.6</osmand:speed>
        </extensions>
      </trkpt>
      <trkpt lat="47.9974967" lon="0.2553953">
        <ele>94.1</ele>
        <time>2024-05-10T10:18:20Z</time>
        <hdop>3.8</hdop>
        <extensions>
          <osmand:speed>1.5</osmand:speed>
        </extensions>
      </trkpt>
      <trkpt lat="47.9975814" lon="0.2556934">
        <ele>94.9</ele>
        <time>2024-05-10T10:18:36Z</time>
        <hdop>3.8</hdop>
        <extensions>
          <osmand:speed>1.7</osmand:speed>
        </extensions>
      </trkpt>
      <trkpt lat="47.9976963" lon="0.2559875">
        <ele>92.8</ele>
        <time>2024-05-10T10:18:52Z</time>
        <hdop>3.8</hdop>
        <extensions>
          <osmand:speed>1.6</osmand:speed>
        </extensions>
      </trkpt>
      <trkpt lat="47.997875" lon="0.2559819">
        <ele>96</ele>
        <time>2024-05-10T10:19:08Z</time>
        <hdop>3.8</hdop>
        <extensions>
          <osmand:speed>1.2</osmand:speed>
        </extensions>
      </trkpt>
      <trkpt lat="47.9979809" lon="0.2558622">
        <ele>96.3</ele>
        <time>2024-05-10T10:19:24Z</time>
        <hdop>10.1</hdop>
      </trkpt>
      <trkpt lat="47.9978483" lon="0.2558228">
        <ele>106</ele>
        <time>2024-05-10T10:19:40Z</time>
        <hdop>18.7</hdop>
      </trkpt>
      <trkpt lat="47.9978639" lon="0.2558236">
        <ele>106.1</ele>
        <time>2024-05-10T10:19:56Z</time>
        <hdop>14.6</hdop>
      </trkpt>
      <trkpt lat="47.9979841" lon="0.2558776">
        <ele>98.7</ele>
        <time>2024-05-10T10:20:12Z</time>
        <hdop>4</hdop>
        <extensions>
          <osmand:speed>0.4</osmand:speed>
        </extensions>
      </trkpt>
      <trkpt lat="47.9979568" lon="0.2558355">
        <ele>96.7</ele>
        <time>2024-05-10T10:20:28Z</time>
        <hdop>5.7</hdop>
      </trkpt>
      <trkpt lat="47.997972" lon="0.2558072">
        <ele>96.2</ele>
        <time>2024-05-10T10:20:44Z</time>
        <hdop>10.2</hdop>
        <extensions>
          <osmand:speed>0.3</osmand:speed>
        </extensions>
      </trkpt>
      <trkpt lat="47.9978643" lon="0.2559592">
        <ele>96.7</ele>
        <time>2024-05-10T10:21:00Z</time>
        <hdop>9.9</hdop>
        <extensions>
          <osmand:speed>1.2</osmand:speed>
        </extensions>
      </trkpt>
      <trkpt lat="47.9977934" lon="0.2557967">
        <ele>98</ele>
        <time>2024-05-10T10:21:16Z</time>
        <hdop>3.8</hdop>
      </trkpt>
      <trkpt lat="47.9977622" lon="0.2556812">
        <ele>99.3</ele>
        <time>2024-05-10T10:21:32Z</time>
        <hdop>3.8</hdop>
        <extensions>
          <osmand:speed>1.1</osmand:speed>
        </extensions>
      </trkpt>
      <trkpt lat="47.9976189" lon="0.2555639">
        <ele>98.6</ele>
        <time>2024-05-10T10:21:48Z</time>
        <hdop>3.8</hdop>
        <extensions>
          <osmand:speed>1.2</osmand:speed>
        </extensions>
      </trkpt>
      <trkpt lat="47.9975234" lon="0.2553254">
        <ele>99.8</ele>
        <time>2024-05-10T10:22:04Z</time>
        <hdop>3.8</hdop>
        <extensions>
          <osmand:speed>1.4</osmand:speed>
        </extensions>
      </trkpt>
      <trkpt lat="47.9974548" lon="0.2550648">
        <ele>99.5</ele>
        <time>2024-05-10T10:22:20Z</time>
        <hdop>9.9</hdop>
        <extensions>
          <osmand:speed>1.5</osmand:speed>
        </extensions>
      </trkpt>
      <trkpt lat="47.9974009" lon="0.2547843">
        <ele>98.3</ele>
        <time>2024-05-10T10:22:36Z</time>
        <hdop>9.9</hdop>
        <extensions>
          <osmand:speed>1.4</osmand:speed>
        </extensions>
      </trkpt>
      <trkpt lat="47.9972837" lon="0.254571">
        <ele>97.2</ele>
        <time>2024-05-10T10:22:52Z</time>
        <hdop>9.9</hdop>
        <extensions>
          <osmand:speed>1.6</osmand:speed>
        </extensions>
      </trkpt>
      <trkpt lat="47.9971136" lon="0.2544256">
        <ele>95.7</ele>
        <time>2024-05-10T10:23:08Z</time>
        <hdop>9.9</hdop>
        <extensions>
          <osmand:speed>1.6</osmand:speed>
        </extensions>
      </trkpt>
      <trkpt lat="47.9969092" lon="0.2544234">
        <ele>96.7</ele>
        <time>2024-05-10T10:23:24Z</time>
        <hdop>9.9</hdop>
        <extensions>
          <osmand:speed>1.4</osmand:speed>
        </extensions>
      </trkpt>
      <trkpt lat="47.9967284" lon="0.2545121">
        <ele>96.3</ele>
        <time>2024-05-10T10:23:40Z</time>
        <hdop>9.9</hdop>
        <extensions>
          <osmand:speed>1.3</osmand:speed>
        </extensions>
      </trkpt>
      <trkpt lat="47.9965661" lon="0.2546217">
        <ele>96.7</ele>
        <time>2024-05-10T10:23:56Z</time>
        <hdop>9.9</hdop>
        <extensions>
          <osmand:speed>1.4</osmand:speed>
        </extensions>
      </trkpt>
      <trkpt lat="47.9964398" lon="0.2545036">
        <ele>98.6</ele>
        <time>2024-05-10T10:24:12Z</time>
        <hdop>9.9</hdop>
        <extensions>
          <osmand:speed>0.8</osmand:speed>
        </extensions>
      </trkpt>
      <trkpt lat="47.996322" lon="0.2542316">
        <ele>99</ele>
        <time>2024-05-10T10:24:28Z</time>
        <hdop>3.8</hdop>
        <extensions>
          <osmand:speed>1.3</osmand:speed>
        </extensions>
      </trkpt>
      <trkpt lat="47.9961609" lon="0.2540668">
        <ele>99.9</ele>
        <time>2024-05-10T10:24:44Z</time>
        <hdop>3.8</hdop>
        <extensions>
          <osmand:speed>1.6</osmand:speed>
        </extensions>
      </trkpt>
      <trkpt lat="47.9960931" lon="0.2540741">
        <ele>97.4</ele>
        <time>2024-05-10T10:25:00Z</time>
        <hdop>3.8</hdop>
      </trkpt>
      <trkpt lat="47.9960763" lon="0.2541059">
        <ele>97.3</ele>
        <time>2024-05-10T10:25:16Z</time>
        <hdop>3.8</hdop>
        <extensions>
          <osmand:speed>0.9</osmand:speed>
        </extensions>
      </trkpt>
      <trkpt lat="47.9960923" lon="0.2540572">
        <ele>96.4</ele>
        <time>2024-05-10T10:25:32Z</time>
        <hdop>9.9</hdop>
      </trkpt>
      <trkpt lat="47.9960756" lon="0.2541267">
        <ele>96.7</ele>
        <time>2024-05-10T10:25:48Z</time>
        <hdop>9.9</hdop>
      </trkpt>
      <trkpt lat="47.9960824" lon="0.2541065">
        <ele>97.4</ele>
        <time>2024-05-10T10:26:04Z</time>
        <hdop>9.9</hdop>
      </trkpt>
      <trkpt lat="47.9960903" lon="0.2541283">
        <ele>97.6</ele>
        <time>2024-05-10T10:26:20Z</time>
        <hdop>9.9</hdop>
      </trkpt>
      <trkpt lat="47.9960905" lon="0.254125">
        <ele>97.6</ele>
        <time>2024-05-10T10:26:36Z</time>
        <hdop>9.9</hdop>
      </trkpt>
      <trkpt lat="47.9960916" lon="0.2541244">
        <ele>97.4</ele>
        <time>2024-05-10T10:26:52Z</time>
        <hdop>9.9</hdop>
      </trkpt>
      <trkpt lat="47.9960896" lon="0.254116">
        <ele>97.3</ele>
        <time>2024-05-10T10:27:08Z</time>
        <hdop>9.9</hdop>
      </trkpt>
      <trkpt lat="47.9960843" lon="0.2541234">
        <ele>97.4</ele>
        <time>2024-05-10T10:27:24Z</time>
        <hdop>9.9</hdop>
      </trkpt>
      <trkpt lat="47.9960838" lon="0.2541239">
        <ele>97.3</ele>
        <time>2024-05-10T10:27:40Z</time>
        <hdop>9.9</hdop>
      </trkpt>
      <trkpt lat="47.9960838" lon="0.2541238">
        <ele>97.3</ele>
        <time>2024-05-10T10:27:56Z</time>
        <hdop>9.9</hdop>
      </trkpt>
      <trkpt lat="47.9960836" lon="0.2541238">
        <ele>97.4</ele>
        <time>2024-05-10T10:28:12Z</time>
        <hdop>9.9</hdop>
      </trkpt>
      <trkpt lat="47.9960837" lon="0.2541236">
        <ele>97.4</ele>
        <time>2024-05-10T10:28:28Z</time>
        <hdop>9.9</hdop>
      </trkpt>
      <trkpt lat="47.996083" lon="0.2541211">
        <ele>97.8</ele>
        <time>2024-05-10T10:28:43Z</time>
        <hdop>8.3</hdop>
      </trkpt>
    </trkseg>
  </trk>
</gpx>