<?xml version='1.0' encoding='UTF-8' standalone='yes' ?>
<gpx version="1.1" creator="OsmAnd~ 4.6.14" xmlns="http://www.topografix.com/GPX/1/1" xmlns:osmand="https://osmand.net" xmlns:xsi="http://www.w3.org/2001/XMLSchema-instance" xsi:schemaLocation="http://www.topografix.com/GPX/1/1 http://www.topografix.com/GPX/1/1/gpx.xsd">
  <metadata>
    <name>2024-04-24_11-02_Wed</name>
  </metadata>
  <trk>
    <trkseg>
      <trkpt lat="38.7334936" lon="-9.1337074">
        <ele>110.9</ele>
        <time>2024-04-24T10:02:22Z</time>
        <hdop>4.4</hdop>
        <extensions>
          <osmand:speed>1.2</osmand:speed>
        </extensions>
      </trkpt>
      <trkpt lat="38.7335358" lon="-9.133904">
        <ele>109.4</ele>
        <time>2024-04-24T10:02:38Z</time>
        <hdop>3.8</hdop>
      </trkpt>
      <trkpt lat="38.7334163" lon="-9.1340708">
        <ele>111</ele>
        <time>2024-04-24T10:02:54Z</time>
        <hdop>3.9</hdop>
        <extensions>
          <osmand:speed>0.8</osmand:speed>
        </extensions>
      </trkpt>
      <trkpt lat="38.7332305" lon="-9.1341604">
        <ele>115.6</ele>
        <time>2024-04-24T10:03:10Z</time>
        <hdop>3.8</hdop>
        <extensions>
          <osmand:speed>1.6</osmand:speed>
        </extensions>
      </trkpt>
      <trkpt lat="38.7330284" lon="-9.1342116">
        <ele>116.5</ele>
        <time>2024-04-24T10:03:26Z</time>
        <hdop>9.9</hdop>
        <extensions>
          <osmand:speed>1.1</osmand:speed>
        </extensions>
      </trkpt>
      <trkpt lat="38.732947" lon="-9.1341597">
        <ele>110.2</ele>
        <time>2024-04-24T10:03:42Z</time>
        <hdop>9.9</hdop>
      </trkpt>
      <trkpt lat="38.7328689" lon="-9.1341522">
        <ele>112.2</ele>
        <time>2024-04-24T10:03:58Z</time>
        <hdop>9.9</hdop>
        <extensions>
          <osmand:speed>1.4</osmand:speed>
        </extensions>
      </trkpt>
      <trkpt lat="38.732795" lon="-9.1341881">
        <ele>111.9</ele>
        <time>2024-04-24T10:04:14Z</time>
        <hdop>9.9</hdop>
      </trkpt>
      <trkpt lat="38.7327955" lon="-9.134189">
        <ele>112</ele>
        <time>2024-04-24T10:04:30Z</time>
        <hdop>9.9</hdop>
      </trkpt>
      <trkpt lat="38.7327957" lon="-9.1341903">
        <ele>112.1</ele>
        <time>2024-04-24T10:04:46Z</time>
        <hdop>9.9</hdop>
      </trkpt>
      <trkpt lat="38.7327959" lon="-9.1341909">
        <ele>112.2</ele>
        <time>2024-04-24T10:05:02Z</time>
        <hdop>9.9</hdop>
      </trkpt>
      <trkpt lat="38.732789" lon="-9.1342212">
        <ele>113.1</ele>
        <time>2024-04-24T10:05:18Z</time>
        <hdop>9.9</hdop>
        <extensions>
          <osmand:speed>1.3</osmand:speed>
        </extensions>
      </trkpt>
      <trkpt lat="38.7327273" lon="-9.1343565">
        <ele>117.5</ele>
        <time>2024-04-24T10:05:34Z</time>
        <hdop>9.9</hdop>
        <extensions>
          <osmand:speed>1.1</osmand:speed>
        </extensions>
      </trkpt>
      <trkpt lat="38.732556" lon="-9.1343775">
        <ele>121</ele>
        <time>2024-04-24T10:05:50Z</time>
        <hdop>9.9</hdop>
        <extensions>
          <osmand:speed>1.5</osmand:speed>
        </extensions>
      </trkpt>
      <trkpt lat="38.7323841" lon="-9.1343614">
        <ele>126.3</ele>
        <time>2024-04-24T10:06:06Z</time>
        <hdop>9.9</hdop>
        <extensions>
          <osmand:speed>1.2</osmand:speed>
        </extensions>
      </trkpt>
      <trkpt lat="38.732209" lon="-9.1344291">
        <ele>126.9</ele>
        <time>2024-04-24T10:06:22Z</time>
        <hdop>9.9</hdop>
        <extensions>
          <osmand:speed>1.5</osmand:speed>
        </extensions>
      </trkpt>
      <trkpt lat="38.7320176" lon="-9.1344653">
        <ele>125.7</ele>
        <time>2024-04-24T10:06:38Z</time>
        <hdop>9.9</hdop>
        <extensions>
          <osmand:speed>1.6</osmand:speed>
        </extensions>
      </trkpt>
      <trkpt lat="38.7318306" lon="-9.1345041">
        <ele>120.5</ele>
        <time>2024-04-24T10:06:54Z</time>
        <hdop>9.9</hdop>
        <extensions>
          <osmand:speed>1.3</osmand:speed>
        </extensions>
      </trkpt>
      <trkpt lat="38.7316287" lon="-9.1345605">
        <ele>115.8</ele>
        <time>2024-04-24T10:07:10Z</time>
        <hdop>9.9</hdop>
        <extensions>
          <osmand:speed>1.1</osmand:speed>
        </extensions>
      </trkpt>
      <trkpt lat="38.7314099" lon="-9.1345569">
        <ele>116.7</ele>
        <time>2024-04-24T10:07:26Z</time>
        <hdop>9.9</hdop>
        <extensions>
          <osmand:speed>1.5</osmand:speed>
        </extensions>
      </trkpt>
      <trkpt lat="38.7312871" lon="-9.1346372">
        <ele>112.7</ele>
        <time>2024-04-24T10:07:42Z</time>
        <hdop>9.9</hdop>
      </trkpt>
      <trkpt lat="38.7312869" lon="-9.1346399">
        <ele>112.7</ele>
        <time>2024-04-24T10:07:58Z</time>
        <hdop>9.9</hdop>
      </trkpt>
      <trkpt lat="38.7312602" lon="-9.1346382">
        <ele>113.3</ele>
        <time>2024-04-24T10:08:14Z</time>
        <hdop>9.9</hdop>
        <extensions>
          <osmand:speed>1.2</osmand:speed>
        </extensions>
      </trkpt>
      <trkpt lat="38.7310727" lon="-9.1346251">
        <ele>110.5</ele>
        <time>2024-04-24T10:08:30Z</time>
        <hdop>9.9</hdop>
        <extensions>
          <osmand:speed>1.2</osmand:speed>
        </extensions>
      </trkpt>
      <trkpt lat="38.7308434" lon="-9.1346093">
        <ele>110.6</ele>
        <time>2024-04-24T10:08:46Z</time>
        <hdop>9.9</hdop>
        <extensions>
          <osmand:speed>1.4</osmand:speed>
        </extensions>
      </trkpt>
      <trkpt lat="38.7306249" lon="-9.1346189">
        <ele>111.2</ele>
        <time>2024-04-24T10:09:02Z</time>
        <hdop>9.9</hdop>
        <extensions>
          <osmand:speed>1.3</osmand:speed>
        </extensions>
      </trkpt>
      <trkpt lat="38.7304648" lon="-9.1346451">
        <ele>109.8</ele>
        <time>2024-04-24T10:09:18Z</time>
        <hdop>9.9</hdop>
      </trkpt>
      <trkpt lat="38.7304441" lon="-9.134646">
        <ele>109.6</ele>
        <time>2024-04-24T10:09:34Z</time>
        <hdop>9.9</hdop>
        <extensions>
          <osmand:speed>1</osmand:speed>
        </extensions>
      </trkpt>
      <trkpt lat="38.7302633" lon="-9.134668">
        <ele>109.9</ele>
        <time>2024-04-24T10:09:50Z</time>
        <hdop>9.9</hdop>
        <extensions>
          <osmand:speed>1.4</osmand:speed>
        </extensions>
      </trkpt>
      <trkpt lat="38.7300755" lon="-9.134694">
        <ele>109.5</ele>
        <time>2024-04-24T10:10:06Z</time>
        <hdop>9.9</hdop>
        <extensions>
          <osmand:speed>1.4</osmand:speed>
        </extensions>
      </trkpt>
      <trkpt lat="38.7299051" lon="-9.1347267">
        <ele>109.3</ele>
        <time>2024-04-24T10:10:22Z</time>
        <hdop>9.9</hdop>
        <extensions>
          <osmand:speed>1.5</osmand:speed>
        </extensions>
      </trkpt>
      <trkpt lat="38.7297672" lon="-9.134725">
        <ele>109.5</ele>
        <time>2024-04-24T10:10:38Z</time>
        <hdop>9.9</hdop>
        <extensions>
          <osmand:speed>1.6</osmand:speed>
        </extensions>
      </trkpt>
      <trkpt lat="38.7297176" lon="-9.1347062">
        <ele>107.3</ele>
        <time>2024-04-24T10:10:54Z</time>
        <hdop>9.9</hdop>
        <extensions>
          <osmand:speed>1.1</osmand:speed>
        </extensions>
      </trkpt>
      <trkpt lat="38.7295236" lon="-9.1347317">
        <ele>109.9</ele>
        <time>2024-04-24T10:11:10Z</time>
        <hdop>9.9</hdop>
        <extensions>
          <osmand:speed>1.4</osmand:speed>
        </extensions>
      </trkpt>
      <trkpt lat="38.7293562" lon="-9.1347689">
        <ele>105.9</ele>
        <time>2024-04-24T10:11:26Z</time>
        <hdop>9.9</hdop>
        <extensions>
          <osmand:speed>1.2</osmand:speed>
        </extensions>
      </trkpt>
      <trkpt lat="38.7291444" lon="-9.1347986">
        <ele>103.5</ele>
        <time>2024-04-24T10:11:42Z</time>
        <hdop>9.9</hdop>
        <extensions>
          <osmand:speed>1.5</osmand:speed>
        </extensions>
      </trkpt>
      <trkpt lat="38.7289562" lon="-9.1348289">
        <ele>103.5</ele>
        <time>2024-04-24T10:11:58Z</time>
        <hdop>9.9</hdop>
        <extensions>
          <osmand:speed>1.4</osmand:speed>
        </extensions>
      </trkpt>
      <trkpt lat="38.728742" lon="-9.1348466">
        <ele>105.8</ele>
        <time>2024-04-24T10:12:14Z</time>
        <hdop>10.2</hdop>
        <extensions>
          <osmand:speed>1.5</osmand:speed>
        </extensions>
      </trkpt>
      <trkpt lat="38.7285358" lon="-9.1348306">
        <ele>107.4</ele>
        <time>2024-04-24T10:12:30Z</time>
        <hdop>9.9</hdop>
        <extensions>
          <osmand:speed>1.6</osmand:speed>
        </extensions>
      </trkpt>
      <trkpt lat="38.7283241" lon="-9.1348766">
        <ele>106.7</ele>
        <time>2024-04-24T10:12:46Z</time>
        <hdop>9.9</hdop>
        <extensions>
          <osmand:speed>1.4</osmand:speed>
        </extensions>
      </trkpt>
      <trkpt lat="38.7281314" lon="-9.1348903">
        <ele>106.9</ele>
        <time>2024-04-24T10:13:02Z</time>
        <hdop>9.9</hdop>
        <extensions>
          <osmand:speed>1.4</osmand:speed>
        </extensions>
      </trkpt>
      <trkpt lat="38.7279176" lon="-9.134907">
        <ele>106.8</ele>
        <time>2024-04-24T10:13:18Z</time>
        <hdop>9.9</hdop>
        <extensions>
          <osmand:speed>1.5</osmand:speed>
        </extensions>
      </trkpt>
      <trkpt lat="38.7277367" lon="-9.13494">
        <ele>110.1</ele>
        <time>2024-04-24T10:13:34Z</time>
        <hdop>9.9</hdop>
        <extensions>
          <osmand:speed>1.2</osmand:speed>
        </extensions>
      </trkpt>
      <trkpt lat="38.7277104" lon="-9.1349248">
        <ele>114.2</ele>
        <time>2024-04-24T10:13:50Z</time>
        <hdop>19.5</hdop>
      </trkpt>
      <trkpt lat="38.7277376" lon="-9.1349061">
        <ele>132.9</ele>
        <time>2024-04-24T10:15:29Z</time>
        <hdop>17.8</hdop>
        <extensions>
          <osmand:speed>2.1</osmand:speed>
        </extensions>
      </trkpt>
      <trkpt lat="38.7277442" lon="-9.1348362">
        <ele>128.4</ele>
        <time>2024-04-24T10:15:45Z</time>
        <hdop>4.3</hdop>
        <extensions>
          <osmand:speed>1.2</osmand:speed>
        </extensions>
      </trkpt>
      <trkpt lat="38.7274624" lon="-9.1348942">
        <ele>117.7</ele>
        <time>2024-04-24T10:16:01Z</time>
        <hdop>3.8</hdop>
        <extensions>
          <osmand:speed>1.2</osmand:speed>
        </extensions>
      </trkpt>
      <trkpt lat="38.7272546" lon="-9.1349434">
        <ele>114.9</ele>
        <time>2024-04-24T10:16:17Z</time>
        <hdop>3.8</hdop>
        <extensions>
          <osmand:speed>1.2</osmand:speed>
        </extensions>
      </trkpt>
      <trkpt lat="38.7270791" lon="-9.1349795">
        <ele>113.6</ele>
        <time>2024-04-24T10:16:33Z</time>
        <hdop>9.9</hdop>
        <extensions>
          <osmand:speed>1.5</osmand:speed>
        </extensions>
      </trkpt>
      <trkpt lat="38.7268928" lon="-9.1350198">
        <ele>108.6</ele>
        <time>2024-04-24T10:16:49Z</time>
        <hdop>9.9</hdop>
        <extensions>
          <osmand:speed>1.3</osmand:speed>
        </extensions>
      </trkpt>
      <trkpt lat="38.7267128" lon="-9.1350236">
        <ele>106.8</ele>
        <time>2024-04-24T10:17:05Z</time>
        <hdop>9.9</hdop>
        <extensions>
          <osmand:speed>1.2</osmand:speed>
        </extensions>
      </trkpt>
      <trkpt lat="38.7265111" lon="-9.1350604">
        <ele>102</ele>
        <time>2024-04-24T10:17:21Z</time>
        <hdop>9.9</hdop>
        <extensions>
          <osmand:speed>1.2</osmand:speed>
        </extensions>
      </trkpt>
      <trkpt lat="38.7264526" lon="-9.135115">
        <ele>100.1</ele>
        <time>2024-04-24T10:17:37Z</time>
        <hdop>9.9</hdop>
      </trkpt>
      <trkpt lat="38.7264501" lon="-9.1351141">
        <ele>100.1</ele>
        <time>2024-04-24T10:17:53Z</time>
        <hdop>9.9</hdop>
      </trkpt>
      <trkpt lat="38.7264545" lon="-9.1351104">
        <ele>100.1</ele>
        <time>2024-04-24T10:18:09Z</time>
        <hdop>9.9</hdop>
      </trkpt>
      <trkpt lat="38.7263999" lon="-9.1351174">
        <ele>99</ele>
        <time>2024-04-24T10:18:25Z</time>
        <hdop>9.9</hdop>
        <extensions>
          <osmand:speed>1.3</osmand:speed>
        </extensions>
      </trkpt>
      <trkpt lat="38.7262158" lon="-9.1350886">
        <ele>95.5</ele>
        <time>2024-04-24T10:18:41Z</time>
        <hdop>10.7</hdop>
        <extensions>
          <osmand:speed>1.1</osmand:speed>
        </extensions>
      </trkpt>
      <trkpt lat="38.7260143" lon="-9.1351389">
        <ele>95.2</ele>
        <time>2024-04-24T10:18:57Z</time>
        <hdop>9.9</hdop>
        <extensions>
          <osmand:speed>1.7</osmand:speed>
        </extensions>
      </trkpt>
      <trkpt lat="38.7258046" lon="-9.135144">
        <ele>98.8</ele>
        <time>2024-04-24T10:19:13Z</time>
        <hdop>9.9</hdop>
        <extensions>
          <osmand:speed>0.3</osmand:speed>
        </extensions>
      </trkpt>
      <trkpt lat="38.725772" lon="-9.1351067">
        <ele>100</ele>
        <time>2024-04-24T10:19:29Z</time>
        <hdop>9.9</hdop>
        <extensions>
          <osmand:speed>1.1</osmand:speed>
        </extensions>
      </trkpt>
      <trkpt lat="38.7255934" lon="-9.1351682">
        <ele>96.8</ele>
        <time>2024-04-24T10:19:45Z</time>
        <hdop>9.9</hdop>
        <extensions>
          <osmand:speed>1.2</osmand:speed>
        </extensions>
      </trkpt>
      <trkpt lat="38.7253934" lon="-9.1351904">
        <ele>96.1</ele>
        <time>2024-04-24T10:20:01Z</time>
        <hdop>9.9</hdop>
        <extensions>
          <osmand:speed>1.3</osmand:speed>
        </extensions>
      </trkpt>
      <trkpt lat="38.7253324" lon="-9.1351554">
        <ele>97.9</ele>
        <time>2024-04-24T10:20:17Z</time>
        <hdop>9.9</hdop>
        <extensions>
          <osmand:speed>1.2</osmand:speed>
        </extensions>
      </trkpt>
      <trkpt lat="38.7252524" lon="-9.1351341">
        <ele>97.4</ele>
        <time>2024-04-24T10:20:33Z</time>
        <hdop>9.9</hdop>
        <extensions>
          <osmand:speed>1.1</osmand:speed>
        </extensions>
      </trkpt>
      <trkpt lat="38.7250894" lon="-9.1352491">
        <ele>94.6</ele>
        <time>2024-04-24T10:20:49Z</time>
        <hdop>9.9</hdop>
        <extensions>
          <osmand:speed>1.3</osmand:speed>
        </extensions>
      </trkpt>
      <trkpt lat="38.7249144" lon="-9.1352433">
        <ele>93.6</ele>
        <time>2024-04-24T10:21:05Z</time>
        <hdop>9.9</hdop>
        <extensions>
          <osmand:speed>1.1</osmand:speed>
        </extensions>
      </trkpt>
      <trkpt lat="38.7247593" lon="-9.1351668">
        <ele>93.9</ele>
        <time>2024-04-24T10:21:21Z</time>
        <hdop>9.9</hdop>
      </trkpt>
      <trkpt lat="38.7247649" lon="-9.1351673">
        <ele>94.7</ele>
        <time>2024-04-24T10:21:37Z</time>
        <hdop>9.9</hdop>
      </trkpt>
      <trkpt lat="38.7247566" lon="-9.1351677">
        <ele>95.5</ele>
        <time>2024-04-24T10:21:53Z</time>
        <hdop>9.9</hdop>
      </trkpt>
      <trkpt lat="38.72476" lon="-9.1351676">
        <ele>96.2</ele>
        <time>2024-04-24T10:22:09Z</time>
        <hdop>9.9</hdop>
      </trkpt>
      <trkpt lat="38.7247311" lon="-9.1350141">
        <ele>94.9</ele>
        <time>2024-04-24T10:22:25Z</time>
        <hdop>9.9</hdop>
        <extensions>
          <osmand:speed>1.1</osmand:speed>
        </extensions>
      </trkpt>
      <trkpt lat="38.7245478" lon="-9.1350224">
        <ele>91.9</ele>
        <time>2024-04-24T10:22:41Z</time>
        <hdop>9.9</hdop>
        <extensions>
          <osmand:speed>1.2</osmand:speed>
        </extensions>
      </trkpt>
      <trkpt lat="38.7243738" lon="-9.1350564">
        <ele>90.9</ele>
        <time>2024-04-24T10:22:57Z</time>
        <hdop>9.9</hdop>
        <extensions>
          <osmand:speed>1.4</osmand:speed>
        </extensions>
      </trkpt>
      <trkpt lat="38.7241727" lon="-9.135061">
        <ele>94.9</ele>
        <time>2024-04-24T10:23:13Z</time>
        <hdop>9.9</hdop>
        <extensions>
          <osmand:speed>1.7</osmand:speed>
        </extensions>
      </trkpt>
      <trkpt lat="38.7239742" lon="-9.1350721">
        <ele>96.4</ele>
        <time>2024-04-24T10:23:29Z</time>
        <hdop>9.9</hdop>
        <extensions>
          <osmand:speed>1.3</osmand:speed>
        </extensions>
      </trkpt>
      <trkpt lat="38.7237591" lon="-9.1351445">
        <ele>97.6</ele>
        <time>2024-04-24T10:23:45Z</time>
        <hdop>9.9</hdop>
        <extensions>
          <osmand:speed>1.4</osmand:speed>
        </extensions>
      </trkpt>
      <trkpt lat="38.7235901" lon="-9.1351523">
        <ele>96.9</ele>
        <time>2024-04-24T10:24:01Z</time>
        <hdop>9.9</hdop>
        <extensions>
          <osmand:speed>0.7</osmand:speed>
        </extensions>
      </trkpt>
      <trkpt lat="38.7234025" lon="-9.1351761">
        <ele>96.8</ele>
        <time>2024-04-24T10:24:17Z</time>
        <hdop>10.2</hdop>
        <extensions>
          <osmand:speed>1.3</osmand:speed>
        </extensions>
      </trkpt>
      <trkpt lat="38.7231926" lon="-9.1352218">
        <ele>98</ele>
        <time>2024-04-24T10:24:33Z</time>
        <hdop>10.2</hdop>
        <extensions>
          <osmand:speed>1.5</osmand:speed>
        </extensions>
      </trkpt>
      <trkpt lat="38.7229856" lon="-9.1352854">
        <ele>99.2</ele>
        <time>2024-04-24T10:24:49Z</time>
        <hdop>9.9</hdop>
        <extensions>
          <osmand:speed>1.3</osmand:speed>
        </extensions>
      </trkpt>
      <trkpt lat="38.7228103" lon="-9.1353771">
        <ele>101.7</ele>
        <time>2024-04-24T10:25:05Z</time>
        <hdop>10.2</hdop>
        <extensions>
          <osmand:speed>1.2</osmand:speed>
        </extensions>
      </trkpt>
      <trkpt lat="38.7226614" lon="-9.1353439">
        <ele>104.3</ele>
        <time>2024-04-24T10:25:21Z</time>
        <hdop>9.9</hdop>
      </trkpt>
      <trkpt lat="38.7225395" lon="-9.1352768">
        <ele>99.2</ele>
        <time>2024-04-24T10:25:37Z</time>
        <hdop>9.9</hdop>
        <extensions>
          <osmand:speed>0.7</osmand:speed>
        </extensions>
      </trkpt>
      <trkpt lat="38.7224627" lon="-9.1350895">
        <ele>96</ele>
        <time>2024-04-24T10:25:53Z</time>
        <hdop>9.9</hdop>
        <extensions>
          <osmand:speed>1.4</osmand:speed>
        </extensions>
      </trkpt>
      <trkpt lat="38.7224243" lon="-9.1349802">
        <ele>102.3</ele>
        <time>2024-04-24T10:26:09Z</time>
        <hdop>9.9</hdop>
      </trkpt>
      <trkpt lat="38.7223688" lon="-9.1349822">
        <ele>100</ele>
        <time>2024-04-24T10:26:25Z</time>
        <hdop>9.9</hdop>
      </trkpt>
      <trkpt lat="38.7223249" lon="-9.1349773">
        <ele>98.2</ele>
        <time>2024-04-24T10:26:41Z</time>
        <hdop>9.9</hdop>
        <extensions>
          <osmand:speed>1.5</osmand:speed>
        </extensions>
      </trkpt>
      <trkpt lat="38.7221478" lon="-9.1350013">
        <ele>97.4</ele>
        <time>2024-04-24T10:26:57Z</time>
        <hdop>10.8</hdop>
        <extensions>
          <osmand:speed>1.2</osmand:speed>
        </extensions>
      </trkpt>
      <trkpt lat="38.7219578" lon="-9.1349158">
        <ele>92.8</ele>
        <time>2024-04-24T10:27:13Z</time>
        <hdop>10</hdop>
        <extensions>
          <osmand:speed>1.1</osmand:speed>
        </extensions>
      </trkpt>
      <trkpt lat="38.7217265" lon="-9.1348572">
        <ele>99.8</ele>
        <time>2024-04-24T10:27:33Z</time>
        <hdop>9.9</hdop>
        <extensions>
          <osmand:speed>1.6</osmand:speed>
        </extensions>
      </trkpt>
      <trkpt lat="38.7215346" lon="-9.1347735">
        <ele>99.3</ele>
        <time>2024-04-24T10:27:49Z</time>
        <hdop>9.9</hdop>
        <extensions>
          <osmand:speed>1.3</osmand:speed>
        </extensions>
      </trkpt>
      <trkpt lat="38.7213227" lon="-9.1348142">
        <ele>91.3</ele>
        <time>2024-04-24T10:28:05Z</time>
        <hdop>9.9</hdop>
        <extensions>
          <osmand:speed>0.7</osmand:speed>
        </extensions>
      </trkpt>
      <trkpt lat="38.721206" lon="-9.1348822">
        <ele>90.2</ele>
        <time>2024-04-24T10:28:21Z</time>
        <hdop>9.9</hdop>
        <extensions>
          <osmand:speed>1.4</osmand:speed>
        </extensions>
      </trkpt>
      <trkpt lat="38.7210386" lon="-9.1349918">
        <ele>84.2</ele>
        <time>2024-04-24T10:28:37Z</time>
        <hdop>9.9</hdop>
        <extensions>
          <osmand:speed>1.5</osmand:speed>
        </extensions>
      </trkpt>
      <trkpt lat="38.7208754" lon="-9.1350501">
        <ele>82.5</ele>
        <time>2024-04-24T10:28:53Z</time>
        <hdop>9.9</hdop>
        <extensions>
          <osmand:speed>1.1</osmand:speed>
        </extensions>
      </trkpt>
      <trkpt lat="38.7207155" lon="-9.1351001">
        <ele>79.1</ele>
        <time>2024-04-24T10:29:09Z</time>
        <hdop>9.9</hdop>
        <extensions>
          <osmand:speed>1.4</osmand:speed>
        </extensions>
      </trkpt>
      <trkpt lat="38.7205327" lon="-9.1350348">
        <ele>80.5</ele>
        <time>2024-04-24T10:29:25Z</time>
        <hdop>9.9</hdop>
        <extensions>
          <osmand:speed>0.5</osmand:speed>
        </extensions>
      </trkpt>
      <trkpt lat="38.7204492" lon="-9.1349618">
        <ele>79.2</ele>
        <time>2024-04-24T10:29:41Z</time>
        <hdop>9.9</hdop>
      </trkpt>
      <trkpt lat="38.7202903" lon="-9.1349906">
        <ele>81.3</ele>
        <time>2024-04-24T10:29:57Z</time>
        <hdop>9.9</hdop>
        <extensions>
          <osmand:speed>1.3</osmand:speed>
        </extensions>
      </trkpt>
      <trkpt lat="38.7200629" lon="-9.1349822">
        <ele>87.2</ele>
        <time>2024-04-24T10:30:13Z</time>
        <hdop>9.9</hdop>
        <extensions>
          <osmand:speed>1.3</osmand:speed>
        </extensions>
      </trkpt>
      <trkpt lat="38.7198714" lon="-9.134987">
        <ele>89.2</ele>
        <time>2024-04-24T10:30:29Z</time>
        <hdop>9.9</hdop>
        <extensions>
          <osmand:speed>1.1</osmand:speed>
        </extensions>
      </trkpt>
      <trkpt lat="38.7197096" lon="-9.1350291">
        <ele>88.3</ele>
        <time>2024-04-24T10:30:45Z</time>
        <hdop>9.9</hdop>
        <extensions>
          <osmand:speed>1.2</osmand:speed>
        </extensions>
      </trkpt>
      <trkpt lat="38.7195288" lon="-9.1350315">
        <ele>86.5</ele>
        <time>2024-04-24T10:31:01Z</time>
        <hdop>9.9</hdop>
        <extensions>
          <osmand:speed>1.4</osmand:speed>
        </extensions>
      </trkpt>
      <trkpt lat="38.7193057" lon="-9.1350343">
        <ele>93.3</ele>
        <time>2024-04-24T10:31:17Z</time>
        <hdop>9.9</hdop>
        <extensions>
          <osmand:speed>1.7</osmand:speed>
        </extensions>
      </trkpt>
      <trkpt lat="38.7191311" lon="-9.1350223">
        <ele>90.8</ele>
        <time>2024-04-24T10:31:33Z</time>
        <hdop>9.9</hdop>
        <extensions>
          <osmand:speed>1.2</osmand:speed>
        </extensions>
      </trkpt>
      <trkpt lat="38.718984" lon="-9.1350667">
        <ele>86.6</ele>
        <time>2024-04-24T10:31:49Z</time>
        <hdop>9.9</hdop>
        <extensions>
          <osmand:speed>0.4</osmand:speed>
        </extensions>
      </trkpt>
      <trkpt lat="38.7188248" lon="-9.1350693">
        <ele>86.6</ele>
        <time>2024-04-24T10:32:05Z</time>
        <hdop>9.9</hdop>
        <extensions>
          <osmand:speed>1</osmand:speed>
        </extensions>
      </trkpt>
      <trkpt lat="38.7186829" lon="-9.1350487">
        <ele>89.6</ele>
        <time>2024-04-24T10:32:21Z</time>
        <hdop>9.9</hdop>
        <extensions>
          <osmand:speed>1</osmand:speed>
        </extensions>
      </trkpt>
      <trkpt lat="38.7185039" lon="-9.1350619">
        <ele>85.8</ele>
        <time>2024-04-24T10:32:37Z</time>
        <hdop>9.9</hdop>
        <extensions>
          <osmand:speed>1.5</osmand:speed>
        </extensions>
      </trkpt>
      <trkpt lat="38.718311" lon="-9.1350962">
        <ele>84.5</ele>
        <time>2024-04-24T10:32:53Z</time>
        <hdop>9.9</hdop>
        <extensions>
          <osmand:speed>1.5</osmand:speed>
        </extensions>
      </trkpt>
      <trkpt lat="38.7181221" lon="-9.1351076">
        <ele>89.4</ele>
        <time>2024-04-24T10:33:09Z</time>
        <hdop>9.9</hdop>
        <extensions>
          <osmand:speed>1.3</osmand:speed>
        </extensions>
      </trkpt>
      <trkpt lat="38.7179487" lon="-9.1350071">
        <ele>90.8</ele>
        <time>2024-04-24T10:33:25Z</time>
        <hdop>9.9</hdop>
        <extensions>
          <osmand:speed>1.5</osmand:speed>
        </extensions>
      </trkpt>
      <trkpt lat="38.7177901" lon="-9.1349715">
        <ele>88.4</ele>
        <time>2024-04-24T10:33:41Z</time>
        <hdop>9.9</hdop>
        <extensions>
          <osmand:speed>1</osmand:speed>
        </extensions>
      </trkpt>
      <trkpt lat="38.717718" lon="-9.1348291">
        <ele>83.5</ele>
        <time>2024-04-24T10:33:57Z</time>
        <hdop>9.9</hdop>
        <extensions>
          <osmand:speed>0.6</osmand:speed>
        </extensions>
      </trkpt>
      <trkpt lat="38.7177747" lon="-9.1346005">
        <ele>81.3</ele>
        <time>2024-04-24T10:34:13Z</time>
        <hdop>9.9</hdop>
        <extensions>
          <osmand:speed>0.5</osmand:speed>
        </extensions>
      </trkpt>
      <trkpt lat="38.7178508" lon="-9.1345638">
        <ele>87.5</ele>
        <time>2024-04-24T10:34:29Z</time>
        <hdop>9.9</hdop>
        <extensions>
          <osmand:speed>0.9</osmand:speed>
        </extensions>
      </trkpt>
      <trkpt lat="38.7179383" lon="-9.1346155">
        <ele>89.6</ele>
        <time>2024-04-24T10:34:45Z</time>
        <hdop>9.9</hdop>
        <extensions>
          <osmand:speed>0.8</osmand:speed>
        </extensions>
      </trkpt>
    </trkseg>
    <trkseg>
      <trkpt lat="38.7178012" lon="-9.1345178">
        <ele>82.6</ele>
        <time>2024-04-24T10:43:57Z</time>
        <hdop>15.8</hdop>
      </trkpt>
      <trkpt lat="38.7177962" lon="-9.1345113">
        <ele>82.6</ele>
        <time>2024-04-24T10:46:58Z</time>
        <hdop>16.4</hdop>
      </trkpt>
    </trkseg>
  </trk>
</gpx>