<?xml version='1.0' encoding='UTF-8' standalone='yes' ?>
<gpx version="1.1" creator="OsmAnd~ 4.6.14" xmlns="http://www.topografix.com/GPX/1/1" xmlns:osmand="https://osmand.net" xmlns:xsi="http://www.w3.org/2001/XMLSchema-instance" xsi:schemaLocation="http://www.topografix.com/GPX/1/1 http://www.topografix.com/GPX/1/1/gpx.xsd">
  <metadata>
    <name>2024-05-10_15-18_Fri</name>
  </metadata>
  <trk>
    <trkseg>
      <trkpt lat="47.9976539" lon="0.2559986">
        <ele>96.8</ele>
        <time>2024-05-10T13:18:53Z</time>
        <hdop>9.9</hdop>
      </trkpt>
      <trkpt lat="47.9976717" lon="0.2560079">
        <ele>95.9</ele>
        <time>2024-05-10T13:19:09Z</time>
        <hdop>9.9</hdop>
      </trkpt>
      <trkpt lat="47.9976758" lon="0.2560117">
        <ele>95.9</ele>
        <time>2024-05-10T13:19:25Z</time>
        <hdop>9.9</hdop>
        <extensions>
          <osmand:speed>0.2</osmand:speed>
        </extensions>
      </trkpt>
      <trkpt lat="47.9977061" lon="0.255977">
        <ele>96.8</ele>
        <time>2024-05-10T13:19:41Z</time>
        <hdop>9.9</hdop>
      </trkpt>
      <trkpt lat="47.9977076" lon="0.2559947">
        <ele>97</ele>
        <time>2024-05-10T13:19:57Z</time>
        <hdop>3.8</hdop>
        <extensions>
          <osmand:speed>0.4</osmand:speed>
        </extensions>
      </trkpt>
      <trkpt lat="47.9976988" lon="0.2559882">
        <ele>95.8</ele>
        <time>2024-05-10T13:20:13Z</time>
        <hdop>3.8</hdop>
        <extensions>
          <osmand:speed>0.5</osmand:speed>
        </extensions>
      </trkpt>
      <trkpt lat="47.9977174" lon="0.2559979">
        <ele>96.9</ele>
        <time>2024-05-10T13:20:29Z</time>
        <hdop>3.8</hdop>
      </trkpt>
      <trkpt lat="47.9977064" lon="0.2559825">
        <ele>96.1</ele>
        <time>2024-05-10T13:20:45Z</time>
        <hdop>3.8</hdop>
      </trkpt>
      <trkpt lat="47.9976399" lon="0.2559145">
        <ele>95.1</ele>
        <time>2024-05-10T13:21:01Z</time>
        <hdop>9.9</hdop>
        <extensions>
          <osmand:speed>0.5</osmand:speed>
        </extensions>
      </trkpt>
      <trkpt lat="47.9976174" lon="0.2559008">
        <ele>93.4</ele>
        <time>2024-05-10T13:21:17Z</time>
        <hdop>9.9</hdop>
      </trkpt>
      <trkpt lat="47.9976158" lon="0.2558548">
        <ele>93.3</ele>
        <time>2024-05-10T13:21:33Z</time>
        <hdop>9.9</hdop>
        <extensions>
          <osmand:speed>0.8</osmand:speed>
        </extensions>
      </trkpt>
      <trkpt lat="47.9975636" lon="0.2556548">
        <ele>92.7</ele>
        <time>2024-05-10T13:21:49Z</time>
        <hdop>9.9</hdop>
        <extensions>
          <osmand:speed>1</osmand:speed>
        </extensions>
      </trkpt>
      <trkpt lat="47.9975201" lon="0.2554448">
        <ele>92.2</ele>
        <time>2024-05-10T13:22:05Z</time>
        <hdop>9.9</hdop>
        <extensions>
          <osmand:speed>1</osmand:speed>
        </extensions>
      </trkpt>
      <trkpt lat="47.9974517" lon="0.2552652">
        <ele>91.4</ele>
        <time>2024-05-10T13:22:21Z</time>
        <hdop>9.9</hdop>
        <extensions>
          <osmand:speed>0.8</osmand:speed>
        </extensions>
      </trkpt>
      <trkpt lat="47.9974433" lon="0.2551815">
        <ele>92.1</ele>
        <time>2024-05-10T13:22:37Z</time>
        <hdop>9.9</hdop>
      </trkpt>
      <trkpt lat="47.9974356" lon="0.2550604">
        <ele>94.7</ele>
        <time>2024-05-10T13:22:53Z</time>
        <hdop>9.9</hdop>
        <extensions>
          <osmand:speed>0.9</osmand:speed>
        </extensions>
      </trkpt>
      <trkpt lat="47.9973672" lon="0.2548805">
        <ele>94.4</ele>
        <time>2024-05-10T13:23:09Z</time>
        <hdop>9.9</hdop>
        <extensions>
          <osmand:speed>0.9</osmand:speed>
        </extensions>
      </trkpt>
      <trkpt lat="47.9973442" lon="0.2548884">
        <ele>94</ele>
        <time>2024-05-10T13:23:25Z</time>
        <hdop>9.9</hdop>
        <extensions>
          <osmand:speed>0.9</osmand:speed>
        </extensions>
      </trkpt>
      <trkpt lat="47.9973397" lon="0.2548985">
        <ele>94.5</ele>
        <time>2024-05-10T13:23:41Z</time>
        <hdop>9.9</hdop>
      </trkpt>
      <trkpt lat="47.9972875" lon="0.254684">
        <ele>95</ele>
        <time>2024-05-10T13:23:57Z</time>
        <hdop>9.9</hdop>
        <extensions>
          <osmand:speed>1</osmand:speed>
        </extensions>
      </trkpt>
      <trkpt lat="47.997229" lon="0.2545104">
        <ele>93.2</ele>
        <time>2024-05-10T13:24:13Z</time>
        <hdop>9.9</hdop>
        <extensions>
          <osmand:speed>0.9</osmand:speed>
        </extensions>
      </trkpt>
      <trkpt lat="47.9970773" lon="0.254445">
        <ele>92.4</ele>
        <time>2024-05-10T13:24:29Z</time>
        <hdop>9.9</hdop>
        <extensions>
          <osmand:speed>1.2</osmand:speed>
        </extensions>
      </trkpt>
      <trkpt lat="47.9969121" lon="0.2544922">
        <ele>93</ele>
        <time>2024-05-10T13:24:45Z</time>
        <hdop>9.9</hdop>
        <extensions>
          <osmand:speed>1.2</osmand:speed>
        </extensions>
      </trkpt>
      <trkpt lat="47.9967553" lon="0.2545865">
        <ele>94.5</ele>
        <time>2024-05-10T13:25:01Z</time>
        <hdop>9.9</hdop>
        <extensions>
          <osmand:speed>1.1</osmand:speed>
        </extensions>
      </trkpt>
      <trkpt lat="47.996662" lon="0.2546256">
        <ele>94.7</ele>
        <time>2024-05-10T13:25:17Z</time>
        <hdop>9.9</hdop>
      </trkpt>
      <trkpt lat="47.9965694" lon="0.254659">
        <ele>97.3</ele>
        <time>2024-05-10T13:25:33Z</time>
        <hdop>3.8</hdop>
      </trkpt>
      <trkpt lat="47.9964513" lon="0.2546182">
        <ele>97.5</ele>
        <time>2024-05-10T13:25:49Z</time>
        <hdop>3.8</hdop>
        <extensions>
          <osmand:speed>0.9</osmand:speed>
        </extensions>
      </trkpt>
      <trkpt lat="47.996377" lon="0.2545556">
        <ele>97.4</ele>
        <time>2024-05-10T13:26:05Z</time>
        <hdop>3.8</hdop>
        <extensions>
          <osmand:speed>1</osmand:speed>
        </extensions>
      </trkpt>
      <trkpt lat="47.9963328" lon="0.2545924">
        <ele>96.8</ele>
        <time>2024-05-10T13:26:21Z</time>
        <hdop>3.8</hdop>
      </trkpt>
      <trkpt lat="47.9963901" lon="0.2545018">
        <ele>96</ele>
        <time>2024-05-10T13:26:37Z</time>
        <hdop>3.8</hdop>
        <extensions>
          <osmand:speed>1.1</osmand:speed>
        </extensions>
      </trkpt>
      <trkpt lat="47.9963787" lon="0.2543063">
        <ele>93.7</ele>
        <time>2024-05-10T13:26:53Z</time>
        <hdop>9.9</hdop>
        <extensions>
          <osmand:speed>1.2</osmand:speed>
        </extensions>
      </trkpt>
      <trkpt lat="47.9962691" lon="0.2541293">
        <ele>93.1</ele>
        <time>2024-05-10T13:27:09Z</time>
        <hdop>9.9</hdop>
        <extensions>
          <osmand:speed>1.1</osmand:speed>
        </extensions>
      </trkpt>
      <trkpt lat="47.9961516" lon="0.2539731">
        <ele>96.8</ele>
        <time>2024-05-10T13:27:25Z</time>
        <hdop>9.9</hdop>
        <extensions>
          <osmand:speed>1.3</osmand:speed>
        </extensions>
      </trkpt>
      <trkpt lat="47.9960173" lon="0.253873">
        <ele>94.1</ele>
        <time>2024-05-10T13:27:41Z</time>
        <hdop>9.9</hdop>
        <extensions>
          <osmand:speed>0.9</osmand:speed>
        </extensions>
      </trkpt>
      <trkpt lat="47.9959024" lon="0.253786">
        <ele>92.3</ele>
        <time>2024-05-10T13:27:57Z</time>
        <hdop>9.9</hdop>
        <extensions>
          <osmand:speed>1</osmand:speed>
        </extensions>
      </trkpt>
      <trkpt lat="47.9957874" lon="0.253645">
        <ele>91.8</ele>
        <time>2024-05-10T13:28:13Z</time>
        <hdop>9.9</hdop>
        <extensions>
          <osmand:speed>1</osmand:speed>
        </extensions>
      </trkpt>
      <trkpt lat="47.9956634" lon="0.2535154">
        <ele>91</ele>
        <time>2024-05-10T13:28:29Z</time>
        <hdop>9.9</hdop>
        <extensions>
          <osmand:speed>1.1</osmand:speed>
        </extensions>
      </trkpt>
      <trkpt lat="47.9955012" lon="0.2534475">
        <ele>94</ele>
        <time>2024-05-10T13:28:45Z</time>
        <hdop>9.9</hdop>
        <extensions>
          <osmand:speed>1.4</osmand:speed>
        </extensions>
      </trkpt>
      <trkpt lat="47.9953618" lon="0.2534129">
        <ele>91.8</ele>
        <time>2024-05-10T13:29:01Z</time>
        <hdop>9.9</hdop>
        <extensions>
          <osmand:speed>1.1</osmand:speed>
        </extensions>
      </trkpt>
      <trkpt lat="47.9952133" lon="0.2534445">
        <ele>92.2</ele>
        <time>2024-05-10T13:29:17Z</time>
        <hdop>9.9</hdop>
        <extensions>
          <osmand:speed>1.1</osmand:speed>
        </extensions>
      </trkpt>
      <trkpt lat="47.995057" lon="0.2535147">
        <ele>93.7</ele>
        <time>2024-05-10T13:29:33Z</time>
        <hdop>9.9</hdop>
        <extensions>
          <osmand:speed>1.4</osmand:speed>
        </extensions>
      </trkpt>
      <trkpt lat="47.9948985" lon="0.2535769">
        <ele>94.8</ele>
        <time>2024-05-10T13:29:49Z</time>
        <hdop>9.9</hdop>
        <extensions>
          <osmand:speed>1.5</osmand:speed>
        </extensions>
      </trkpt>
      <trkpt lat="47.994747" lon="0.2536748">
        <ele>95.2</ele>
        <time>2024-05-10T13:30:05Z</time>
        <hdop>9.9</hdop>
        <extensions>
          <osmand:speed>1.2</osmand:speed>
        </extensions>
      </trkpt>
      <trkpt lat="47.9945913" lon="0.2537387">
        <ele>95.3</ele>
        <time>2024-05-10T13:30:21Z</time>
        <hdop>9.9</hdop>
        <extensions>
          <osmand:speed>1.2</osmand:speed>
        </extensions>
      </trkpt>
      <trkpt lat="47.994507" lon="0.2537903">
        <ele>94.4</ele>
        <time>2024-05-10T13:30:37Z</time>
        <hdop>9.9</hdop>
        <extensions>
          <osmand:speed>1</osmand:speed>
        </extensions>
      </trkpt>
      <trkpt lat="47.9944473" lon="0.2537761">
        <ele>93.2</ele>
        <time>2024-05-10T13:30:53Z</time>
        <hdop>9.9</hdop>
      </trkpt>
      <trkpt lat="47.9943796" lon="0.2538635">
        <ele>93.7</ele>
        <time>2024-05-10T13:31:09Z</time>
        <hdop>9.9</hdop>
        <extensions>
          <osmand:speed>1.1</osmand:speed>
        </extensions>
      </trkpt>
      <trkpt lat="47.9942891" lon="0.2539526">
        <ele>93.4</ele>
        <time>2024-05-10T13:31:25Z</time>
        <hdop>9.9</hdop>
      </trkpt>
      <trkpt lat="47.994229" lon="0.254002">
        <ele>94.3</ele>
        <time>2024-05-10T13:31:41Z</time>
        <hdop>9.9</hdop>
        <extensions>
          <osmand:speed>0.8</osmand:speed>
        </extensions>
      </trkpt>
      <trkpt lat="47.9940899" lon="0.2540868">
        <ele>94.2</ele>
        <time>2024-05-10T13:31:57Z</time>
        <hdop>9.9</hdop>
        <extensions>
          <osmand:speed>1.1</osmand:speed>
        </extensions>
      </trkpt>
      <trkpt lat="47.9939257" lon="0.2541265">
        <ele>95.2</ele>
        <time>2024-05-10T13:32:13Z</time>
        <hdop>9.9</hdop>
        <extensions>
          <osmand:speed>1.1</osmand:speed>
        </extensions>
      </trkpt>
      <trkpt lat="47.9938493" lon="0.2541475">
        <ele>95.7</ele>
        <time>2024-05-10T13:32:29Z</time>
        <hdop>3.8</hdop>
      </trkpt>
      <trkpt lat="47.9937506" lon="0.2541354">
        <ele>97.3</ele>
        <time>2024-05-10T13:32:45Z</time>
        <hdop>3.8</hdop>
        <extensions>
          <osmand:speed>1.2</osmand:speed>
        </extensions>
      </trkpt>
      <trkpt lat="47.9935873" lon="0.2541505">
        <ele>96.9</ele>
        <time>2024-05-10T13:33:01Z</time>
        <hdop>3.8</hdop>
        <extensions>
          <osmand:speed>1.2</osmand:speed>
        </extensions>
      </trkpt>
      <trkpt lat="47.9934628" lon="0.2541752">
        <ele>95.5</ele>
        <time>2024-05-10T13:33:17Z</time>
        <hdop>3.8</hdop>
      </trkpt>
      <trkpt lat="47.9933249" lon="0.2541995">
        <ele>96.9</ele>
        <time>2024-05-10T13:33:33Z</time>
        <hdop>3.8</hdop>
        <extensions>
          <osmand:speed>0.9</osmand:speed>
        </extensions>
      </trkpt>
      <trkpt lat="47.9931729" lon="0.2541808">
        <ele>97.5</ele>
        <time>2024-05-10T13:33:49Z</time>
        <hdop>3.8</hdop>
        <extensions>
          <osmand:speed>1.2</osmand:speed>
        </extensions>
      </trkpt>
      <trkpt lat="47.9931054" lon="0.2541759">
        <ele>97.3</ele>
        <time>2024-05-10T13:34:05Z</time>
        <hdop>3.8</hdop>
        <extensions>
          <osmand:speed>1.2</osmand:speed>
        </extensions>
      </trkpt>
      <trkpt lat="47.9929229" lon="0.2541859">
        <ele>99</ele>
        <time>2024-05-10T13:34:21Z</time>
        <hdop>3.8</hdop>
        <extensions>
          <osmand:speed>1.5</osmand:speed>
        </extensions>
      </trkpt>
      <trkpt lat="47.992751" lon="0.2541704">
        <ele>99.5</ele>
        <time>2024-05-10T13:34:37Z</time>
        <hdop>3.8</hdop>
        <extensions>
          <osmand:speed>1.3</osmand:speed>
        </extensions>
      </trkpt>
      <trkpt lat="47.9926118" lon="0.2541284">
        <ele>100.3</ele>
        <time>2024-05-10T13:34:53Z</time>
        <hdop>3.8</hdop>
        <extensions>
          <osmand:speed>1.2</osmand:speed>
        </extensions>
      </trkpt>
      <trkpt lat="47.9924565" lon="0.2540817">
        <ele>100.2</ele>
        <time>2024-05-10T13:35:09Z</time>
        <hdop>3.8</hdop>
        <extensions>
          <osmand:speed>1</osmand:speed>
        </extensions>
      </trkpt>
      <trkpt lat="47.9924184" lon="0.2538342">
        <ele>100.3</ele>
        <time>2024-05-10T13:35:25Z</time>
        <hdop>3.8</hdop>
        <extensions>
          <osmand:speed>1.2</osmand:speed>
        </extensions>
      </trkpt>
      <trkpt lat="47.992359" lon="0.2536451">
        <ele>98.5</ele>
        <time>2024-05-10T13:35:41Z</time>
        <hdop>3.8</hdop>
        <extensions>
          <osmand:speed>0.9</osmand:speed>
        </extensions>
      </trkpt>
      <trkpt lat="47.9922784" lon="0.2534595">
        <ele>98.5</ele>
        <time>2024-05-10T13:35:57Z</time>
        <hdop>3.8</hdop>
        <extensions>
          <osmand:speed>1</osmand:speed>
        </extensions>
      </trkpt>
      <trkpt lat="47.9922047" lon="0.2532142">
        <ele>96.5</ele>
        <time>2024-05-10T13:36:13Z</time>
        <hdop>3.8</hdop>
        <extensions>
          <osmand:speed>1.3</osmand:speed>
        </extensions>
      </trkpt>
      <trkpt lat="47.9921806" lon="0.2530992">
        <ele>95.9</ele>
        <time>2024-05-10T13:36:29Z</time>
        <hdop>3.8</hdop>
        <extensions>
          <osmand:speed>0.8</osmand:speed>
        </extensions>
      </trkpt>
      <trkpt lat="47.9920565" lon="0.2530201">
        <ele>96.2</ele>
        <time>2024-05-10T13:36:45Z</time>
        <hdop>3.8</hdop>
        <extensions>
          <osmand:speed>1</osmand:speed>
        </extensions>
      </trkpt>
      <trkpt lat="47.9919384" lon="0.2528968">
        <ele>95.4</ele>
        <time>2024-05-10T13:37:01Z</time>
        <hdop>3.8</hdop>
        <extensions>
          <osmand:speed>1.2</osmand:speed>
        </extensions>
      </trkpt>
      <trkpt lat="47.9918211" lon="0.2527225">
        <ele>95.3</ele>
        <time>2024-05-10T13:37:17Z</time>
        <hdop>3.8</hdop>
        <extensions>
          <osmand:speed>1</osmand:speed>
        </extensions>
      </trkpt>
      <trkpt lat="47.9917266" lon="0.2524931">
        <ele>95.3</ele>
        <time>2024-05-10T13:37:33Z</time>
        <hdop>3.8</hdop>
        <extensions>
          <osmand:speed>0.9</osmand:speed>
        </extensions>
      </trkpt>
      <trkpt lat="47.9917017" lon="0.2523453">
        <ele>94.8</ele>
        <time>2024-05-10T13:37:49Z</time>
        <hdop>3.8</hdop>
        <extensions>
          <osmand:speed>1</osmand:speed>
        </extensions>
      </trkpt>
      <trkpt lat="47.9917146" lon="0.2522571">
        <ele>93.9</ele>
        <time>2024-05-10T13:38:05Z</time>
        <hdop>3.8</hdop>
      </trkpt>
      <trkpt lat="47.9917144" lon="0.2522586">
        <ele>94</ele>
        <time>2024-05-10T13:38:21Z</time>
        <hdop>3.8</hdop>
      </trkpt>
      <trkpt lat="47.9917147" lon="0.2522574">
        <ele>93.3</ele>
        <time>2024-05-10T13:38:37Z</time>
        <hdop>3.8</hdop>
        <extensions>
          <osmand:speed>0.4</osmand:speed>
        </extensions>
      </trkpt>
      <trkpt lat="47.9917287" lon="0.2521742">
        <ele>93.6</ele>
        <time>2024-05-10T13:38:53Z</time>
        <hdop>3.8</hdop>
        <extensions>
          <osmand:speed>0.5</osmand:speed>
        </extensions>
      </trkpt>
      <trkpt lat="47.9917308" lon="0.2521401">
        <ele>94.6</ele>
        <time>2024-05-10T13:39:09Z</time>
        <hdop>3.8</hdop>
        <extensions>
          <osmand:speed>0.9</osmand:speed>
        </extensions>
      </trkpt>
      <trkpt lat="47.9915866" lon="0.252233">
        <ele>97.2</ele>
        <time>2024-05-10T13:39:25Z</time>
        <hdop>3.8</hdop>
        <extensions>
          <osmand:speed>1.3</osmand:speed>
        </extensions>
      </trkpt>
      <trkpt lat="47.9914323" lon="0.2522835">
        <ele>97.4</ele>
        <time>2024-05-10T13:39:41Z</time>
        <hdop>3.8</hdop>
        <extensions>
          <osmand:speed>1</osmand:speed>
        </extensions>
      </trkpt>
      <trkpt lat="47.991302" lon="0.2522771">
        <ele>99.4</ele>
        <time>2024-05-10T13:39:57Z</time>
        <hdop>3.8</hdop>
        <extensions>
          <osmand:speed>1</osmand:speed>
        </extensions>
      </trkpt>
      <trkpt lat="47.9912108" lon="0.2522243">
        <ele>102.1</ele>
        <time>2024-05-10T13:40:13Z</time>
        <hdop>3.8</hdop>
        <extensions>
          <osmand:speed>0.6</osmand:speed>
        </extensions>
      </trkpt>
      <trkpt lat="47.9910737" lon="0.2521877">
        <ele>100.8</ele>
        <time>2024-05-10T13:40:29Z</time>
        <hdop>3.8</hdop>
        <extensions>
          <osmand:speed>1</osmand:speed>
        </extensions>
      </trkpt>
      <trkpt lat="47.9909309" lon="0.2520838">
        <ele>103.5</ele>
        <time>2024-05-10T13:40:45Z</time>
        <hdop>3.8</hdop>
        <extensions>
          <osmand:speed>1.3</osmand:speed>
        </extensions>
      </trkpt>
      <trkpt lat="47.9908094" lon="0.25196">
        <ele>102.1</ele>
        <time>2024-05-10T13:41:01Z</time>
        <hdop>3.8</hdop>
        <extensions>
          <osmand:speed>1.2</osmand:speed>
        </extensions>
      </trkpt>
      <trkpt lat="47.9907083" lon="0.2517447">
        <ele>103</ele>
        <time>2024-05-10T13:41:17Z</time>
        <hdop>3.8</hdop>
        <extensions>
          <osmand:speed>1.3</osmand:speed>
        </extensions>
      </trkpt>
      <trkpt lat="47.9905901" lon="0.2515811">
        <ele>103.6</ele>
        <time>2024-05-10T13:41:33Z</time>
        <hdop>3.8</hdop>
        <extensions>
          <osmand:speed>1.4</osmand:speed>
        </extensions>
      </trkpt>
      <trkpt lat="47.990479" lon="0.2513885">
        <ele>105.8</ele>
        <time>2024-05-10T13:41:49Z</time>
        <hdop>3.8</hdop>
        <extensions>
          <osmand:speed>1.5</osmand:speed>
        </extensions>
      </trkpt>
      <trkpt lat="47.9904072" lon="0.2511792">
        <ele>107.7</ele>
        <time>2024-05-10T13:42:05Z</time>
        <hdop>9.9</hdop>
        <extensions>
          <osmand:speed>1.5</osmand:speed>
        </extensions>
      </trkpt>
      <trkpt lat="47.9903509" lon="0.2510512">
        <ele>108.7</ele>
        <time>2024-05-10T13:42:20Z</time>
        <hdop>5.9</hdop>
        <extensions>
          <osmand:speed>0.3</osmand:speed>
        </extensions>
      </trkpt>
      <trkpt lat="47.9902643" lon="0.2508962">
        <ele>106.9</ele>
        <time>2024-05-10T13:42:36Z</time>
        <hdop>3.8</hdop>
        <extensions>
          <osmand:speed>1.5</osmand:speed>
        </extensions>
      </trkpt>
      <trkpt lat="47.9901765" lon="0.250706">
        <ele>108.4</ele>
        <time>2024-05-10T13:42:52Z</time>
        <hdop>3.8</hdop>
        <extensions>
          <osmand:speed>1.2</osmand:speed>
        </extensions>
      </trkpt>
      <trkpt lat="47.9900669" lon="0.2505121">
        <ele>110</ele>
        <time>2024-05-10T13:43:08Z</time>
        <hdop>3.8</hdop>
        <extensions>
          <osmand:speed>1.6</osmand:speed>
        </extensions>
      </trkpt>
      <trkpt lat="47.989971" lon="0.2503219">
        <ele>110</ele>
        <time>2024-05-10T13:43:24Z</time>
        <hdop>3.8</hdop>
        <extensions>
          <osmand:speed>0.9</osmand:speed>
        </extensions>
      </trkpt>
      <trkpt lat="47.9898899" lon="0.2500578">
        <ele>106.4</ele>
        <time>2024-05-10T13:43:40Z</time>
        <hdop>3.8</hdop>
        <extensions>
          <osmand:speed>1.5</osmand:speed>
        </extensions>
      </trkpt>
      <trkpt lat="47.9898322" lon="0.249855">
        <ele>105.1</ele>
        <time>2024-05-10T13:43:56Z</time>
        <hdop>3.8</hdop>
        <extensions>
          <osmand:speed>0.6</osmand:speed>
        </extensions>
      </trkpt>
      <trkpt lat="47.9897789" lon="0.2496314">
        <ele>104</ele>
        <time>2024-05-10T13:44:12Z</time>
        <hdop>3.8</hdop>
        <extensions>
          <osmand:speed>0.6</osmand:speed>
        </extensions>
      </trkpt>
      <trkpt lat="47.9897682" lon="0.249417">
        <ele>103.4</ele>
        <time>2024-05-10T13:44:28Z</time>
        <hdop>3.8</hdop>
        <extensions>
          <osmand:speed>1</osmand:speed>
        </extensions>
      </trkpt>
      <trkpt lat="47.9897524" lon="0.2492974">
        <ele>104.5</ele>
        <time>2024-05-10T13:44:44Z</time>
        <hdop>3.8</hdop>
        <extensions>
          <osmand:speed>1.2</osmand:speed>
        </extensions>
      </trkpt>
      <trkpt lat="47.9897351" lon="0.2490531">
        <ele>105.5</ele>
        <time>2024-05-10T13:45:00Z</time>
        <hdop>3.8</hdop>
        <extensions>
          <osmand:speed>1.1</osmand:speed>
        </extensions>
      </trkpt>
      <trkpt lat="47.98969" lon="0.2488256">
        <ele>104</ele>
        <time>2024-05-10T13:45:16Z</time>
        <hdop>3.8</hdop>
        <extensions>
          <osmand:speed>1.1</osmand:speed>
        </extensions>
      </trkpt>
      <trkpt lat="47.9896618" lon="0.2485806">
        <ele>103.6</ele>
        <time>2024-05-10T13:45:32Z</time>
        <hdop>3.8</hdop>
        <extensions>
          <osmand:speed>1.3</osmand:speed>
        </extensions>
      </trkpt>
      <trkpt lat="47.9896448" lon="0.2483176">
        <ele>102.2</ele>
        <time>2024-05-10T13:45:48Z</time>
        <hdop>3.8</hdop>
        <extensions>
          <osmand:speed>1.3</osmand:speed>
        </extensions>
      </trkpt>
      <trkpt lat="47.9895828" lon="0.2480542">
        <ele>104.5</ele>
        <time>2024-05-10T13:46:04Z</time>
        <hdop>3.8</hdop>
        <extensions>
          <osmand:speed>1.4</osmand:speed>
        </extensions>
      </trkpt>
      <trkpt lat="47.9895976" lon="0.2479058">
        <ele>103.2</ele>
        <time>2024-05-10T13:46:20Z</time>
        <hdop>3.8</hdop>
        <extensions>
          <osmand:speed>2</osmand:speed>
        </extensions>
      </trkpt>
      <trkpt lat="47.9896019" lon="0.2478405">
        <ele>103.8</ele>
        <time>2024-05-10T13:46:36Z</time>
        <hdop>3.8</hdop>
        <extensions>
          <osmand:speed>1.1</osmand:speed>
        </extensions>
      </trkpt>
      <trkpt lat="47.989616" lon="0.2476437">
        <ele>104.2</ele>
        <time>2024-05-10T13:46:52Z</time>
        <hdop>3.8</hdop>
        <extensions>
          <osmand:speed>1.3</osmand:speed>
        </extensions>
      </trkpt>
      <trkpt lat="47.9896708" lon="0.247502">
        <ele>104.7</ele>
        <time>2024-05-10T13:47:08Z</time>
        <hdop>3.8</hdop>
        <extensions>
          <osmand:speed>1.3</osmand:speed>
        </extensions>
      </trkpt>
      <trkpt lat="47.989692" lon="0.2472961">
        <ele>104.8</ele>
        <time>2024-05-10T13:47:24Z</time>
        <hdop>3.8</hdop>
        <extensions>
          <osmand:speed>1.3</osmand:speed>
        </extensions>
      </trkpt>
      <trkpt lat="47.989686" lon="0.2470276">
        <ele>106.5</ele>
        <time>2024-05-10T13:47:40Z</time>
        <hdop>3.8</hdop>
        <extensions>
          <osmand:speed>1.4</osmand:speed>
        </extensions>
      </trkpt>
      <trkpt lat="47.9897683" lon="0.2467884">
        <ele>105.8</ele>
        <time>2024-05-10T13:47:56Z</time>
        <hdop>3.8</hdop>
        <extensions>
          <osmand:speed>1.3</osmand:speed>
        </extensions>
      </trkpt>
      <trkpt lat="47.9898241" lon="0.2465673">
        <ele>106.3</ele>
        <time>2024-05-10T13:48:12Z</time>
        <hdop>3.8</hdop>
        <extensions>
          <osmand:speed>0.2</osmand:speed>
        </extensions>
      </trkpt>
    </trkseg>
  </trk>
</gpx>